{
    "hashes": {
        "appinfo\/info.xml": "19ccc68bc8a0fb178606225e218083be0b9eb90136e154ef0478dbb31904fb42c372b016af61acffc71248c43fdf372f50695a1d9815c9c44e4641440b5f1088",
        "appinfo\/routes.php": "2e2880b20b3e1e0fabfc7ed8cc52fc2085967ad5e6124a836d14ffc8a8a7a9db69416d413b2a8fdcd482df56af74f0cf8450421183903724e0b845aa1e951c58",
        "composer\/autoload.php": "86227106ea7920831ff9d6d1d26d80663d82768856178672d02a46dbaf39456101efebc5ea7945aa9335195ef2c1821c43339d81143e57229e9beabcc293fbe4",
        "composer\/composer.json": "2d85241cffaf22a780e02481b7eec4876209acc1aab4c32e8bc37a9f9437e02ac565825dc7c7b8c6eeeca2a0da6284ae34d37a7f17a8c58815fa64ac80708102",
        "composer\/composer.lock": "aba0413aa705be0d0570c496a43249c551836824e7a2b4673b51838fe0d9f425ddd07b6c4b95aa74ca549f58e90f2a7d78b51a2a3080749a5dc2e4a46d04fd1e",
        "composer\/composer\/ClassLoader.php": "a6884d84d11c4bcc2a53f86929ad8f519d5e1cda93724a3069df108b91a71345e59f2598cb0361ac0f88576fc03315a4158215b33e9609d8f07dbd3819754d61",
        "composer\/composer\/InstalledVersions.php": "733e68c171cb9e44868bb0f105850fbd0e4f225c67235bf30fb2ac5c3443c6edfb722d4b33aa91c82bb600e937cb6392eb1883694d41616e66969d7d42e23b4f",
        "composer\/composer\/LICENSE": "f3bb64009f41a425df5a9bbab53490f0eb9b74fa8d6aaa2f57efb928edc4ffff330260666edeaa04a91fed708c3663371cf01b284f3a08d6698aaef7a23f355a",
        "composer\/composer\/autoload_classmap.php": "cb47926fa005a34241a7bd3d03e8b4ad258b85a60300bcd3978429bc9d0468ff906fcdeb7c2bdf049efed362974ed75e21e0fd55e5a85baeb9a47748af1f4095",
        "composer\/composer\/autoload_namespaces.php": "5b2571f3b573a778d362b8c7412787b4084c7f27d3f5bba1585243f3ccbb0b9054e68522a22a1ad59ec11097b03a0e343865c0188c65b25f0a97e24e120339d1",
        "composer\/composer\/autoload_psr4.php": "516953dc1a8641bb58a863a69b54f4900e862b62978d72d150faa1636141e160464f3de3eafb441d6b0de18439c6b88d8341765a1f25b6c1b9db304de1f34199",
        "composer\/composer\/autoload_real.php": "324be417da11f2c5ca9e12e6d4944a790821005ef1f9302cdb56c82ad26dfcc5ee119d6781b36188f8be6578f873988094ff332424c223d81646f351bbf9a268",
        "composer\/composer\/autoload_static.php": "a6d3b5f0b70bfdde146a269f5c4e97648785edb28f39a6ffb4cbcbe06107b98fb57739be85837853316f699bb57f1b3f414bcb72e1906661611d69a6ff6c5a7a",
        "composer\/composer\/installed.json": "0a3ed51f953eb945b970a8eb21957ca2beee4669c7d0d9be97b8259c391b60688f8abb78d4b1fae5e4e2ea5e3d8747f4d35f066a2605e9a76f5b45ec3f1da357",
        "composer\/composer\/installed.php": "e6858a3fc8f40144ee72d1ab87b5431a4f3246ac64d53bf639efeb6636392372bd10ba18a0b1cbaa483b8c05a1e35af769c457447ddb10af2cf00270767adb22",
        "css\/404.css": "0e8fea68d96b36041d982aa9140999752a0d27859e9cd09806d30f706e52b9f779950b996fabeea6ab5d7df3116bcf31b19176cdfdd643413abd4e668843606d",
        "css\/icons.css": "5e4e7264d561556795555f7ff39d0f88d3849188192e40ee8439ac5ce7528c86efedabf2d95ecdd6c8e4ad10b9bc548f80edb2a5dc11ac5399183337faa93afc",
        "css\/icons.css.map": "985066e896c907a89c670b623699b37b8e2e6b4a84ff11010a4fe94be8e30cf70b2174cd5f7fcaf5cf8a45413d7518dd09d4e10dd7ceaa01d3f61fb84a5313cd",
        "css\/icons.scss": "cd3e507f7096505436cd6a07960bc35700569cd439b3ad0fba54e2e7a3fc5a639733f24b895ac7701256f798a61d655aef6e10cd4210eda23ce3326185776213",
        "css\/mobile.css": "48741339eb3730c0bc6607d1b34e4b3aa877ac7cf4745c181d30bc06f1cf0a8e2954e61de08ad14064d6b8da74feee472c0dc19f594a7490e755a1c78c1ee0cf",
        "css\/mobile.css.map": "dd09f30d5353b1c8da9fe895324143101227366d1b274f7028426966e8787d4088a2bf381d8c7cd9e2b570bee17e7c4b8451ac60bcf074787518f0955f3eed04",
        "css\/mobile.scss": "ca4cb025cbbd3695f4eef6ee978b37f299454c0c43d7ae90f70ad86a6ea24aeee1ac68d735c6eaaa95bce327da6c5c2b93bae155edd240e56ef9ac2bc40aa696",
        "css\/public.css": "50e116048fbcd1f936593fe72923b756c88a0358ce917af5e0c61d145dbbf1d98753374b6d3aca2b609014055c605c65f41b98c90d10ab8b1bdff0dc5ff393ed",
        "css\/public.css.map": "5e51a1aac477cb2d0d67d8ef9d4c74ffff618118304265bd9ab2d4df74aa4cf087e786cce8b179498b5c341b5709fdda90d273fff28794a7de6602f32c1bc2f3",
        "css\/public.scss": "fe19eadd3dd5190edcc1cb67d3d5d0ec21a9a639458487d0bdb030f8066a853c5d94209c3e70e17700e3fee90adffddd712a8ef9c7a5a0c7387e3635ce5a1057",
        "css\/publicView.css": "581f877c23c3b319cb868824483958b06d5c69d0ede4199392de543c1b807d742f03bbb0801459ccfa4618480e15fce1ede93e98da767c9de877afae241c291f",
        "css\/publicView.css.map": "9a8d640382de5cdb378be1a037712f154f0def548aa3314aade236b840b3d2749bddd9f0b8cdef0fe4878528cef2d6893190c2ef233af6413b3cf28082ebdbce",
        "css\/publicView.scss": "cc05a2f1d7622d6ce906a24640ca5ef3e9dea312c21899c5e5c15a3e973342b7c0c40d8a492b8604daaa5bd3332fc4b310d15ae908c905f5d6464a5982f65423",
        "img\/app.svg": "7cf212fe8951ce985198b94b94db9898818369fa5fee6145372162d215c22d6b0470fe8056d760b7f91838d8803ca0b399614fe4b97a3e587da2ef6decd0cde1",
        "js\/app.js": "aa014e79ab14554d8f554c0ffe8acadc1bae8086d84cb2e8d8afc89401c51c01cd4073578e8dc1314a58c85b0921c48015d33bfa81fc656a5e99d74e22c91c12",
        "js\/files_drop.js": "074980fcd382ac33a26fd7a53a5d0f04a5c28f1b48490a0e15ebaf2f36c20b1fe6df33a2b7d2f3f792a1e30b4483f07ea85cd4d92b978b67c53c587dce495d72",
        "js\/public.js": "7bb518b78b1f93b19f7b11fb6f259a170ad249bfb954d48c82ed31a62c1ca5e3e164a9ae75e192e3b2f2fbea2e6355f438d9fd4fbc334f796adbc3d8db42b58a",
        "js\/public_note.js": "06b2d6d5e45d6a07fdce81d2208a355c4ef884b18336d21d86725989bccc2afacae1945496825a88df7d5ed025725b2810035fbfe5bd8875af26197814e922cd",
        "js\/sharedfilelist.js": "cff40d38ca844c268b61c23aaea9ced7a6785def30e3e8f4ca7131f37daa33152a6077604b259ea3adae3ff4f0869bfe505973411ae341aa31d9d4c65fad1c47",
        "js\/templates.js": "4a4b52e05a6fadbd9dbf1089e955e6798d12123721eaf31178c3a4e25c9c08533af4cd519c7cb733832d2211e007ac2e076a74b7aa8a56ac5b1ce5324a31c1cb",
        "js\/templates\/files_drop.handlebars": "eb463ac5873881a26d10195de889d2ba683c380e283c794eb5cbba8b12db349d69d3801bff03aae992029f141e57d4bfd2af7224482f360a76ea59655088dbea",
        "l10n\/ar.js": "83501577f2a58007aef1189e37f02d0bd9160d77c33fdbb1b011b80ed92c4cdbc4c1234850263e58e657392f304014ca7870ed4133426d81076fbfd89d1e5244",
        "l10n\/ar.json": "9119776a5efb25d5611eff1bd8297a5b6670b132fb8ec279ea4dd0a828e475a3d9eb465743045c15793f80c191dbccef6c91433a97500fed3c09a23ffb02367e",
        "l10n\/ast.js": "7fee93ecdcae6eef01daae38fb3e70c804377e8b5e6ff526b05a7e978d56ad49c52e9cf7f32a57ac01784cdbbb72272afbf5440cc19158ed69a1e59736c88edf",
        "l10n\/ast.json": "591bf91ec1197ffd29e40aecf710423578db4244aa0231b26d3d6bde4bb0a8a825e153305753a56243402cbd7fcbc5561d410248eae6e0c2260f63a872a0e48b",
        "l10n\/az.js": "f030bb46e9f7f8b659d117ad44f93883b13bf6c42fd3a91e0bd868f7142d06eadebfeaeb86503fb1b948fc67519f688d5d778e4a1beefa1da208d163f60343cb",
        "l10n\/az.json": "7674e2b62222057c7ccf92d4839ee0b6467809ce0cd886e08769c880e2097036ef808d08a0ace7a8d9296e39acc99bffe2dee728235a39f320dfbc559c927185",
        "l10n\/bg.js": "e3baa4d6df88900cf503fd877abc509fe2eeb1c1f68c42e3b9b664ca91b99a3421f35cedafde3e351ec4f266c828b66d9a7b4f3a6ce7f1d5108976a6ece019e9",
        "l10n\/bg.json": "b08311a88d94fc8fd8fec072d19facedcd740907e9912b766af313cf39a2bf8c6831ab2eddaf6fac5ae067e0f1af317abc896e258d2d04d1a49a39a2f28472df",
        "l10n\/bn_BD.js": "2f6cd41320d9a384beb8c7fc0d2c3b8ebe65670036305a78486e95f914a862eaf5ef51779a6b5f5d94a5c2a4a2be05433906df697d53909f0a3d526b4e1178fa",
        "l10n\/bn_BD.json": "ef0a7696113bf2dce6af81044cec3730c5206ab991549fbafd1179f0f53076bd12eb712baf19a46a154b63f16688c9a80ee0be0b7b20cac18bdb180f2ddd1e32",
        "l10n\/bs.js": "afb9b3e454630fe06b62a71d4e2317c3ffa2e7c8135e42a289a39edfb4622cdd1ef171434e2ffade0c3461aed6b8c57213ba1d3dd42e615620ec5667dd30c8b6",
        "l10n\/bs.json": "213a1613e65e9d32b9cd4fd056f9640131cedb1db8ccb54323da22f72d5a6e24c53f6ff78e754fe1aa6798158395ef58ebc94ef0317342e11a272d6907bb2870",
        "l10n\/ca.js": "f883a77adbca9a43564270c0e7ab42d347c19bfc99c58d1ef8ca1b727894393e58ba54d78421215c46a5d907fde0d06bf13139954476f1ef3a828cccbb57a456",
        "l10n\/ca.json": "d82edeb47d8595bd3d1d425f294a73a6c5726ea46e896c15d67b7567ab023319e7d48518102d5a038e9bbef56bdbdaf6536d08621b796d90618117dfb116bce1",
        "l10n\/cs.js": "5cc25dbebf3b03f62e7d097a3eda7105eb56f6773d8793cc575646e9c1d38e7931ce67aa917b9f208e4ab37b02ef44bca2cacb1799298454cfa4cd1c420bd50e",
        "l10n\/cs.json": "11ed6c65f72647b31094366090b5b3fd54a2f007201346a9c7823722194889de3fe5f1438c938ddd4fe914460976c51df4ce3dc64d6612b6c4178c1c4b5da172",
        "l10n\/cy_GB.js": "6e1a2ae6ad49175a9cbfade25f8e4dd3c937486085d3f319ca4ea9906d02fbe14e27f40b46cb35c9a1dc84365bcdc71a4b04e5b6cea0d16431187ec304646bd8",
        "l10n\/cy_GB.json": "0d513a7a320a1de9acbd2da77bf3d24d2a3fdd504877699deb4462463bf5a23edcabc275bfb32bc7b92a9f8de06b2e40d9e1e81166173bbd33315f909805917c",
        "l10n\/da.js": "bdb35ffedc0a9f12f186a4bdf9143a4ea7a32bb9be511a48e8114a16d53d71f3299524664698eb75a36c5ae12473dd0093d7e9970c446825b9355d66175f9790",
        "l10n\/da.json": "b668f75dc82e3daa7da0024b542f6cdb19c90c4259368a847b79f94b579707a578adb954bed0cb35d1f88793ca4792838c14f07791450a677379752bd26df30c",
        "l10n\/de.js": "89df8de62f224c3a909e185ee9cc5324456a8cfd700eb6bac0e1f983402a74289d661cf940ecdb10496db9456b64df5e7c9feb4487d7069f2a758e1c9cc8332e",
        "l10n\/de.json": "546d35788f7da862fcde2e3b313f628461849f7aab1e55498b85b94a494279bedb98290c65f8d27df42242081cad8f209a56dadd8a4b1b20755db8dfcdd47064",
        "l10n\/de_DE.js": "170d3289937163b3bfa02c5481f33d19ad5c06991a0def4c811ee9fc9f0a0e71c0022c3344460cde3c2109c6701dc64e1744e5ee8db9ce7f574d7b649e004195",
        "l10n\/de_DE.json": "0fd03c8454baca171068ac8fe860e11670dea6dcbdd415b38103485058c1334dcade62b33b34b29799c3117156216e04834029fa0a13766dcfe066a85d535c34",
        "l10n\/el.js": "47c8f1e7c7e525dfd4338b013e0b851914abef4bb5291e4ec09977949203006d1721796876e402473985e32393d15f4f84d1cdc3a753df3e31605ccb4f0ef0b5",
        "l10n\/el.json": "02cc8cf725ba71824c85a38ee016a36497931b5918fece198ef4198361fdcadd11a5554226f208118b12ea1a653c3f3f6a25aef0d5df8ac65506e20feded4cf3",
        "l10n\/en_GB.js": "539fc340e81c4a2dbdcb763562ac8512932abc40df48517bb9a86fd43673956148b5446285c3a1bf05049d348d6090a3278530a48b95a6148ad693d2aeaab1f5",
        "l10n\/en_GB.json": "10e23ffbdc339fcc5673a8c46cd92561c53526914e345e4e173889384c9beb84c333e7bb4fb79107f61edb225a2e09c2f3ff5de509793106ca3f2f3ebec18c67",
        "l10n\/eo.js": "679d77d6d87f66020e3b736e85098c618e5afb8be9592cffbdb692fd6507a5575a2fc8205d7bf4af8dd72126e0e5229a58f7918ab5326161ae32bdba5eb4476c",
        "l10n\/eo.json": "74202a0d733557106aa173a8f03eec9987986339e131fcb38d139e76ee8fa9eacbe304c5acac23ff83c94b2607069c8ff661c5e0bfc4ea886edebf512ed6ecb9",
        "l10n\/es.js": "6433038b13461d03c3248e6e3231f44239992f81a70f9ca956f63fe6bbdfaee7e060d297040664745186ab1523c684b46c9309c9197d9bc2896ef8ba06eb232d",
        "l10n\/es.json": "c2f9decc524dfbd073073b82304d1f53e6b6ebcbf0fac127aa63287eab84faf83715d5b94e987a8f506ea09333c1f704cf0d280870dce4410567c37c25d5acb7",
        "l10n\/es_419.js": "86c565849d4df18a37b31a92b61ce223047da7e12fb28d44ac6c2ad210cc42ed3a28bd5f9bf74165f3613160e2add715cd42bfacd69d43885e5131244eb5c265",
        "l10n\/es_419.json": "a3642ce2f8c14e75bd2ee7b706be4396f095936e56070650eccca5a3b32c9e52559e7e13f4b1a1cf725a05ad3defb58cc4f72e00879780da14f22a83fdeacea6",
        "l10n\/es_AR.js": "e1b80a647dac493543b250451b5753df87c2599b105530fbe53dc53343b57eac3baada757eab97dfad82906e1f50ef844edf78ed2931e993a3039c06d40ae188",
        "l10n\/es_AR.json": "39070b64b03b07fea9f632db3d49c720e080a3742830ab47d7ac2010be0918ef7a05f234e97616962e65dc87f5496173511ec99553491fef784d58f83e8f3147",
        "l10n\/es_CL.js": "0b23dd7c16068b78397c34e4af8d7f029b737d192bac8b6e191553e473b4ca9812b92a1d8ed970a628064b90d097fafe1a6a72bb9e8c6338ced50801e8b05545",
        "l10n\/es_CL.json": "7180b7a28fc14656445ce33eb22fdb6f190920a79ea613da4b6df97c00956a1faaa69ed99ee1b1ba4b217570eba0d87ae683745e7a33dd957018cf536b513790",
        "l10n\/es_CO.js": "7853adfc45950c16dae9763761196c01ba2c6dc1c04c107f88fc6b7234d3c0a90543137bca42c62eaf36c4ee6ba7982ff18d76369e9af7d380f6dc93eeb7a747",
        "l10n\/es_CO.json": "9fbf8c011ba084a78ccda1ebcf211f5caa0a0441eb87289a1f37a810358674c2096285c677d69e617aff08b8f5a479dc8e962cc72857e113a2773386dce2a6a6",
        "l10n\/es_CR.js": "07ae0407848f156113a80f8370a3d3aee083f47eebeb57a916fa631bd92d892c7f557f378a1d2f82ca58c39260853cc29c754bd1b87883a1f9251c9d0a258a56",
        "l10n\/es_CR.json": "f4449773c587ce93197895405d76a95660af4831c8479a0be547f83e5d18487b29c2f1a699d71b1cca909492a13e04a5c887e01f7947f521fcda7d04329b0718",
        "l10n\/es_DO.js": "01c60e85b9fecdce2f4868726b84bead9a94c29d37853e296d34bc0489b4576930a658d164ad7a70aca59cb557442234f8395bc495a54dc9c14eb4398a7119ff",
        "l10n\/es_DO.json": "42055028159a1d4f65a46f20307572c336e5ab579dbc0eb1316738a68bcf9b9a11312a1d901ca0745bc299c9967b6a175c07809cea6f7e769aa2c97f9ee0f01f",
        "l10n\/es_EC.js": "b59a3b985e8c3f616cc1b57f4d09695fde107f3939fa401f9c76bb0186ffb6d16f420e617d3a7d43dd3e920960fc64ffb759e1d013d89b5d42033fbe199716ec",
        "l10n\/es_EC.json": "74256b0beaba660e40fab2bbd40daa49e022aa36981439fa554ca7f41d51cc7452299969e258dfb3e4bc8f33a394fcf979e095dfc476e48615de6941b857e58f",
        "l10n\/es_GT.js": "07ae0407848f156113a80f8370a3d3aee083f47eebeb57a916fa631bd92d892c7f557f378a1d2f82ca58c39260853cc29c754bd1b87883a1f9251c9d0a258a56",
        "l10n\/es_GT.json": "f4449773c587ce93197895405d76a95660af4831c8479a0be547f83e5d18487b29c2f1a699d71b1cca909492a13e04a5c887e01f7947f521fcda7d04329b0718",
        "l10n\/es_HN.js": "a5b5c3ec78611c9f6bb67de0752120d689a0da8f738605efae14f161c8c06c866f45930673f54e5e9578b2c9bcdfd38df2f9dfd0ad7be5ca5903650c08f6f949",
        "l10n\/es_HN.json": "30d838cf5eb9d21bccb1077e70986238a5501d03123d42bfbe19f64eea3db6beaec2b45891b9d443abfdb861de9ef50f397cd6af3c1a326ef0a5f2e3b4a3f8dc",
        "l10n\/es_MX.js": "ad2296d4bad7601660feacc81a0ff6f74ec2c6b79c5665c09195d6861442e087e9ec7c35acaa73ac7a359bf5d9e90721fe9d31697cef01fd391ef15a220d8220",
        "l10n\/es_MX.json": "b500a2f824ef7ccf7b80e700670796285fc6007006c434661e5c5bd576c083b3ca7040272d9b4d0f6be5ba36a0a8511559ceccdddb0d49330f7abe916e33edba",
        "l10n\/es_NI.js": "48326a2ac18706116c8970ba34d56d7a685371e1b3e1f64ebff38f03bb4879ddb49a6cdd17fac153cf56116b08d3d814ea33c072035e6ac55a3e76ec5a07888b",
        "l10n\/es_NI.json": "eed6e5c270cea1287ae13b625879c8648c48bb4be8d5ae67665c90b136a8a729d81e0bb7eec50d405b5262c82214124c5475e488b5ff364171ad4bc933c284f9",
        "l10n\/es_PA.js": "48326a2ac18706116c8970ba34d56d7a685371e1b3e1f64ebff38f03bb4879ddb49a6cdd17fac153cf56116b08d3d814ea33c072035e6ac55a3e76ec5a07888b",
        "l10n\/es_PA.json": "eed6e5c270cea1287ae13b625879c8648c48bb4be8d5ae67665c90b136a8a729d81e0bb7eec50d405b5262c82214124c5475e488b5ff364171ad4bc933c284f9",
        "l10n\/es_PE.js": "73a512609bcf92af0efb75f28e9234031ff2bccbf9265f7d13da6a060624f9a96244c45c066b22dd210f9c3ce03451314e9a83cf3b8f5e7c77a45ab2cf362de9",
        "l10n\/es_PE.json": "f36659cd20f571f7f4946edc4459347b36f68b9812984abfa156bb71241df8732d6daf1acc080d8a7ece494ec48f12c05e7adaad6f596c62d0231b7406a37919",
        "l10n\/es_PR.js": "48326a2ac18706116c8970ba34d56d7a685371e1b3e1f64ebff38f03bb4879ddb49a6cdd17fac153cf56116b08d3d814ea33c072035e6ac55a3e76ec5a07888b",
        "l10n\/es_PR.json": "eed6e5c270cea1287ae13b625879c8648c48bb4be8d5ae67665c90b136a8a729d81e0bb7eec50d405b5262c82214124c5475e488b5ff364171ad4bc933c284f9",
        "l10n\/es_PY.js": "e3a9ddca4e1d3eb9c846d2d7f7e846b092317a4d266d087094018dcc3b01cd4b87eb580f9515a2687fe79448bba9a21d9ef61549ba573e638e13604b642771c8",
        "l10n\/es_PY.json": "c22a4c7655cc08b7d9e2017305767e3007c556e46a7dbaacfd02a713f45ffa9af52b254630e0225e1a08adbaefb9211d4b3dfc893d3feed8239ba67bd701b8b7",
        "l10n\/es_SV.js": "07ae0407848f156113a80f8370a3d3aee083f47eebeb57a916fa631bd92d892c7f557f378a1d2f82ca58c39260853cc29c754bd1b87883a1f9251c9d0a258a56",
        "l10n\/es_SV.json": "f4449773c587ce93197895405d76a95660af4831c8479a0be547f83e5d18487b29c2f1a699d71b1cca909492a13e04a5c887e01f7947f521fcda7d04329b0718",
        "l10n\/es_UY.js": "41ebf225e8044ddab5bf60e45998d638f927301ac3d6ac00b6a4299fcf5e93612f82c0bd209ca69e3ca0b603b96b3cd21c1bd68afc0d7fbaf14912f15ea13fc0",
        "l10n\/es_UY.json": "e465babef341f99dfc18b79851da1b02446d8af0a46cfe3331bb78eb0a23d1dee3427ab6575162a7840f6a048e8867d2b72ba8c1205e33df150f822e418f2a71",
        "l10n\/et_EE.js": "cb3a97f2645df7749a716a9d554a67abac5d4c41136cc2ba5d0f9a90070b4d75a5d8c12f31357d2511d9e274d597298dcb44af7b7c8da3b439626b406ab81223",
        "l10n\/et_EE.json": "8585f7d57a3d3155fe33d22a1417accfa5878c4832d4b6b27afc1226c24e346da79b5986925fefb49655b4427a6711930584bd997a7d1a408e860935cb03d320",
        "l10n\/eu.js": "710af6d623fbfb474c318537f00ab7645ac6659ca392f192325711932d26263de7bebcc8a116da153095bca7c54ee5e095b47aebca3fb87f1c6dd038b713e0ed",
        "l10n\/eu.json": "ed66826e438127f7d1d5ad7eef32a3bd04375982c26850ff10e70eaaa5797893445ba2e5cea67895601d0a10afcfca0fdd3c1e52750bf56f0b840ebd05a7f3b0",
        "l10n\/fa.js": "df986013f19dfbf5e6293996f2e571e47b9caa33d3fdfc46521d458249ba5dd4f667e4063c4dcce261be0a62d426207c3387f7e76fe68652447f293ff499aa4f",
        "l10n\/fa.json": "a23a0009d850d6443258bf3a1337a150d1f0127dc40a7551b284981031c1bcccb08c496cd6c5501a5746af726d840bcf4f8dcc0c4063a8adc6d24463e031ae2a",
        "l10n\/fi.js": "377cc34b8095c235c08a9366b589dbdaca55495b8d1d134e00ca634d51978175c676c37af16e43b349ac1b5526d20cfef9bd657132226533fd94476a7b424a70",
        "l10n\/fi.json": "e8ff3ded57fbd85438d8e859bcc2fa92c059e995e73463041cb1e4af82eb315aff3c9ac9910bb88b713ffb4a094e1ca54b5a28126140d7392160edbc90ef02b3",
        "l10n\/fr.js": "e1de89578d7b33974f9b985fcf64da96c6be3ce7a70784c1168d0ad7c8371e971674a738743553dee30622ed809972052447f1eebfbd234d78a4f41993c6539d",
        "l10n\/fr.json": "b0dd1dbc38d102825d2d4dccde53c4f816d80d976d276d5ea42a6ada22a7badebb833f1d58eaf4aac95e6141646e17077de33f513ac21cf762e58afd7b9bbef4",
        "l10n\/gl.js": "5ba803d372fcb2a02bbc9ab8764fe39404ca8b536166764a865161da93f3c7a603a32826c150aa6306289ef5a46173ffa2f8f212d92a16b872f5890a25eaa8e4",
        "l10n\/gl.json": "6ceff1eaed73313c553e1cb028242f456bf64c319ff6df6dd530889c3e09c85a2a2c1bc6628cd2ebd2736678feecfe896f1a737982b44295a90e64df9497453d",
        "l10n\/he.js": "70daf4a8203516ed542464cdd7b90ee272a455c891c2867dddf0ddd631d98fa1c9fb369db72319da794e0daa1ec92722ce68295319f17d6fddd50212b7959945",
        "l10n\/he.json": "2beaca8b4c94bd2d4ba0bf1801413ebbee2e5280dbdaf3334d14676faf112781c94919555a03a6706feb4046d0f1e8dbb9203e0157df7d3e8f6a749d8eea477b",
        "l10n\/hr.js": "60360a0ab7ba9948b290e73119b8b565f3b6e2d50eac69ce90411537acf5fd9ba7e2b605482fe08ef5486c20929ae8b00edbf992933b37ddd02b0643cf95093f",
        "l10n\/hr.json": "af213606a75b5bb7456afd373907a43940c57ac61c7c20f0b85287fe9c2bc3d33288d60f7c8131034579f6beceeb27cc423e2fd45b62114b924f08377a0e0fab",
        "l10n\/hu.js": "5c2dd2045984abd026c8028ffd31194bb7a807a6ad6a7060a230481c37bb120027a2fb654162a726fb6cb765524e08609433b7737fdd977acaba767e1f124e8f",
        "l10n\/hu.json": "11479f162b23482ce26857e8ae28248d45fec72de0e8a488e3eb0067cced2731435e26dcbce58f1b715472360a0589b9e230e23ba5dfa404272d9c71f6c2fc05",
        "l10n\/hy.js": "7f0630380b97ef4eadfe8721e9e392a9f859cc14d92ab77f84c7e8530cbf6c6dcc3ec24dff464c68ccdf086e16fda3fc0118e00a7789de1bbc3097d61c2e336f",
        "l10n\/hy.json": "fef199fd1f5f06530045ffa3fb919e540032d14a0e598043ea727e67185a99a2d182f1ecf7f2a46dc24416584650fa12ce6753ffdbae37f831fd255064f7f280",
        "l10n\/ia.js": "7a9c0e0261c09e0f61aa2312262815fbb8c3c03b95df5c9c19f9aa605b09b43da28c57d0e5bb28cbdf62f66d92a466d5640685eed499784283b7c69a2754d204",
        "l10n\/ia.json": "7cd457e8fb09780e2a929a1e963661f482fb3fed26a82618237ab17ca95c4312035683c0e420f83e280b7dc60f7b7baf37c4fbfb484a6552244155bd8a55f135",
        "l10n\/id.js": "f1c3dbbadecae615cc4103f841f9e40df154afd4bd291ca2c5e2f509cd9d4a37589bb8db3915bf7c77283494077eb2f527a87154c4aca9a70ff9043b739b94aa",
        "l10n\/id.json": "2b12794b4977be9d880b2f9f6ee8f9319a97327714c7c55a361e39a365beda7fe10e8a56f9a448d2a7832452882ab61caaf7c8d27b4d1285fd41c79c4c5be4cc",
        "l10n\/is.js": "462356ed1bf3a23de63093bcc3f41f0338c29e392005a4cd197e90338de9f3ca6317c25a1a0a19efa95d7e4f698c560c0c5ab93a10ce81787ab377b14b4e0c44",
        "l10n\/is.json": "80e87014d12f42b0ac3c031ab9e2479410bbe2275f81c84c07fb310c21b043b517814f7a76f3e4342a15132723b00a6a596022e0d7b95f680dc711770ace7dc0",
        "l10n\/it.js": "9f0945c6643ea9273f669c31dc51aaca7d97a5364ba53176a36b3d1f6d5a96bbad8edf1191ff1399b6628ff3f5ca3b4df575036e03308c422cb1f6944b7af87d",
        "l10n\/it.json": "29bad2b00c4dca46d3f2ecc1976c30b2fde4a3bffd1de5d453178d00404e967671793d41933be81d5cb61d5af26bbec80538a98ccbb0ad30ae33c830b8e1cb16",
        "l10n\/ja.js": "18bd182f801415db028cbbb8a4fa9dea06d3266aa8e0779f370edc334862b987f52acbe07f8d0345f980e9200275befb600ac0a87babde43657befb6f7155433",
        "l10n\/ja.json": "0053c7ae38c11f65afa6b2bdc47180d0230946dc198ee1d0fbbbdbb0a57f3578e61879c1fa238ddaa83acabcd9965862c7ffd7fe0262ab7e049aa09ddd34ec42",
        "l10n\/ka_GE.js": "cf3c34ce83d4a0bf750fa5f7059ba70d1f5925b94178d6ca1b5558c59ae56aa83e0b0b614c131c5cedfe86d7a87db5e502c311cfd6692e4729eef9330770c358",
        "l10n\/ka_GE.json": "a9a216d91a81856abb050497544522cac1989d8c505966040db7af1293438d9ef7889098bde49efb8663c9e13ce70368045c8d4a4b52211cb4e9b6c59f34a752",
        "l10n\/km.js": "2d6bbc34f28ec7dbca3b45978802acb5649a69343dcfc04339224265bd5af8269d63bf54d84644f1174ffe9e05cf196e12a4e3708520d4c59330cfe639482cc0",
        "l10n\/km.json": "446834ca6d48c692dbdab57de4a7fd7637238eace6575a8b3d94fcbf8e802de822ba4c6e58f7f2aaa7e65527c22f8d4c0e2cd031bca2357cb86d35a2257ac9a1",
        "l10n\/kn.js": "548ba2d62de0ff5b70c0b74ec182ca3d1649150e9cdd2f697469d9aeb82915e5b625b251c788fd22b5fa3ce96fc30499d874808b03ecb5232bac651049c130bb",
        "l10n\/kn.json": "c0b1ac8a9de4d5748f42498c5c2cfac1daf0549f66135faeb54eb9316b6f65d4584fa7069694b6b841adf7cb83c722e20d7499ffb55fc4cacf883715eb18ff49",
        "l10n\/ko.js": "bd72569a2a8639cf38c10da6b3cc5df441244fb2860f20ad200214d1eddd500f3e6df5c5f5c2c4c802cd0339ce6fcdc2024326c4a6a846d15fcc5f7a2ba88973",
        "l10n\/ko.json": "752b05f0892477b273508a9f8c704359cd63484bc24486076bb541518bb4d37648f9f73914299b7ef1a6d8082acbac09f8639c8c9df3b5bbf7d82d817776e3a8",
        "l10n\/lb.js": "2dc5fb75660e2c34ec2f2a3b4430af3c990354a19abf385b10e76fef4043cb0fa2dca99011fd55916fe3c27df97e63cb8347344a5761c3eb87d572e3cf4b5c02",
        "l10n\/lb.json": "a3e7351e63f25cace53ac8b678b59db65ff23390ff8236f4f02846e2998c028d7cace3c9ff269c67e7efe3062059b2138040e323e1ae472fc3fb8d75e1e7b4d4",
        "l10n\/lo.js": "b6f4fc88becfc7d177a57d806a0a81f38560e42b521b4d07d81eae7d320bfb20ca0c22c3b5eb19b229661673cf57ad6f36069d97c0b336caaa8eb140a17bfce2",
        "l10n\/lo.json": "c4a8f92b4f39093c67d43b9b4001b23eab69301573444493fec04232eb7d7a24234e42fce6e594b65cd2a98cdbdd3a30135419504dc031934c7b7882d86a3190",
        "l10n\/lt_LT.js": "adcf067abf2ffe4be873f24f27d743850f342e06488bf7e5201c6560ae72cc5a19714c2cf88a534f5c0bbd7bb810445521a0cf9cbe0331c28749c28ff6e0c36f",
        "l10n\/lt_LT.json": "df948a3fcf2eaca6872fffde6c2c7ed286edc35560dbd5e37880561fac586cad6aecf86287c989a7c1faac44f41418ec631262c0e32c0947e3a92cf2d3b71ae1",
        "l10n\/lv.js": "bc2d6455aa4e6821ae6c183175b1f38ef4cda3f62be5d29051cb0a42fb25d7cc0c888c8dfb044a594c3922c77c624bde3fe56e07eb651a63e2bd2bcb0efd8421",
        "l10n\/lv.json": "c38f9ba03a26d9e6fa3bc42f6f6a92bd53fc562f0b453069e03f4662683fa16ec9f0b90595a8b1dfbe356a1a5b76f60b1e337456ba9bca56f186de48b9a6a493",
        "l10n\/mk.js": "a5b7ee8cd6bd02b43e07083f32f552244b69cedd3076a1685063751ceb312b560560d1108e4eb85646e18b2190e5678ad6d3a7decf8c6744ee0dd6990fc1abdd",
        "l10n\/mk.json": "5eefb10478e9e3e56429006c88dbc39736085e6aacf679d159f46876435fdb0fe6e6a8240ed35c7edca7514cbfe6e3412cfbb6f56b97032d4269f7d49941bae3",
        "l10n\/mn.js": "a6201c43350015554d293799a5d26208166f91bbd1f4c247980814bd61b1c364d5f519b58442d5a86e53f9318d0aee64f14f9768eedb2a6705aef1d9a38f88c3",
        "l10n\/mn.json": "7bdb645968564852dc533d738869e1d7d8ee8f8e879fdfa3c80737e550fcbb3e27c574f06354db9cfaa9fb430775a91ae52e6bd3245de463ddfc6124d6370039",
        "l10n\/ms_MY.js": "79015b9ce5be0accc06901ce3e5aea96c4410b20f5cf18d16147604245e90d974cedd5a518b8ae6c2e56f3ae98a8716d8ec6c0e03a209f352c690f3bb188010c",
        "l10n\/ms_MY.json": "7bc8850dda3af97ed6bacbcbbc4396d0ad79119c4d4151abc34e84377501a5dca247335810f04ecb2fdb07f67881501692285c249e0cb60f12575589946e09c5",
        "l10n\/nb.js": "20c3a002fd719fc777dcf5e2f6bbdab6d3efecde617466bbadf71cb58ab29be8d03aa221c3b81a6ea677417c97c57a5341a443ed33f0f53f7d8ba840c7b1f8a0",
        "l10n\/nb.json": "93bd9fa4d74cb93066f57f4341b85f159591a6aea71437447e7c713bf47a303c52b914a30aa5a8706de135e15f84e8e2df4b318660236c119bee583753cb42fc",
        "l10n\/nl.js": "a094660939e493b30e0d8c13daa6f8c8a1bd84e59f1883b36832ff83a5a4f4d1e00d3e92929bc76e9d13dcfac3c947c06bac413ab1386552355257d617d59915",
        "l10n\/nl.json": "b6dec86f60faebaf3be28736f66fb4350dffe220d677896631a8e986f242a52bedaad08aba91dca29feaf3fe7c42e2455df243f0bc48f8fd3071aed3d982b387",
        "l10n\/nn_NO.js": "8c8afc8fde93c80161dc441b7d77c316ae09111f16c3a59f889a9783e428b9e44c8fc6afbac1c58781acc6da2d84c705963f7c981b545a0cd09b99cce8ab7bd9",
        "l10n\/nn_NO.json": "9c49a4f5ce48de7f9e816cbb4e1f093839755080def2d639c505b1c7a4d151d7213b599ed9aa5a482eda41eff6f333120ab2c27c9f27c469e5a0479c58478d7a",
        "l10n\/oc.js": "0e71eb1fb18a8ee994f75e442b0da18862d9d3d9db2f59ad75cdf455ffafa6abb29718079adba6aea3cf70b9b62c9c2c07c08a3cab8062149213502852942c59",
        "l10n\/oc.json": "f09cdde38f2f80171c7cd64a6f372d40299e21eb6f19db2b75a34d9594cdf5803983aeff502356b232c2c16ce0d02efe875c12e4822afff92f71430bff2c0e7b",
        "l10n\/pl.js": "168bc41c75a80aa56bca2806e62c038f8e5a875d7097c6ca20e696b6d1451860a0f7634581cf288bfc2943cdaa45d4400b7f87e151417cb94c0097fe474efe7f",
        "l10n\/pl.json": "2785c03d879176a9f32f1d87f46b4b66a0cf1fa437c9f3465e86dbf8877ec97c3ddf45b2efa7f0fe87a41080984d0ab90c0000de3f5e680890d4f30bccaa6670",
        "l10n\/pt_BR.js": "b3ff8fa5c034be6d8163bd5ede02f8a6b0051e327b8bfa987f4c5a613a70dca431db35c987f4e6ad976978d0cbee603ddcca20cea1a243e5652e713656cd681b",
        "l10n\/pt_BR.json": "ef0183e1239662dc024421e7a86c811a25cfdd65df28422e90e040b29552222773a3d5ffd695f01ac0013de24fddabbba868a227aa4f21643c3ab7df7eff1cac",
        "l10n\/pt_PT.js": "37813f6a804bfc749ba2dee6f508859f3fe210016c492966519c4207248f83e10ce3baccc00ebfa29c46ec986806943fa818cb40826623e6399c30071ea0190d",
        "l10n\/pt_PT.json": "3e91d7b18af697cd431c52ca3e75f08716838048a7afce7fd90cf7be0c8c1049a407bb972a3c4a094852a2638722344c0c5fd7456a0be4fa4de3801f1d4ea94f",
        "l10n\/ro.js": "6cba35d990a3c3b9b0802197770d1aceab3b2ff601111054969d8b746b6f318a0264ddc0b97a2b116b4eae09cd43bd20505b94a074f8946da55aecd226cffac6",
        "l10n\/ro.json": "782e11a72cd0caf7536f683e75d677411468a5f51b4c575c428ae207b44e538a8fbd315ebf25fb7c14c76773fcc5db924a557845c3ce26d79168b6c7edabcf31",
        "l10n\/ru.js": "d0b24c6a6edc3ae97c43265c2734eace85215d9a31d76ef708420d136450a53c17397b747173ff34ad26b7bbe5f517054187e24ae7eb4455a31b2936e5aa5d3f",
        "l10n\/ru.json": "5cefc4bc5311382762971e69843b89249b3f36b093cf47d84df67f24067c797f0f2d563878fc2120f18b071fa023285c92b6b5411840eab3e2e17d9de2d448f6",
        "l10n\/sc.js": "aadadedee28075e25eeefd721378d2004707a7f717768845edfe521ad4733a5a37ba3b760141bc3e6957dafd2a823ec51cf8d57348055c600abc1d05a3ac7bad",
        "l10n\/sc.json": "0bd91bdfcbc4a970628ef32749d8381b041514dee532fcefeba48020292e483e6618af40fbffa0fe474f12e85165ed67d3816d128731a8bc988bcd22ec5ff7cb",
        "l10n\/sk.js": "e5d8661d90420b9ef03cfd1aa12b2a05cd4704a1a7a3e0b38fb8104b1b5f902d0a54fb46d7df50af96968e0e2712ad18654b6a065ea12aa1f169845b05f15ad3",
        "l10n\/sk.json": "98bb2b435896371f2970ec6ec59c5d27f9113ea2b930ea158ede388f6ee080109b10885c73b8dfd2f039d1fc61048af105ac18c64a896e82c29e3fc667ef67e6",
        "l10n\/sl.js": "be26f26c28250f13fb834c6b94fd39416858c92ac6cae6cc1eef704c2eb34e017dda1e6cebdf1ccb1e6e3150f221e2a9db5ae8cfbc01cc017e4acdbc1d07ceeb",
        "l10n\/sl.json": "b53ab406e90e590aee25df1092ec28fd8279f96bd74e5bd4cf0947a508c5db69daa13faebeb69d468cffc46be0aa60dc54db34953afefe7f1923038f929b5a26",
        "l10n\/sq.js": "4d606ec2fbcda7e2c2892f7358c129e71466e4489d3a0c973041d8b5a24668d513a39b38b34836a574f646c7e5f27509fe6adda929b7582b16c8cf76dad3814c",
        "l10n\/sq.json": "2694f8b7ebdafcb143ac147dbe0268f036b11dd4d07fa233ab79c5057786cebde60bae18b2f309e67005c52d2be3e3673768186df3f8dd0f18a530761870a483",
        "l10n\/sr.js": "9d9243fdad70f6f565407a5dbcb09c73fad4f383af559c5123636cee4678fd7b242754bd4f7a0605e78772a3cb2ce66989ce3e2e4c89687e5b26c426d61420ee",
        "l10n\/sr.json": "79cf68231f141d4d93aeaab36650a9824cc266d9423cdcb85851dd5b4562194933a814e1be553012f74760a20e09ed49b73a5db307ff30f7971e7b6e282e2340",
        "l10n\/sr@latin.js": "dd943d0a56ec40fc961b17359d6dbbd69282de4a67d83b77642982743911f112e80d03b5ed600b987149b319ff9651822439881d21fd92ad5b3235eda5ef717e",
        "l10n\/sr@latin.json": "0bda60f626e318ffc09a4df902d5cfd6ceef0c6da8afcda9059436e5876372402cd6ee1c8bf9a13e65109dda61c73e0b5b8395afc713bc3ff428d6084c49a45f",
        "l10n\/sv.js": "0fdb56b7922e8019dd622e3563cd7307f67c032ecf931a671eb7364cae5f35dc6c21a33e9baa51e0821d6e18bb686563b5298cab642fa366a6418ef142c8c79b",
        "l10n\/sv.json": "2c61f2f5cd4c6e218bcbbfedc16b48aab2b288b35579479c2e76b47639e58c27f8f39fab81db25187d9c219a38ed160ca745f13b389867ca3a7fb8f1b2ba706a",
        "l10n\/tr.js": "bce7f1fb5eca6760cdac31eca0ada2a2645331d68ce933005b52a8282b8b6c56ac69d94e87af368a1ec19cb13da3fdb20ddc7fd8b786e8c44647ddbd8d15c99e",
        "l10n\/tr.json": "550aa570272c5eac0849e214e0dd67e75ce833701b4b451294423eabcacc0a506a2621d15c49f96b73e2036dd555394776e6b24907203691b83954a8835e11cc",
        "l10n\/ug.js": "20633fb5cabb8c10097b06ff913b0927aa5e770abec95eb84047150ddd7675c414f5b1a21780d93d981139888c905c279b01921d503ba90d59b6e41179370b39",
        "l10n\/ug.json": "c01dcae5ab9e7d1b18c3e30dbbe8ee6c24259ece513bd0e694ee92990c3ba59e7901bf1dc499b877344f182dd631d9106f722f903edf66a868b01095f5f0d693",
        "l10n\/uk.js": "cd4bcae8c3eb10073fb2a4f3c1b14ebed6e4b95fb304c2cb8d0c531736daeab67a14022867b6fd8124e2963b637b39c69b3522871d1169b718158c60cbeb1d6f",
        "l10n\/uk.json": "07836b3dba0415e6065ce714cda149db9162e274cff774ab2c0c99057a4456df6ac21f4944f5af0cfe5281bfa02e838424e6697dbdbcb25c266b3c3b248b13f3",
        "l10n\/ur_PK.js": "356e36fbcf5cf7c3cf7fb636842ddf2b8ddac3a3e8ca99c9df8c927a33f7bfb540d81807f71d6e0838e53610b84f21e31b9291327f9243546465dd6618dcc2b6",
        "l10n\/ur_PK.json": "c28aa2744b5b8e6e2560e0d154f8692ae8ad774d217e6c815cda95a29cb85fc4c1e1c7d7ad92163b2b7903855789cccaaf90676a58bc854fa46d9b3b0283b585",
        "l10n\/vi.js": "ed86863e13ef07b14505462f921628493f2a958bb9a053d5095c9655efdc207d780888885e883ece98510d025da8d7838f5d92c2c937fa709c63d7fd316e21c1",
        "l10n\/vi.json": "48b21022123d28db661a75d6d85401541fe4ef721c1444b332e5143022297e3d977c32990ed1b65e74f896e15beec41dab49c7b0c0744282d481afe2f733df09",
        "l10n\/zh_CN.js": "b3c92b03233165ddb426a06f829e1bda36c5fcdec2420cd4834229d3e4603b063c21bc066edfdf3e8da5a60ec991284508c96fc5a26baca07372b6e71975d4ef",
        "l10n\/zh_CN.json": "1ef21a6958bfd7f914f6b839dcb4d64b0b4ae2869a330d9c18da652982601aec1b45ddbc6de85a19571cece3389b3f4aafde18f96135366e61ebb11fa8f6826a",
        "l10n\/zh_HK.js": "2f6c12555052162ce33b11283cb3bea66e7f68a1c4123248d4b3e50992f089040435f9a750b4e5e4f02a87e7e457358c3804a0738f0a42ce981d9a0529bd361d",
        "l10n\/zh_HK.json": "4c7fe3b019c05aef22d67faca16c02fbd9b9b2b8c829de11a2997a1b676403eeef8a48c96fb905fb1b30654027ade6a8f60226b2da6f790159a9cf19391ec448",
        "l10n\/zh_TW.js": "4978ce8820b471e947024e4b71cd93dfda8dd4f4b28059792f304cc9c6e5958bf3d3656916d71c5f10d0751c67c58d872e5768f4e5115c04b2ba18cd47637509",
        "l10n\/zh_TW.json": "5f162ac0d97a7afd5bf05fa18691de6e222bad8766a653be9f9106b73ed9076828caca609dbc0e30b9660cca7bd0357acfea9691024fc4bc9a2f0d465e7fe45c",
        "lib\/Activity\/Filter.php": "9f0f279795fadcb04556e05f23988799e660a02e5ff1ffcd9a7fdd7abd226027499c415f013ac48986ec6d06de95bbedc39c208b739e82a3c55823a84a3a386b",
        "lib\/Activity\/Providers\/Base.php": "bbaaba5182fcb060221ce2cc7c614ec6dbbfb1847e92076ef914c251fe31f3c0f75c8f7238ad21a6244f9858a42ee6eb738a9f30ecb5ddf84f035ea6baf7ba34",
        "lib\/Activity\/Providers\/Downloads.php": "61cab127a25a03427f0c9b6990884cacbf55edbf70ff5662faadef262b528a06585f67b47246113521f2bb02b3c585597df02dbc407abca651200a52d7fa975d",
        "lib\/Activity\/Providers\/Groups.php": "6b1cadf229c9e3175f8f72e97b42d510275d443a7897a1b7ef360059b94ef1b5b12cec72e8dab3b49ebd524d7ef12cde3ac67202294bea3336da92e9fff46b63",
        "lib\/Activity\/Providers\/PublicLinks.php": "e3bb637b5aaf899bafb3778e38193b1cbbbe5cce0b4e4c5de03aa73da0b3cd47c2b2f73d4ebd20168fcc6fdea8102561b558da96c1849627e2483b02e58fabc2",
        "lib\/Activity\/Providers\/RemoteShares.php": "537d1938bad965b57b81b9c0d1734c674ca140c452dfc5fc08a7485316c5cc866a8f4f7c771ae6a6dc4c9d3666bcc860e64b927e5ca2fc45a208dc506eb48cb1",
        "lib\/Activity\/Providers\/Users.php": "87c09ef52f8f100db45e2f540313c7ac5bad202a613a82447204abb936ebc51ed6a15c5ceac6f0163fae1b65bceadcbcf16ef34d379a17b26f28bee34083ddc3",
        "lib\/Activity\/Settings\/PublicLinks.php": "d3e7845913bd282803cb0372f1371d25d879cc85696227dc4348f466245474211c8f3df3be7d5c5a3ed8c196abec939bad57a82c1ecf3739d41e8fa7e8300082",
        "lib\/Activity\/Settings\/RemoteShare.php": "f5599466a1c1a0d9a743984df6dc2101853fe7b20ffc0337639f4da561f1094487bc37453b18feabd36b0299c2e671fe18073ff6834a7b44cd1fe1a394b79e1e",
        "lib\/Activity\/Settings\/ShareActivitySettings.php": "45e112999aee4de522dac8f906583c544ac4d5c6ef070dee70be271ff5d92f8d18e9bb1f26917cf4b841c38ee810791949bcb575b3f5ddf86bc06354c8c45f14",
        "lib\/Activity\/Settings\/Shared.php": "37b5a2cf4774608f505324f425bd29d68bc2fdd65a1b71161f403dec4a3c31b5530fea53d62bb36c479161ec1c7ee5da681fb4b57d123973b19593ac97caa53c",
        "lib\/AppInfo\/Application.php": "469421b2eb3a5ffe96497baf7f901fa90613f8314353942ee1b9624d8d609e4b3e0116dadbb7311e2cc9d8d57cff0c8ccdab476816cd8d2c1427953b9a094d7f",
        "lib\/BackgroundJob\/FederatedSharesDiscoverJob.php": "8b77828ab4b93327b3d1e9a1e6bf8365ea91d62c8c0bcdb161d8f5fc8bd694064c381f867fb206688493a0676bf7223ed18d660f4d6ce43eee3d69002c11c84d",
        "lib\/Cache.php": "abdd1a005f48a87d19d2da4b6102483d168195a9f214030b9791febcdf6d41ebf450f313a9ba4801ea62b6ff5169a0ffd596e7fd339788d1ed2d5d47059e036d",
        "lib\/Capabilities.php": "2898613455bc64d8485800c5d9362b0a636b8fab5d4375596bcb2731dc5c25b1d064272d68aa63927cb48023a668068437e58411e53c17e77b1f103491f02474",
        "lib\/Collaboration\/ShareRecipientSorter.php": "2a83fa878e4398afb1ef0ad87ec71c42b59309ea8cae5586b8c31776bd13c9653753a32c40cadfe700501d84e9ab21dd5464027ddfd2c6bff9e2a2dcfbc7991d",
        "lib\/Command\/CleanupRemoteStorages.php": "cd3299c26b4b22805a0f0db1c046fde1a8414b7a297f8810d4373e4e2d75497f3f71acd1f709b830be5118a86e7ceeebfe50aa37e976a53b72539106b01118f9",
        "lib\/Command\/DeleteOrphanShares.php": "b9f8def9c654ffe45cec35ba827e029a23243db53d6b76896e9cfb27f3504309e6776b26e4bd4d03cfd4c6c6838772cdcfa0ce2324c471540b662bffcf1112d6",
        "lib\/Command\/ExiprationNotification.php": "ecdfd9870b523fa6149f135286c3f3ef792894f0ed942cf1eed3b83122e327b2de6e29b0298935f0165677b3b72e6e4265d392f109924d3f9329a6f741246a57",
        "lib\/Controller\/AcceptController.php": "3c3dddb5208adf09dee94e49d935c04c63e975596d7c9432e83491268484fe5e5451a40e86acd68f43905356ae6114775e0efd2f85402253e7ed2a9734e26233",
        "lib\/Controller\/DeletedShareAPIController.php": "385e56e4fab72b9c6fea4b29deb9269bbc38bca0af57fcb625185537dddd1f675f3ff82dda0308bdb26d7d971c020bfdd44b12454a43873ab929969c40e35cb0",
        "lib\/Controller\/ExternalSharesController.php": "4683ae9f83212d6f45f4dfb2efa91221d9efaea434ff70443ece278ab7be03b044aa0215a800ab141f0d99f1e03519afd9792ee80727a9dcdef52bc79579aad9",
        "lib\/Controller\/PublicPreviewController.php": "aa4577bc6b578599f5a90677f849c63d9c308d8d7ec2e4ae2c3b031566a0f800ae01e3a16e2548da969ff3bd458a15caac73a197fe9db05a9ebc7142b200a745",
        "lib\/Controller\/RemoteController.php": "780fe6fb3364ad0da41b724c414f0343050bef8008b524e154ca5ae170228ed911db18da962b876258ab6da127514c0cbf8350a24f2103e5bebdc0518fb8857d",
        "lib\/Controller\/SettingsController.php": "546b40f9adde173eb6451354fc7a798693d446dd81d425d762d4d0978d4b1b0ed91b94e56cb4fa4d76031f106cb9d6f82cd172ce117cfd82485d2f87a0b85eae",
        "lib\/Controller\/ShareAPIController.php": "c00db4e19a00c52dcb0ad62fceedf3c26872a5ff774c11b02f9162b47ce91c9a8657439d452a182dcb6ec14c36a656a4e07865609f9a1b959ba8482428378319",
        "lib\/Controller\/ShareController.php": "fc1968d2ee8c937cc693e5d22f148af1fe3f8cdae9b8ff7e939c8340a780eb7e4afeab0935704cbaaee00c9cb53947e9e02292edf8870abe8bc6459884e17983",
        "lib\/Controller\/ShareInfoController.php": "2d5a03d7312120bf56a7b962e7dad37b31d09363664d9aaefd136da7bc2748a8eeec2459196df5ed32120c9f1143e262e944bb32731d0f1140242efbe630b57e",
        "lib\/Controller\/ShareesAPIController.php": "c13147fa476eb773d675c9507ea6da6a3e31cd481f33045d84e98569f266954091dac636695b71f9337364f874ee37ad4523784d1563e52c9ba435929b9dfe6d",
        "lib\/DefaultPublicShareTemplateProvider.php": "9ea4952d016c3dcdd328aeb2695cb5090bd55a3deb01fa0cb0ee7df854b204a224483aa3e889b05f141ae648cc649a0fd81b441176042f27be5d3f447ec957a5",
        "lib\/DeleteOrphanedSharesJob.php": "0b821e5770b3eea7630713d571e157f37464b33a6c1904b6eb4844c97c45157f60167dd4712b002fa99a2bce4e675bc6729f7223cee7069b69b7b15beabdac66",
        "lib\/Event\/BeforeTemplateRenderedEvent.php": "d31097543655bd5d256397ad3518d58325b1100ac5a26a446dca06104889e815d17e3717f00f48cc0192754231385be553b6b5883dacceefe4c339f94aaf7af2",
        "lib\/Event\/ShareLinkAccessedEvent.php": "ac5f2f2139d4132dd9704804d86b4325492dc9fdd301cbe409353329ffde66779ff8268dcffe13d7bbc94568cc5e45383b165a94629f41b2978de3bda0623041",
        "lib\/Event\/ShareMountedEvent.php": "7bbd9956270d9dcc40eba1a040cde110f893ae4efe6a3efc34d7598172a998c599402af31cd001b6ef5d25b3563504fcf0aee5e82fadb74a2c3b78d914ab89c8",
        "lib\/Exceptions\/BrokenPath.php": "c57642e83e3022010df5e14439c339c0a86bcf5ad2365834542bd1793a4a93dbc1706fa95f37ca284ac54968f9675aa6f34e81d7f4c96c6e50dea23cac03f7b2",
        "lib\/Exceptions\/S2SException.php": "78f1f373ddd1589119f49d0f499b9d35c770f32a1f538e3940e4f3fbbb2b646a72353094e0c947071fbf797e1d638ac1b0015ba672685f0a676e0c22510701fd",
        "lib\/Exceptions\/SharingRightsException.php": "90da4998bc2e805f64a9443fe8ed906cd7d7c8411dcb3cd8621354e23c2a52223027bef1361e24585a8caf13ca6cf8111aa866ac2e46016eeb2f4ef09a022879",
        "lib\/ExpireSharesJob.php": "e6db59bd1592adc3586cd35666a7fc3cd83d1a8ff24765aa599f06a79207d044738a34f0c843723d9798db8d98cbee9fe4eb2e27ba8b6fda62c7133a1abc6ba9",
        "lib\/External\/Cache.php": "33bdab5300b7849cb4fef3b7082cc6a27f9279fffe914a72c1daf7dcba4ba1bc286b8c7ff76e0f19aa3af4a4bed8dcb82b8ed0ec9b93492d45c2a397a504e5a2",
        "lib\/External\/Manager.php": "8a772253dfffdc187b0a82d3283ad0ba75fa4a829e9b7cc031c1e94b0b19f9b0c1661273a81e1258ec2914cbc37c41963343e675186f28a09b330ed5ceb61540",
        "lib\/External\/Mount.php": "dcef4a832ee54eb299c8007cc8a30b1de0110be01faf7a7c39281dff57d591dc318f1fa493b91cfd16fdad23733e243e14982acd63c9d1eaa97a4f207e2216c2",
        "lib\/External\/MountProvider.php": "21caca0b0fe17b801d4927168c6aab8185a44ae939ba3be9eccc04b682b90147bb917e480d405163eabf664c2504e14b26d140c10e56647577a70cc704a66777",
        "lib\/External\/Scanner.php": "b873008fdf3b209b4b12083ff2e0a92021f5ee1be3d39ab53f3cda96bdd62b809cc48ad40a7998c9d895916cf39ec4ab9b2f78ff9ef36b7e4054b1617a38817b",
        "lib\/External\/Storage.php": "f6caad8a7c7a04496d605bb74dcb9b1d4ee908e1e3fbb9134ae85b6bc6d976544f367f90fd7675976658b88365afb789e1a0d25d6699432f76f79e7370641cc4",
        "lib\/External\/Watcher.php": "f1329934eacedfa04e9a37ad37a5576d0e8a254e807c61010ac0f3cd446d53d20c3ff79a4b30fa1103c1a4a34ee2b248ef5b8e9c4f24245c0a2d60cbf120ab5a",
        "lib\/Helper.php": "f2e5606312fc32f2ccf9da43c479fa50b6cd9b146b3d18b7de0902b66fd39257a48e48005ffb783b4cc0d37ad389cbe21a539b9fe3c44d4a45470ab220f80ed4",
        "lib\/Hooks.php": "f0ebd5f4a7140ff75d814894c38b96f6e78c3fc7893bc3ba6168d49aed626efb1900fdc0830550d532024d97f9d7789e62218f5750c2fd1557b2744636926205",
        "lib\/ISharedStorage.php": "9cfeee078c2c7310698043e70e868c811a2cf673038fad482bfa0a0982f2eefb5d8c2c4906dd94f73d5ea5b96fc2e67fa42711972fce122e9097a8d96223a57b",
        "lib\/Listener\/LegacyBeforeTemplateRenderedListener.php": "7d37611b244d20d2d45bf0feaf6757fb382aaade426842ec9270646e7449c84aef3f6fcc41d4510596f2dfb863f8b38351676822bf99429a1b341cb13c4d58d2",
        "lib\/Listener\/LoadAdditionalListener.php": "56c827fcae6846ed6e46048ebd8c15a18d5f23c9024ec1f170f1cfaa9a3e710235d6c893aebbee66f21721d7283aa58983c8a31a721f60f4269c43a4fa628d07",
        "lib\/Listener\/LoadSidebarListener.php": "0d2fcaf5a8e5d969b91b860ff5e89736bcf06f3130e46ed6f5747dad96967d13bfeb803f617321e216e9e628ad969ae98f298317bab1dbf9293a5ea57ca5cfd1",
        "lib\/Listener\/ShareInteractionListener.php": "606498835e1d23fb66e17e1755c2459f2a051c98f4bfbeded1cb72c9fb036d11b623cda3104751277e0e88269344519e983366ff20969bc9880b1bc4ffd02d78",
        "lib\/Listener\/UserAddedToGroupListener.php": "abd4350f977cfcc69d343ec404da759a64170b4834f409c91fa1eebf0ac916dac9879f0e74d202ad74fd34771431b9cbd3d8cd02186023de17a15b957970127b",
        "lib\/Listener\/UserShareAcceptanceListener.php": "9ecf9b4ab345a8732aa90e2a5d3f585f56bc38a4c279bb907810c8e13200b9c61dea4bd988b03b4e926614cbe81f27d67da8819dfd288f72aafa0ae74baf080b",
        "lib\/Middleware\/OCSShareAPIMiddleware.php": "c4aa90da999db50e81a6ceab3e431dafc8101891083048af58d7bbb2d90197fd81299de98921b44b35d1126aabac90d12f26d48ddb49302d5494d1bd1238be2a",
        "lib\/Middleware\/ShareInfoMiddleware.php": "1e092f972a516b00e078ada6e39d5ed95db4d11399c596bb3da88f1c4cffaa5379c62b38b8eb4917a3a5fa76387e84b48f730bfef52b7911f6a65b58a1ebf5f1",
        "lib\/Middleware\/SharingCheckMiddleware.php": "b73663962818600424176624325713c3d22ad3b20535d22fcbde2ef0f8219916f6442696ac508574ac4a1750322667898fe1680c17bb87fe5df0111a986dfce8",
        "lib\/Migration\/OwncloudGuestShareType.php": "4271324d4c68638a467cdcc04bab996d49997a10c15a2bff3debc94a5d25331598675a1c06f87e0be291ce21dd6a0d278d80de63462fdcb167fb8debb1956e7c",
        "lib\/Migration\/SetAcceptedStatus.php": "7c65489555dba677c494f29b7e5646fb4752cf3f69ba06d699032ffa856fb139fd72c7317c406b2654948b2c0b94b7b032e51080c5eb2ac4162c3c7ee0809536",
        "lib\/Migration\/SetPasswordColumn.php": "97079d24c47b65ddf3f73f25899f8f7b2bb3aa25fbbab6301fa6fe97e418e926fde95034e02be358a0beb4ac6fdb3958211fca9564c36f81c57d3e794e05f212",
        "lib\/Migration\/Version11300Date20201120141438.php": "9436ab0956e729386e96e7f8af2c0181ad4a6b8f74fc762bdbd4733b64696aa743c6cbe0b8246181e47526fc9ccf1d80f84da097aee3128259fdb659054bcd9a",
        "lib\/Migration\/Version21000Date20201223143245.php": "38df3b0c3293c52a0edec35c28e3585c9f0166524862f633cb619f535889bbdf2eeb088a2bf79c9dbbe760d8a6fb99e09c35d9166a047b1bbdf1d5b201b3ec70",
        "lib\/Migration\/Version22000Date20210216084241.php": "2c8021b1e66c09c6466bc2b6b8b988fde4beec34f5fa16c49ae751601874d498ec774d0847e799ef47ec59b6da0e5ce2c78188baf3c1c389b5e4f908790aad05",
        "lib\/Migration\/Version24000Date20220208195521.php": "c2e7477603e005623f164681be514510e584c80ee46a55fea8aec2c945b25312bbe8879631b18e4fa0f54e32b99900f7aa8559d61ea4041a39a1da5aaefc8aa7",
        "lib\/Migration\/Version24000Date20220404142216.php": "001feaa0e745f3d63a438ebb8673201a22e7f0866d545348deb31af14e4b9d449ec74c5fece3b032cea858864e7d61017138d1f7a98d217efa091a499be1d72b",
        "lib\/MountProvider.php": "6897c49d770ff55253394b0b3eb4769744ede647be3c9cd2dc8091080067803fd994c6ce0a6d895c2648fbf8d736601d26b6d7ab57fdb7ba6dc1dd33f2752744",
        "lib\/Notification\/Listener.php": "df068cf9593b21b75cf0e1d1f67fbec2df07e4a3b3f01473a883dbed4674b01c9c6ac5df0b3fc905e847c98abe4a7786dce019ebace0b54bb97433271394ebf8",
        "lib\/Notification\/Notifier.php": "b96f33ee28ae57056df0097f8b270efbce8f85d28c65d019782fc4658939ce5d11d60f762891e071c3929d5d33616c3ccdd0b91651c6d89f6579bd0946012498",
        "lib\/OrphanHelper.php": "3f695bbf854526c27b23b3273b78d42f5d8884c7fe4c740c38fc9e5d639e7e7e91cacf995197832eb3707f1af7e3cf0921e3d9d49621c38a87f80f10f74cf57a",
        "lib\/Scanner.php": "cbd2746d7105fbf7a630c445a219664eb718a2dbde7b8e2ce779a1121c821319a7138428ed552ec7af96238353b60c56bab9ea98f10c9993264fce2cfcfa2973",
        "lib\/Settings\/Personal.php": "b0d29fccc339187053458a3c45dd6a18b9463c59aa9ea75623798caca3ca70d8811de2a122ea637cc4822e92e9844468a63ee97c80004b66bc8551d546bebdd2",
        "lib\/ShareBackend\/File.php": "60a40a6a93d30bb719fe60dc41b011e6cf697a9a2f5f0bb06093e048bb0c28c1a58ff8e09f34362ed2f2d3cef546239d9bce65a776875eb818b9990829311cfb",
        "lib\/ShareBackend\/Folder.php": "0176fa670b4bc315c43612ed71b7055ab10d5f667df49e5477b7721c37710df6100f076426ce9e696dd999876f59f48259f6fab53eb6bdbf262a082773fb852d",
        "lib\/SharedMount.php": "0163b345a6ea79d1a4682d5196503ff69273b9ca227b7a77cf2f21b98738e342481de2230c59e1fe9531fab3f50d45357dd88d9cc88d034090ba44abf267ee86",
        "lib\/SharedStorage.php": "227c106c11899ab7c2cd8c4f9588fc8521ea44b7346f60c5d2cb4c3684f3715222df3b25d824e359785254206184caae6724a5819a6afb0411fafe4145e57f7c",
        "lib\/Updater.php": "1ebc65436a66d1c648c20dbb325a23d3c5fb3f9ba38eda34a6d22419e51f870a6aa3ebc1a0ac383a583e83ae1d6ec0b8818cee3e91b924073f65fb0f86ce58ac",
        "lib\/ViewOnly.php": "e3c8015061a5b4066248e9257fd0744cfc7cec571703f76087481d8129cb897040b224f699d063390e98b240413bf3b1ead6479a517fa0b254cb037b29c092ef",
        "list.php": "d5f457e902e6f8458685735065675504072ecd840bf6c4d4a6327beadb010f32f754ddc7687e0f606c1ca431f771e2e5cf2c8783881922ce8f0218e8fec79738",
        "openapi.json": "252f68217f54085bd3fd396b6e2984c93419ea32d2aa49e7896dee60b402e137a25df9aa60957f17ef5ed9db3f5c70970e0468608a7dc15f8c32846f77cc7884",
        "public.php": "2c0801d30c5ef1470af8ecde58004cb91336fdabebde79023394242727af13c16cbf5a20f379438103abbb2811219b9d125dc848f152e6262a15d0561682f471",
        "templates\/Settings\/personal.php": "210f8d03d82946eee7cfe5c4456f4441fe02d1f7fde5aaf01c4f752f2b2190de750b45502297f3810f9095d4b27e166bb9157e1c8a17536020eecfe59b4eebda",
        "templates\/list.php": "286bded0932de787130e3298515b27eda7cf1432ad757d7a1a64ac94c4f7d08d796bbbf0ec4e6b376afce365297781f3bf98c71b75e323b812e750a0d9a0c784",
        "templates\/part.404.php": "fb970519158bbf5d9c496b35eb486c9b914aed21f57d4c986b75aa52766ebc6634ecf2564edceafadff39f30a48748a535d34c74d8acda00a7378b0c40a69bfc",
        "templates\/public.php": "0fc64f8d1ed36f215f53513b1d6adf0a03dea79f18f7e1955f3253efaa09c3946040986b85bbb3ae77cb4f47ad54db96348b92cf787336d1f29543331cf5c77d"
    },
    "signature": "pC3zmJUuFgayLw+vLGvq\/yPTXCn5onCLTzUkD\/bg\/21O+h1si29MoKVn5hOIrZyzy6YiYrTUPMTG1SoW9boq+SAhKFWI7+ksuQoOFMZzTtmrzztYKqL1t+w8UtHrwe\/WnQ+a4hkab0Upguk\/MR9uVrKmj3NtLqdbHQkFkG0pjGEtasAJSIowWSeo+LZNhp2dZ8IMe1pm48XaHQ73ZIefWoy9puz5s5MgcPib9zwdmBJJh0QOGDLcVramOJCF8w2p5GE++vgrfxuqjb08aKvv1MqFore4dHQQ47XrZNJcd+mxEIJ8nzTU4TGG+sjdLp4Ldo7OWlyY\/zYO5NtqL8QPnQ==",
    "certificate": "-----BEGIN CERTIFICATE-----\r\nMIIEojCCA4qgAwIBAgICEAAwDQYJKoZIhvcNAQELBQAwezELMAkGA1UEBhMCREUx\r\nGzAZBgNVBAgMEkJhZGVuLVd1ZXJ0dGVtYmVyZzEXMBUGA1UECgwOTmV4dGNsb3Vk\r\nIEdtYkgxNjA0BgNVBAMMLU5leHRjbG91ZCBDb2RlIFNpZ25pbmcgSW50ZXJtZWRp\r\nYXRlIEF1dGhvcml0eTAeFw0xNjA2MTIyMTA1MDZaFw00MTA2MDYyMTA1MDZaMGYx\r\nCzAJBgNVBAYTAkRFMRswGQYDVQQIDBJCYWRlbi1XdWVydHRlbWJlcmcxEjAQBgNV\r\nBAcMCVN0dXR0Z2FydDEXMBUGA1UECgwOTmV4dGNsb3VkIEdtYkgxDTALBgNVBAMM\r\nBGNvcmUwggEiMA0GCSqGSIb3DQEBAQUAA4IBDwAwggEKAoIBAQDUxcrn2DC892IX\r\n8+dJjZVh9YeHF65n2ha886oeAizOuHBdWBfzqt+GoUYTOjqZF93HZMcwy0P+xyCf\r\nQqak5Ke9dybN06RXUuGP45k9UYBp03qzlUzCDalrkj+Jd30LqcSC1sjRTsfuhc+u\r\nvH1IBuBnf7SMUJUcoEffbmmpAPlEcLHxlUGlGnz0q1e8UFzjbEFj3JucMO4ys35F\r\nqZS4dhvCngQhRW3DaMlQLXEUL9k3kFV+BzlkPzVZEtSmk4HJujFCnZj1vMcjQBg\/\r\nBqq1HCmUB6tulnGcxUzt\/Z\/oSIgnuGyENeke077W3EyryINL7EIyD4Xp7sxLizTM\r\nFCFCjjH1AgMBAAGjggFDMIIBPzAJBgNVHRMEAjAAMBEGCWCGSAGG+EIBAQQEAwIG\r\nQDAzBglghkgBhvhCAQ0EJhYkT3BlblNTTCBHZW5lcmF0ZWQgU2VydmVyIENlcnRp\r\nZmljYXRlMB0GA1UdDgQWBBQwc1H9AL8pRlW2e5SLCfPPqtqc0DCBpQYDVR0jBIGd\r\nMIGagBRt6m6qqTcsPIktFz79Ru7DnnjtdKF+pHwwejELMAkGA1UEBhMCREUxGzAZ\r\nBgNVBAgMEkJhZGVuLVd1ZXJ0dGVtYmVyZzESMBAGA1UEBwwJU3R1dHRnYXJ0MRcw\r\nFQYDVQQKDA5OZXh0Y2xvdWQgR21iSDEhMB8GA1UEAwwYTmV4dGNsb3VkIFJvb3Qg\r\nQXV0aG9yaXR5ggIQADAOBgNVHQ8BAf8EBAMCBaAwEwYDVR0lBAwwCgYIKwYBBQUH\r\nAwEwDQYJKoZIhvcNAQELBQADggEBADZ6+HV\/+0NEH3nahTBFxO6nKyR\/VWigACH0\r\nnaV0ecTcoQwDjKDNNFr+4S1WlHdwITlnNabC7v9rZ\/6QvbkrOTuO9fOR6azp1EwW\r\n2pixWqj0Sb9\/dSIVRpSq+jpBE6JAiX44dSR7zoBxRB8DgVO2Afy0s80xEpr5JAzb\r\nNYuPS7M5UHdAv2dr16fDcDIvn+vk92KpNh1NTeZFjBbRVQ9DXrgkRGW34TK8uSLI\r\nYG6jnfJ6eJgTaO431ywWPXNg1mUMaT\/+QBOgB299QVCKQU+lcZWptQt+RdsJUm46\r\nNY\/nARy4Oi4uOe88SuWITj9KhrFmEvrUlgM8FvoXA1ldrR7KiEg=\r\n-----END CERTIFICATE-----"
}