{
    "hashes": {
        "COPYING": "fff972ef22084a452a4e96210202261fb226982aa6a4941571702d6f786388e8f9a2a7e609d7c03a39fbcd31bf36307c9e20a074fe98b9247fb77d15df8a9776",
        "appinfo\/info.xml": "b961aa58ecfdd042e4c46ffeeaf6f0bdfdaa112e8e93ac54285839042477350d3038d44fefe522d104e461f64bb5858138f9d8e6e5aae2ade44e384bdd667d14",
        "appinfo\/routes.php": "80a159b1f9a63487c1782fd3dd089ab6f9bcba3184ed8aa3c8743bf5c931f89fa4d91edcb19dd4f00712969959a30b8c3fb0dc09302b3072463371a1ed0db1d3",
        "composer.json": "48bd4af2ad7395374aa8ceeab39af594e4879ba1a77c334ba20e9b4ecdfc082d31db504a72938282e3ffa246942cda02b97654c05388aacede1b65c84af4e11b",
        "composer.lock": "150a0eeda25af0f1ee649cda2b112cbc9e14865b46f526a7bffaed5668fc1ecfba3569c2cdce11248647fd0a6a29badc00a8744afe8c7c9426738324866a4715",
        "css\/minmode.css": "43ba091ca407accbf351edea67c528805543f8a527e88156b0d65204b790c649d018b9db9efb3d71d51bd35d07406d6ec0d8c227d7baafa677a6d23be8748695",
        "css\/viewer.css": "a7ad0fe200032cc6775b65dd88e282acd3ed20a1c635cdb3cefbc1bd9870f8963c08e5de1beef255da92ff61d99c6420eff6eed97cfa1a89618d4148104bfdd9",
        "img\/app.png": "adc79db10088068a705214a47fff1a2c38e822ac290e6ebca796b7a020c20c765932801f91039d55693ef5146febac06c6ab46c3caae6323cda5f8f7e6505a64",
        "img\/app.svg": "6435e5ffda7b883d8e03d6b2231bb2e4e1c9bbe5cec9446ecf1780bad20c27be8823bbd6c3ea0cf2a55283541a37031501578c906993ebd40df1d6e959f1fb48",
        "img\/toolbarButton-secondaryToolbarClose.svg": "199170af509daef5a000459307490942a8ca651974081ea33a214eef0afe0f3aa37556390d97e094126aa471631f5a8bef9b2be5cfb9f44bd150803e15230456",
        "js\/files_pdfviewer-main.js": "20706737b1c72df0165d6e952d193ef039dcd60af5db0979d93106d6cb7218a2154b0cce7d383da7005d1a4fc6bca92214bcbd9da186bbecb7b4dd50ed3c6b56",
        "js\/files_pdfviewer-main.js.LICENSE.txt": "46184babe3c494ab98b272f21b9d42372ffc6b128d6aa18f0395e9068d238a13656c33fc6069ebbe484d7299ce7915a97a71cf4e8b7915b367a100139e5306ed",
        "js\/files_pdfviewer-main.js.map": "1e5dd2493d2c42b4bf07b86a9743422303905bcec4a64db64feac6d3fceb60d13e7d452ed874c4a9b05251a983a5539f1f2afe31d4f5d476c8cebc3ee779b8ee",
        "js\/files_pdfviewer-public.js": "778991c3338be0328a37f9212b3b3bb4ca5e4dfa5f729232d4056a038a110598f6baf797b11aed5db2b5177ec7bd801ecc1dd689f826fa7254d8a5bf0afb782f",
        "js\/files_pdfviewer-public.js.LICENSE.txt": "43af529b76fd9f60d1ae4596adc2ccf08885ed1dd419de4dec0180648e649233e50b5961b24d67c90a53551ae74a117d0862291ae5db248b15ade23b401d1235",
        "js\/files_pdfviewer-public.js.map": "507dfba265b355b3da257c1831c8cd2ffc72938ee860b42e09ae054383ff406b9a727377c35c20472803f70db074ba9abb44c03ce1013b6f42a4393b105a69d3",
        "js\/files_pdfviewer-workersrc.js": "f4469e964d09fd8d0988b549f11820763e2f4203f74d33e95d65b8e4d1d9e11c88d810c6de0e5ffcc4e8fc2157f64953e2b3dd85df85b7694dbb91a796bd20d4",
        "js\/files_pdfviewer-workersrc.js.map": "4b3f4f5a3ee39566656c98289686e8a1814ab76ee84645f46336bffbd537fc3e9bcbcb4278631a68643b09d929d30bbf751dcf89e36a2d8eccd9f50a7b23c419",
        "js\/pdfjs\/LICENSE": "27b8c0252eae50ca3ce02ab7c5670664c0c824e03eb3da1089f3f0a00d23e648a956bcb9f53645c6d79674a87c4cc86d1085dc335911be0210d691336b121857",
        "js\/pdfjs\/build\/pdf.js": "5ddd73ebd04c1fc6dd3b37def9ac2f48f6c65ddbda04fe85db884153063847754ebc02a63cfea4eee67f40334d21766b68d3ab86dab6143c3bc043abcd88df14",
        "js\/pdfjs\/build\/pdf.js.map": "05a6f9e3d7daea1ec960de491c0756875feb4d722fb10ae271ccee30d0a2aa9a78beeb81c19b6a7db004c232c9954cee88b1299b008bef7dc780b3d382ae7889",
        "js\/pdfjs\/build\/pdf.sandbox.js": "939bb3baad59bb44b30f32d2587e21a88eb9a162f0dcb8576f2937dd1df91b21cdbde7629cf050d48ca6f9acf2e29c95533e7a677248476b7dbfcc60f438c3c7",
        "js\/pdfjs\/build\/pdf.sandbox.js.map": "49a24bd49252062baa7089b82db9ee7d3091f68c0845c5f2239ca6d2668d01f1cab3fda8fbee6fd7107c1bd1075aacb0cdea1914c2a54bdf6b750b6019a32368",
        "js\/pdfjs\/build\/pdf.worker.js": "e97b9fd3f22f1773eb17ca1bd9a68e707ae3f7da7d819cc2bcd7c3ccddc75277586960c3967ffb95025ac90c7644b12994cc652d9a56d3f4b00f138271bace70",
        "js\/pdfjs\/build\/pdf.worker.js.map": "3c10bf94e4507730b95ecf1b8c0406bb8c5e16f211caf46248da0fff8056b83f79c4bb31977d0871d34f27fd9270c5798133dc0a01b92e5bd3fe77e236bfe4dc",
        "js\/pdfjs\/web\/cmaps\/78-EUC-H.bcmap": "5fd086c638e9546f31b9960dd41c08d7e406d1d5c343a876111672a4b093c3f0b258656ed3bd7f3293f9b2bdf90332931547b09ac33985da5c97be211af64508",
        "js\/pdfjs\/web\/cmaps\/78-EUC-V.bcmap": "8265c042528674bce1f96673c897099cb7934435843c272c068e8b04c7a2925d0fa440e57d61eca57df61e25aed97127df11890cdacbffe2fc1e933870e3020f",
        "js\/pdfjs\/web\/cmaps\/78-H.bcmap": "7ed6a8733d45b76e15bf60912535b0ae36d31ff9293478593717172de721a175475fb8c5ba495346afbe5bf2d8227f3784df227a97d1fcd2c2f00f6208d0d3ba",
        "js\/pdfjs\/web\/cmaps\/78-RKSJ-H.bcmap": "ddaa2003ceb14193155b5560899078399d2bc8fb801eca83c3492d29ab66963fdddefd8272d4940df8851bc483a223f3f9178b1aa08d32d816c360a02b8ef2a9",
        "js\/pdfjs\/web\/cmaps\/78-RKSJ-V.bcmap": "e2ab654021759e267eec0c3fba8f341ccdac3e68a84a20132e0a0be5d09b21cd5ef37c6bdcbfb594b1459cbe904293b891b4671625583e2221f92f37d4923e12",
        "js\/pdfjs\/web\/cmaps\/78-V.bcmap": "274ba34d5f3b7d70e253a8155589a29881bd2cb1bfd49417e9d327c4b21000241c1016755c08405a21788236de8646454b7f2254966c6d509e4b30b8cda7dd18",
        "js\/pdfjs\/web\/cmaps\/78ms-RKSJ-H.bcmap": "1bf13ef1737d13a39f0d156b6482a711414b10f8b6b13bc99fc16a9aafadf1b934109a33d1e22961943fdb30394acaaadededbe8d0e85096f9ea95454c948dd8",
        "js\/pdfjs\/web\/cmaps\/78ms-RKSJ-V.bcmap": "133712a48b3929d71d192c11ac78d333bd837b64d7f7974913090d5a001e956b79d4195e7fe14a97221b1097d615abad5d7d43ef2b50078950838881d5cb9fcc",
        "js\/pdfjs\/web\/cmaps\/83pv-RKSJ-H.bcmap": "410f7024d826498248b09ef067bd957871d6dcb1434bf8bbab8c6df571b7e0b2d7ba1175cabb8c822ac993248f21e0bf0cae57a65ed86fd301696d010769b95c",
        "js\/pdfjs\/web\/cmaps\/90ms-RKSJ-H.bcmap": "15ce6899f24ce3c24e53848757c8a804b64757bf45808181106c19b3760427413f99bd9f083aca6dc8a7cf0b93a0cd11160088eca1ea746524530f2690d719cc",
        "js\/pdfjs\/web\/cmaps\/90ms-RKSJ-V.bcmap": "c632648fd145fae79e0ddef43da32cce8efe47ca6e5d5667141fca3efa6e60733dcd59c95503135644c0fc73700a2293a4394d09e54d44a7b1046e358633a626",
        "js\/pdfjs\/web\/cmaps\/90msp-RKSJ-H.bcmap": "f2b6407c87afb83aa563f69e1d04c0b0e9996ce3fbf46871283001a4f4707d1eb23f650d478fc2c7cad9d1bcc4dc1c18eec21cfe01eecde4d775d20f01f80667",
        "js\/pdfjs\/web\/cmaps\/90msp-RKSJ-V.bcmap": "e3ea0d6545ed8ca06cb1c0949e687afa6a323095af531adbad6644f2764f38eacdd498e25a1056954abcb9940cb32965219e7bae6f89776e241ac80bf72d5a12",
        "js\/pdfjs\/web\/cmaps\/90pv-RKSJ-H.bcmap": "a4c639b0b5371248d0e90bf49c978553cbaf7584999de62a92c56de3d6403a5ddd3e4e07ec972e93ce967d12008e1c477a0b9cbe5db7c329b8dd888acd5ef171",
        "js\/pdfjs\/web\/cmaps\/90pv-RKSJ-V.bcmap": "d6b3af8e4a67244dd325630fa8c4212f24326f429c33d6b6e1865490589fe875bc6c555c7d9598872734d68d4d8e2900ff93729cc055297722c703e7f0c1da7c",
        "js\/pdfjs\/web\/cmaps\/Add-H.bcmap": "9a39a076ba7d3c72ec2bd9831d282022d607bd29c1a3636a593b09cee20a351c04c25203af4b7e11c13fcf568b5874f9c3c2b61ecc8d0f1794bc07a0a2dff706",
        "js\/pdfjs\/web\/cmaps\/Add-RKSJ-H.bcmap": "81bf58c0cfcb01b9ec98e4a7eef5e418498be803c0032e2557f4d4dca9acb31d3b9b5d7fcc8ba5a8f8e139b890382474aeadc79d29b94f88a4461a23b57d17fa",
        "js\/pdfjs\/web\/cmaps\/Add-RKSJ-V.bcmap": "4327908c4b92679fbb375d7a98b745ce2cd77404a84d83581984b4212db88da7d2c443671aafbad40c29add8666309ec1c7e1e33963bcedb0515abaaeaaaa6ec",
        "js\/pdfjs\/web\/cmaps\/Add-V.bcmap": "0fa35a893bb9ba2d177c158f5ed115e7375c7c470194650beadafbf78067a5232b20d3480bacf6f588f8df84395e816507ee56783a1e17529d3ac922c1b2e9c3",
        "js\/pdfjs\/web\/cmaps\/Adobe-CNS1-0.bcmap": "ce016c8c626a5a7e9af5418efad1e4d64ffd0218675e80ceefb91a0b797df5f57be3c743193788f6367ef0b6abd8be9b5c3c336b9b2ec8f08579e7269e3c5d10",
        "js\/pdfjs\/web\/cmaps\/Adobe-CNS1-1.bcmap": "af642dd67a674e8afbd5ad7971ef0bb1e53fb5318f6244178ce61f80b648d3dae07d61c143d6b978529347d3dd4cc5703ceaa55fb0fd89b74ecf0c5928c18499",
        "js\/pdfjs\/web\/cmaps\/Adobe-CNS1-2.bcmap": "ce5ff98934af00a479a23f3b42cad5d4eca8688ab0a90e8cb2f3e9e6f92ef9f3d4fe7ee021c65376879e8bfc24afd15780d0253074a381bf100985eb9b553a29",
        "js\/pdfjs\/web\/cmaps\/Adobe-CNS1-3.bcmap": "a75bd83ee550b2b1b1a81d8c4f66c0058bd021d497cf213593e8cf4e8bcf0f90e0838664e758fed414a3701fd87e53ba2fc4fd2307317a7d6403f906483ab040",
        "js\/pdfjs\/web\/cmaps\/Adobe-CNS1-4.bcmap": "cd584cf2c2d1a1240d1ff48b69f283364851cf488895a082f231cfa391ba049cffd8ff22882cc171489e9eaf0902f454ae1c26c8029758fee744db843d492689",
        "js\/pdfjs\/web\/cmaps\/Adobe-CNS1-5.bcmap": "611dfa62406cc4c6d273e3b6b864d8ef2b54a8a637dd7e24c6808cfac24c185e56637e30ad003ffb561813cb7fc0bf2c60501806da231bf62004681e46bcfbcc",
        "js\/pdfjs\/web\/cmaps\/Adobe-CNS1-6.bcmap": "08e6907c70f0bce1a2ad25d48aa260b0eb78967f74affc0ade5049e2fb594ecb7a90b9a56e0b387677b2b4ed93c4ff299d7bec26b007b313584d89a898fccf1d",
        "js\/pdfjs\/web\/cmaps\/Adobe-CNS1-UCS2.bcmap": "74d97bb8635bb72747a5460a420289dad8137a21020101a85a15c7bcba3d3e9e66aa969a65ac711fc5ff4413b4759c1eab586beddbcdf3839f7ca7584d1ae0c1",
        "js\/pdfjs\/web\/cmaps\/Adobe-GB1-0.bcmap": "b13b2155b4d53e64496eb3b45c43f141a5035c37528c762f415cb6897df1fd30d6747a1e213726fbc84083a2af1885cfdd40319016325297e4a385214b03030f",
        "js\/pdfjs\/web\/cmaps\/Adobe-GB1-1.bcmap": "2df3ad4b86dccbadccae0c2f79ee014b259c1a0679e1212e5a18cc8203e9f46a0e6dcf9228501f8d0d37d8e071890b695eccfac57ca1625213f6fc6de783cb24",
        "js\/pdfjs\/web\/cmaps\/Adobe-GB1-2.bcmap": "cef4ee5c03927705679385fe88a797989f1bddfa152f8267376fa2c74c3200c6f6d9c769f648e4ed17abb9b4554067a0de60bb9d0b61e92b34689ae27ab3b695",
        "js\/pdfjs\/web\/cmaps\/Adobe-GB1-3.bcmap": "3eacfcf63101c732d21c122261396246b240ccf38f28e6c0c27b89759a75746a26b62f6fc080c0c23c74d5e20fd2d6e1f8032304c76567f6ed7e4b80c95cc4c4",
        "js\/pdfjs\/web\/cmaps\/Adobe-GB1-4.bcmap": "7fc021d4d1b61b8bf34abddaaa0d3a9c87ef8eb6301e21d9ad962c131f9d82e6daf12fdccd4ae92d3d50e11fe522b1662df98048b9df5223d6401e2b8896b752",
        "js\/pdfjs\/web\/cmaps\/Adobe-GB1-5.bcmap": "d9d870a9b3ae62063e5024e0bb12322a196326ca805bcae9405bcbb33c5f0b2fc0c74e38fd4652b81f54fe7f484403f10af5e3c96ca84070e8e31d1808a95e4e",
        "js\/pdfjs\/web\/cmaps\/Adobe-GB1-UCS2.bcmap": "c5e2d52d527fe786866765b933dcdca3630b51acfc0c83fb566878dbacfbfb55513b346edd01832e0eb4bc0de32361db0d3f6a93814ff78f1f8e6c13313c8a52",
        "js\/pdfjs\/web\/cmaps\/Adobe-Japan1-0.bcmap": "981a4ebd0db82dd699a7cc96c580545ac0467ee726772ec350677dfcc45f36570de94a1f69459f68cc3a91676ef8dd7499d52497c0b99ff2bd572cb8310656ba",
        "js\/pdfjs\/web\/cmaps\/Adobe-Japan1-1.bcmap": "7275a904b5123dc96fffffdf17777400838f3966e9e06d3eaecb117d1dddb7eecedd44431787faabd8bdc078d6e445bfc54daa2afe55051c80ae7488a7c56df3",
        "js\/pdfjs\/web\/cmaps\/Adobe-Japan1-2.bcmap": "dc34c7ac9b5e43d56aee0976b615b76108f2b978ddb815a00501cde6bbd2a22084ac1a2de5a4b086b210fe49f66142c4e72bdfaad3794524f172c80e464782ed",
        "js\/pdfjs\/web\/cmaps\/Adobe-Japan1-3.bcmap": "e3be6828eb8d60297041feb64b7b045059201a233a28fd6c7accd10e9c2ee78a01cc26258e8454a4701cd71594d8b9b5d1c6783041f36613ca07318a9568bee6",
        "js\/pdfjs\/web\/cmaps\/Adobe-Japan1-4.bcmap": "185e251c8d73d2d7258d30d6ba1df9baddc2162464305c0934329762ae0c785d1aa427637ad64d5780f4c3ea0dec3f0e448e98b88c89eff16ee952e7aea563ca",
        "js\/pdfjs\/web\/cmaps\/Adobe-Japan1-5.bcmap": "1978a3cdb2207391454595beb70943f005f5880eefe5f0d1eea350fd6b8b095afeb5eaf5724cb73ff2c52bfa9c37cb4d567d54902bd925dab0320619667ea831",
        "js\/pdfjs\/web\/cmaps\/Adobe-Japan1-6.bcmap": "f2566097f409b0d798d03e2c7d24b6d8885e54b58f662e9d92da1c4a8560af61ada0dcdf0169648bf4e8bd63f5fa5e9030bad4df7f82d8082ac1e2ecd484ae26",
        "js\/pdfjs\/web\/cmaps\/Adobe-Japan1-UCS2.bcmap": "d0711b8e37d8be245984956492e245447ab4c3875a569c6f1475f1c116aa51916c773faeb7e09630875a0bb085fa0284ef5c7f82a574392fd4b85a8cd4b34737",
        "js\/pdfjs\/web\/cmaps\/Adobe-Korea1-0.bcmap": "c7c180a75c03644e1aade1da3f89d587d7a0b8e1b58b948eec33b7d17aac3db7b4e51de2ae7e15d365719a3fefbecd229d7adc880d207ff362907395f7a1de3e",
        "js\/pdfjs\/web\/cmaps\/Adobe-Korea1-1.bcmap": "4185ec176f75874e080b51baa4f17dec7e28e48043ba0f6847027d3361bda514ff60c23a0d8ce947db306ee567207494d8f7515dd6518d98ccc6b47b57f72539",
        "js\/pdfjs\/web\/cmaps\/Adobe-Korea1-2.bcmap": "96272a0b0b8e747b7e76769f0dfcfebd1c714f9a5bf839380afc348e2119027c4ada3c00b63657a3a7ccf69b13441a8898f8d7450f803d7629e738f4ed3f1996",
        "js\/pdfjs\/web\/cmaps\/Adobe-Korea1-UCS2.bcmap": "2eea89e61b303d0e96fdbdd6dfcb816992de7178e2a463a3fdba8fe022cf49aae397ac3f330818b12ba53b762343e3239c2aa8cfbc7578f652bfab74c8723828",
        "js\/pdfjs\/web\/cmaps\/B5-H.bcmap": "a8f29d9d91b418af5e94f367c8904a53047255f527fee962f21b8fdc780c94b49650ff1476f3d404894c25ca3c63f7206abafa9d212c75556832e96183e197e8",
        "js\/pdfjs\/web\/cmaps\/B5-V.bcmap": "2b0437cb034e2a48c153018fb7eed880fbf75459b17ddd94e243b5515ce56b2b457f6943f1ede2910263b97ce236429ca56a337e65f8633c54920dadb7d663f8",
        "js\/pdfjs\/web\/cmaps\/B5pc-H.bcmap": "5b8f22a1501c088c439ac40cd3ed6115d64ed68ce8e41256d9f05d3ccb3d49be3ddd6eb72f4f4c349c23544ebeb01e90348760458679a01396a9338046efc9a5",
        "js\/pdfjs\/web\/cmaps\/B5pc-V.bcmap": "ef7b81270fd2466d37c066d0d81d779127d110deece02718b453e13d89c1eeb32c19ba9c731f695bba5d9afde81f1da5d02215efb654fa968aa35f173f6c839b",
        "js\/pdfjs\/web\/cmaps\/CNS-EUC-H.bcmap": "0219f3190823e81566e5c09ffe90cd8dc4f69bb87d37d7196ed11f04ed0a3785c114060165e911d29121f899d0c968b068bbee7467f51981e36e57e65abdc8c9",
        "js\/pdfjs\/web\/cmaps\/CNS-EUC-V.bcmap": "9a8ab5da7b1f8a6afc0e1da279b6b26e17fe1e833e5304113e30865d619fd882f4f4a23455d2a92f33da7785d28439cb7e86e26f0d98b817a7ed69d6be16d489",
        "js\/pdfjs\/web\/cmaps\/CNS1-H.bcmap": "d768dd84fb9ad5c671714581b7ec60b5392dccfb607ad5b7824e41865c06eb4d3f4ca9deb5df5d6327c3f38743bf97fd2ac199bb0e38b5dd6e96116b58f27aac",
        "js\/pdfjs\/web\/cmaps\/CNS1-V.bcmap": "7a3f1f9f836d7cd519aa37ccae14c679e647f420ede30d8ddac9fb9fed075d31427d4030aa3de01ee2bc34780b210bea163e6f4d6c07b49523c8e08f6e63443d",
        "js\/pdfjs\/web\/cmaps\/CNS2-H.bcmap": "8fa2940a58cc61ae143dbacb6b09e17d6fc9c26ff80baa2b7a07537c85829c0bfd552278a109ae3b3dcd85ef7200579566f470d58cf38ca4165891da047a8cfe",
        "js\/pdfjs\/web\/cmaps\/CNS2-V.bcmap": "f34432205de2669f67af463e8653012ba06a6777e9fe3d1ccddf4e86a818589d87888ee9dd8bafb0d703e1750f6cd9139d75749c2fd9c72374f60fad9b2027c4",
        "js\/pdfjs\/web\/cmaps\/ETHK-B5-H.bcmap": "b23cf6cdac76a62a6f727fdbff52993a1227b934b31bfc71b216df35298baab3c1c021ed3ff981c9a85ae3858bdeacfb1cd56ddfcfbac8c2a5cfb40f761d7175",
        "js\/pdfjs\/web\/cmaps\/ETHK-B5-V.bcmap": "dad326a3c5b07a4ffafa1001e4aee7f47f0f673715814434a98cdc5312d3ef6338ae3a8be8f880f4788c91ef9a7c8de780570dbd5ae4581b2495b824e460f8ed",
        "js\/pdfjs\/web\/cmaps\/ETen-B5-H.bcmap": "8e2072a90c6c221b838053c24ba2bf0fb7886b3730350aaff819666d8360f51c31fb3b0343db1f7e6dc137f6ea223a9a98eee02388d22292de7a8ff6c50c3e5e",
        "js\/pdfjs\/web\/cmaps\/ETen-B5-V.bcmap": "9c7e3f96cf92e7ee0aa24b1c50f73ed359cd86d93bb320aac8b34d1b41cc660ff74489ae05fd015db29c5288a011b29eb0a5b41ed77107812b237796c634b1af",
        "js\/pdfjs\/web\/cmaps\/ETenms-B5-H.bcmap": "7084cc508774b116eea83bd64f5e17b494aae4caf82206dc67d80ca550ca68ce136addca5007cd43aa32dd0374e6eccec923b026c45845db6786ff0245bb012a",
        "js\/pdfjs\/web\/cmaps\/ETenms-B5-V.bcmap": "5438e12857ef7291df2360b85275f4452aede8d23cca2c4a7bbe7a948f444fd5316a0ab60dc68eb5f3f195fc24bf554561865638e72914f679fb24f08d3947eb",
        "js\/pdfjs\/web\/cmaps\/EUC-H.bcmap": "309f4dfd16dc8cd43fa62a07740f68349c15d5cffc3ceb6429736c34cd06f01a26356e4b1f27a80d4be7d6cfe22eb592cc20970a6036449e44e3b89a739e026d",
        "js\/pdfjs\/web\/cmaps\/EUC-V.bcmap": "00d93067613aaf9001c1df52707eb7a64933ebd3eb24707305fc7661aacf81f11e680c1efa8ff9ec5c3da521d2dc2b0572a2fade1b7d5b3e5c02ae715fc9fe46",
        "js\/pdfjs\/web\/cmaps\/Ext-H.bcmap": "0b2a3e07ffe3bea6975238936cec46e0fb819d3462da8bea45f5da3b946f95ac7ad04cf9c1523c2c262ad50a53c5d8ba65ade5a4a1e6cc1443fabfd3914eb121",
        "js\/pdfjs\/web\/cmaps\/Ext-RKSJ-H.bcmap": "34349caeec944bfaf61d114a871a310851bf662ba2fc6690778a3194d9151acff6b499af3b2bf1be9241cabfc01561a72107fbdc2a38aa7738aaeb1fe8bdf28e",
        "js\/pdfjs\/web\/cmaps\/Ext-RKSJ-V.bcmap": "80fde78e76962678861c0a4f3b4e57c2ca5712a44c62165a99e24d1436913f6cf0c1955e7381d5e3d40fafda233cb9f9799d1b07f63b481473f6340dec467036",
        "js\/pdfjs\/web\/cmaps\/Ext-V.bcmap": "4e586f0fa8646c0282a1cec803940589bdad3f994a4fd8b325f5960c2b758f6e62ebd7f2af8273c4a79670097573a49d207dea42024f2ef8788462dd3a1609ef",
        "js\/pdfjs\/web\/cmaps\/GB-EUC-H.bcmap": "06f7f9665ac149ee5ddff0f05dffb461e33f26baf8558a1b53ebc47d55f63f68e4f351e54fdbfa355b6ee433784c23fbe1a0ff5fa0cd302ac027b22bb0e658a8",
        "js\/pdfjs\/web\/cmaps\/GB-EUC-V.bcmap": "e98ac58f18f548cd41a0c2c991f84f6b452dee742581814ba94f97644574f1d365b3f69050040434e460b88960350f657d02ec732782cd384764d9e9eb1b55f3",
        "js\/pdfjs\/web\/cmaps\/GB-H.bcmap": "37d00316b45a87dfde428f20412946acc1030f896535bf9d70b8c49092342dd13a203c5d76b5467f649299f3e405aff6dce9cb7c93e1821775c186464c98eb6b",
        "js\/pdfjs\/web\/cmaps\/GB-V.bcmap": "bf2358c9074c7bd182e0ab3c5dcdf4c3151466361012daea9f56663cffa0d935812006ef533d1de6225a1598cf583651233878634976ec4c201943604903ffd4",
        "js\/pdfjs\/web\/cmaps\/GBK-EUC-H.bcmap": "7dedaf91e29a59f401449277714fbc4b3961c3c4cb7bd08583ea98048ce483e26d32c594e2cb107145064b3679edddef7a07cf70415f7b86c61d1680663a8f80",
        "js\/pdfjs\/web\/cmaps\/GBK-EUC-V.bcmap": "346a0d877fce9015f410f3c41c560161f34c05ff48462e8509f31823e47a521f8bfe10fca3a12bb97fbbb236619e9abdc7137576fa63e125e3a022f9d1395010",
        "js\/pdfjs\/web\/cmaps\/GBK2K-H.bcmap": "af37b9bc8cafba5eae06283ddf811f9b06b6ea651509f51037d50220db330e6428e2f710d9268b2b2fd1ddd962d49c2d90905525a010771b648bc2c3df383ce3",
        "js\/pdfjs\/web\/cmaps\/GBK2K-V.bcmap": "141e26b3041958053b72d2b63537e646dd55706c286307459fe310f8d6fbf57ca7a30d1ff9beaab401fc6fdd4ab31134079d70b9929cf782352aca46d6a4cbcb",
        "js\/pdfjs\/web\/cmaps\/GBKp-EUC-H.bcmap": "b90cfa1d13afc04d78b3f577066122e857a69b41097dbd2ff071b316cc5fc0836939bebbcc87ef6b303ddedff3e760fe96c62e5eca2434069eea7e6b621c07cc",
        "js\/pdfjs\/web\/cmaps\/GBKp-EUC-V.bcmap": "d8962d502328ed95c54ffab710df116fbc17f1fdefb1b980fafe9e7b83c3009c2c0d68e447f5697778ef344c15bb48354e333621ccb33b1cbf7c3f58cd7455bb",
        "js\/pdfjs\/web\/cmaps\/GBT-EUC-H.bcmap": "5686109777778013344557eee6bd0021804940d71c47f15b4061a3be7666c91c1af42a75de4675ca8677c17b17f4da4db47c228c3b2d3e4126673e6793dc76f0",
        "js\/pdfjs\/web\/cmaps\/GBT-EUC-V.bcmap": "45862b65c40baab78493c1a0f2196f7b9b194008e30216d3496dbdce7d71709f44fa0aaad6a7888352a93afb885538c3d602d3fb3414dc9b695ee4925945c3c5",
        "js\/pdfjs\/web\/cmaps\/GBT-H.bcmap": "42ce8ece9f2e73ee8622d8109a4c792700ade5e1090b9ca0aed4fdae2b41312573510dc4df0c4095c77ac2a81c3c71237212d186583004408d5540361bdb777f",
        "js\/pdfjs\/web\/cmaps\/GBT-V.bcmap": "cec48603f5c9c79235761f10bb1dbea55a9a5a7ff461a284a34a2ef1816325ab94a9b165795dd183d7548445bf82596f75822bd536a3cf0cc1021b2cb46480a1",
        "js\/pdfjs\/web\/cmaps\/GBTpc-EUC-H.bcmap": "3bc43d55bb23ecd6345aab6fea45924b5125360dba04b94f2a41959c413e1db2510db1b0a7dd05c6acfa3754d1466b7349f3e0d03b5aa9504ee042715e3b8362",
        "js\/pdfjs\/web\/cmaps\/GBTpc-EUC-V.bcmap": "8f559b0e8e8a8b438d4af5ece18641c554f5ec360362a2e857d0b6e84842842350dfae850cdb05df50433947fcdd496f9b8c6a45bbb3f8f55ad67670d7d01d03",
        "js\/pdfjs\/web\/cmaps\/GBpc-EUC-H.bcmap": "08816d963bc6d37c39817a1439202589c7d2791290ec97bdaf8827feaad1f4b4e591a460c2346cd2217c6f513a4c8807d892d947d3d1ad3d6045f64e2759c6de",
        "js\/pdfjs\/web\/cmaps\/GBpc-EUC-V.bcmap": "3b26ca759e1c6a191dc2e66896218c65cdb8cd90a37439971cb1a33b2fe162977900d64f7e66e15b0c1b85bf55a74c45143392f809fd50cb9deffcc1fc646e22",
        "js\/pdfjs\/web\/cmaps\/H.bcmap": "d802e84cf0deff7f652fc6786a5178a2672c68c455296272b4d66d844a564767e374682dd177d55695887c6e1d590f6b8e0f82585bfbe96ad4de39ac78e1a53e",
        "js\/pdfjs\/web\/cmaps\/HKdla-B5-H.bcmap": "f1831984fb8d5cd394228437bff40194b76ea49ce6150aa2cbc63adc5eb1f948b849a984c05758db43a7e2436b8894b8c6ab8cc30254ad21eb270f5f315200a2",
        "js\/pdfjs\/web\/cmaps\/HKdla-B5-V.bcmap": "7bb3c95436701e5e5cae7edb203faf133657f8b660a5787e4eda62eed18ec83da248db6ff7f93902f7c08f775b76facf8a59faa5a1b181e437d8bcc04fe7412e",
        "js\/pdfjs\/web\/cmaps\/HKdlb-B5-H.bcmap": "20ae60c32504d6e28c3f9fea74348c025971db2e45a6b05337888ac87d48f1ab068327a71e2bd9423cefbde585e464f39732ab32790231bd566964d7feeb59cf",
        "js\/pdfjs\/web\/cmaps\/HKdlb-B5-V.bcmap": "47d8109c237854780c2a8631f7afd869efcb9af6932398ae598944e8af93b358f38da4e8561f8c30680c29375e9d76d016be50c12eff1155abe0fcca7a1edef4",
        "js\/pdfjs\/web\/cmaps\/HKgccs-B5-H.bcmap": "fcd1755a056e0b40ca26ed8abbef7a3d302326e822196c5d7cb34463bbf04b571579828eeb5755a0759858e64673f574d058631eccce8cb55a2dfc43094fe589",
        "js\/pdfjs\/web\/cmaps\/HKgccs-B5-V.bcmap": "6555bb8920c6f99b094c624c5c0f92ecfc525fb2b93e1c9056d4992af1eb5573f838dbad21a0d3061388bc66e438476b62db85e231037b9d91adc9a3b27b99f0",
        "js\/pdfjs\/web\/cmaps\/HKm314-B5-H.bcmap": "6beb5993de3512f1dcd96663086a11c460858f1decd9b1a5745ed6a39b0e622237f2450e356401368480e5fbfae251ceefd5427c71c681507305ae4d702acf58",
        "js\/pdfjs\/web\/cmaps\/HKm314-B5-V.bcmap": "e2a9dd263c387f38f6dd23aee0d3877adb5070d107ad3ef997f67c6b0784e6aef7efee0984efbca4ad43a69519171b9b80f17ea42dcde469f4c9cf7420f72b49",
        "js\/pdfjs\/web\/cmaps\/HKm471-B5-H.bcmap": "1085049f7a01a99951b4f5d139f64c18b5463e2207cc3b41ccc55b4f99063b3effa83623a549eb014f3c74157b59e8b2170c4fe19270f534fcd904954e07464c",
        "js\/pdfjs\/web\/cmaps\/HKm471-B5-V.bcmap": "8f341ce27e4722d222162472639c100fa356251f26c6f757de14e647e6a15a60ace608cc0f1fa978487d71a28564a9d6c7863993a6e851936d6380ec3bfa1ca3",
        "js\/pdfjs\/web\/cmaps\/HKscs-B5-H.bcmap": "cc38d893ca1b478f7ef5e5f241af1b34fff6f170367b7b25298917ef4fd96531fe8eb7b4da3ac9ac93de1a400e8ce099d3375f81f6325fca787833337c9efe01",
        "js\/pdfjs\/web\/cmaps\/HKscs-B5-V.bcmap": "24061edde1f8a8ba2f7f52da6c2995c5ca486fa4eae58b6187c16d7ce758d007a111f38e492ba763fc367c64e494082468f6b59a42de65082efc9f2fb0ac4e20",
        "js\/pdfjs\/web\/cmaps\/Hankaku.bcmap": "be2e73abcb546c4ae0a168e9edf70187d51bb1f6fecab88ff620a65e0e3bdd3948dd1f634e8732a2f82271898ef4366a25596c81284644856ae5bef2f4d05ee9",
        "js\/pdfjs\/web\/cmaps\/Hiragana.bcmap": "b691f071512fcd0e094f9aa019cd1820f676dab391ae0a1e399706f4e626311be10ade9730b5960576dd61145e75c332cb57447e2231e0568753fba0f9801f70",
        "js\/pdfjs\/web\/cmaps\/KSC-EUC-H.bcmap": "b9f5aed80fc93fdb435ee259879f09aa8b46ee1ce9571b39e1b203e46cf8137b6b00e73883a73dda381592a225a0881ecfd02a47c36c83ad709d8df797eff88c",
        "js\/pdfjs\/web\/cmaps\/KSC-EUC-V.bcmap": "3921a2bf330bdaeb5ce7bb7bab7dd290d962755889d200ba1092886179a67ec2939789765d1eb6504338be477b39b5566877cb3fc175ed6a88c4016ede469a41",
        "js\/pdfjs\/web\/cmaps\/KSC-H.bcmap": "7e4ddbf8ad56c1312083b672e06daefc8c03ede8001e0094e48737fe9964bc79daac9be484a3cff1d221fb7ba0336dd7774068de82ecbfe2f517006181c7442b",
        "js\/pdfjs\/web\/cmaps\/KSC-Johab-H.bcmap": "2ac54951fd28d20cc80ad5a50413b0d286c5fb3f651ab0fb34ccb42c13f4f364718149216571ccf81f88504667ff3cc70250c5040d9b689e02ab7ab0bf49dd13",
        "js\/pdfjs\/web\/cmaps\/KSC-Johab-V.bcmap": "2b24d20e14e512082b16be3900065d17fe65b64252b9898f8c20facf4c48e373906760eaf00d3cf18a58992046696b9204df1d162e92351b827ad138ee45f309",
        "js\/pdfjs\/web\/cmaps\/KSC-V.bcmap": "af43b92d12c0fc1cc324b379e44fba512cc2c6adf86c56f9b6c560a83093f87aaf9e0026c03e4e73332af407a6cdeeaa4cbf761dcb1267599a93a367318f3b67",
        "js\/pdfjs\/web\/cmaps\/KSCms-UHC-H.bcmap": "a43307348dc37faf3702847e7501f86ecda4999f95245576e55e912588c5554ca1ce8ebbf35dad1cec07342518f9cc7d0186eb4cb22bd47dfa9ce1f7714c724b",
        "js\/pdfjs\/web\/cmaps\/KSCms-UHC-HW-H.bcmap": "f906fc760fa9fdb79134ac4a0801d67ceec60bf1785991d2310d995db9e659de3a584c030012acd6cddb233f0753fba5aed87138c36d5534ffda794cdc07a79b",
        "js\/pdfjs\/web\/cmaps\/KSCms-UHC-HW-V.bcmap": "9716341efe9327add9dc2c5c49e76f35d593457f3720c1e3352992140ec77072898646271b0b8f362091a7482b651196d7260d12d4a455341f267e9430218d8a",
        "js\/pdfjs\/web\/cmaps\/KSCms-UHC-V.bcmap": "d199a9b2d23276ce9f22bc2ff14ddbd585b7df8ed6861081cfcb259c8ce030b117a506024f71e3d44a6edc0bb9a043dc24cff26c76c0f44060c72a6c323eabe7",
        "js\/pdfjs\/web\/cmaps\/KSCpc-EUC-H.bcmap": "659b7a68292ec0cb85f7871a81c58ed4d0eb70de7a62a3c0bf53bbd1660708fc42aeacd29c8074f43ff18efa0402f83b3c8cada982dfd1d6eb3fc3cf15405800",
        "js\/pdfjs\/web\/cmaps\/KSCpc-EUC-V.bcmap": "aea6e9f075f8042063cf76ddcba8289796486760446fc35f622de6799aa97aa0f1922604017564fc5063a37aed8072ea83b8d44f9ffa19b0ec685efa2e47ba7b",
        "js\/pdfjs\/web\/cmaps\/Katakana.bcmap": "70440c73d91a06beff41cc30fed0a39c22f145d329350775853e19ec599408632f910d0a96a1dea359e31d4f2e9fa5b9777165d09dea23591c4293d84568fc28",
        "js\/pdfjs\/web\/cmaps\/LICENSE": "60f0fa222953cad177e3a8895104f199141c1f988e2211f2226f1a5b69da6a5125cb4c3daedc1d805ecec09053f5a422576a453e9cfbe764138a5eb260473a71",
        "js\/pdfjs\/web\/cmaps\/NWP-H.bcmap": "3ccb6b528cd64c3b826b0f2c6f96f2ec10508e67a65cf21e95e80e4ca23f603167481bab9c1331f5ff245face8cba763c7fe0acd80a55ec042e2fedf953f6a04",
        "js\/pdfjs\/web\/cmaps\/NWP-V.bcmap": "cd88f7a0574bc800ca5b2ccf36d771cd865fb6a57a0bd0417518cb40833a52934bc266072b1243257d31fe86dc689ca30cd363edf8a7f0a95017e707d13ae596",
        "js\/pdfjs\/web\/cmaps\/RKSJ-H.bcmap": "f9e1da68a101ebbe2771b4da3a7c387ab277f9f60442f0e5dc6805b3f0e0e5218d7214fcc80e8fdfbcb8023b612858f31918326c3b4bbdd1fa12023f29caba77",
        "js\/pdfjs\/web\/cmaps\/RKSJ-V.bcmap": "c599848de1bd56e9b3cd118922e2ed9bcbb847a137df3814f7e3a360d4196b6b0e5b9eb047f4b6e83bafce96e282c521482fe35cd8c19b3e0b5fb19b53313d80",
        "js\/pdfjs\/web\/cmaps\/Roman.bcmap": "1e532f75e5ce61ba9420fdb6e43d14871c2d2a7a21307a2c1c3d86ca51824f44d77a9ca9504bbf65e4bf8717f2a7a46b44f45c0be97b8d666fba279805d51f61",
        "js\/pdfjs\/web\/cmaps\/UniCNS-UCS2-H.bcmap": "43a801fb42dc9e61d324138d68f9757796d02e046cfdec19f7dd09932371a4c9e9e91198731311054d0b5f407e4a0e3b3aaa8e7277df816f07d93df317e9ecce",
        "js\/pdfjs\/web\/cmaps\/UniCNS-UCS2-V.bcmap": "bcedfeda8c5bcebd88147e77c27605f5617821c6a7a1a9d4831fce995cc1152eba8396d19ecd861cc8b57b893b6029e12c7e2c391fa00af75204407d8e470a74",
        "js\/pdfjs\/web\/cmaps\/UniCNS-UTF16-H.bcmap": "7fc4e7b3471896748f4a0498ddd6f9e328f31b5163e92f1a579ced1bc8004ca45aa58de05848f6ac0ca8563fcf0d17bc736d20d11fac4c7a591436465afb11a4",
        "js\/pdfjs\/web\/cmaps\/UniCNS-UTF16-V.bcmap": "0977a08ba7e7f092a59cd6393cb0504dd73ebbc679361a1d9303f5109157fa707caf8b08e9e61cd7e4152aa1a47c4c4f75a408fc745be8a1c326ef26abf8ff3b",
        "js\/pdfjs\/web\/cmaps\/UniCNS-UTF32-H.bcmap": "3b0e02981a0dfc4d27cfe2bc3e3c4f2eaaa38633f51a3201a30afb9eb55aa7d07d11800a8825fea674355dbad7df4ad72bd18bc60378d37ae1c34e2301a4b7d6",
        "js\/pdfjs\/web\/cmaps\/UniCNS-UTF32-V.bcmap": "0dbb264ef088e0de95f1ec6b9d04de8a35e778728c310362f46d082ff37fc01ffeb033daded9172dfbd4595e9f3bc8a9c1186e06c675ba546c7ff77733e93505",
        "js\/pdfjs\/web\/cmaps\/UniCNS-UTF8-H.bcmap": "8621211f25029e088ca516618833fe73417730315bc06c967b643b371f1becbc4fd6a0afa96c18cc91ba44294194961b41f7418024f7df292ee99a05f2138e0a",
        "js\/pdfjs\/web\/cmaps\/UniCNS-UTF8-V.bcmap": "cfc2e2b2ca98210f14907db9de6ef785c74289e1ed3c5d7d506fcf928f2236afa2cf5fd622b1d7af98c63ebbe556d5ef9cde43020c4cc42a015ba33f24885d14",
        "js\/pdfjs\/web\/cmaps\/UniGB-UCS2-H.bcmap": "dc98ca3c95e6a4c4221dea5a26c77a869676861879a4eae8b43723cf157265f793c61f7e89c739580d8ab92a85be5e4b08f83af032354391310291995200e204",
        "js\/pdfjs\/web\/cmaps\/UniGB-UCS2-V.bcmap": "251a06035e292eb7836f7137a1a831827688bc8aa2436937a9e8742bccfc937264d4ba8035a9e683c150a100f19458788b54a47d02254128d18331889f10783d",
        "js\/pdfjs\/web\/cmaps\/UniGB-UTF16-H.bcmap": "d969136d3ce948e48b3757af15952eece8b9daf959d9d248e85b6620eeea33a4d7db31ead51789f9e226b60379a13e0e944f70ae288bb729320d366a8c70a579",
        "js\/pdfjs\/web\/cmaps\/UniGB-UTF16-V.bcmap": "4a4c556e56723f7a0f1b83d74a78aeeb78615d2cc070981fa2f15a13713391ec1cf2c70ffee3e8cc37f593edc46fe001e8a0cc985c51a85d43cd8e4ce56ee97d",
        "js\/pdfjs\/web\/cmaps\/UniGB-UTF32-H.bcmap": "f3cf3e1f7e8712759399d27c394bfbd02e6597de42e082f4c202a5e382573561d0c2e77e9ba54d7b99174c5beead421c1883197ce6124f255dcf4a42444c03fa",
        "js\/pdfjs\/web\/cmaps\/UniGB-UTF32-V.bcmap": "71d886ca5a1e773785c5efd16c9c89c5354b603a4752ab94b8d3ca6caa1f6c0e7ec4b5ee8fdcf462c48c18630efe1952002595feb55fc62d0e3e6654aa047c7a",
        "js\/pdfjs\/web\/cmaps\/UniGB-UTF8-H.bcmap": "c600772c08df4b2afea7003947ce7b6be7e4d4055898d1aaab2e5469006e7402017ffb8e6db6cea108479e2d48dae417dacc12156b0fee5d33d7f6921b9de043",
        "js\/pdfjs\/web\/cmaps\/UniGB-UTF8-V.bcmap": "06ab567a91faa6ef69b7f7a0d4182a9b9a06413970de1e9d965133ec2929c42015bf797f9330b05b2c7b65cef8025d6ab190a4fb2ed0d3b3998e5f33613cbf09",
        "js\/pdfjs\/web\/cmaps\/UniJIS-UCS2-H.bcmap": "70a75d6fdf0d81f5000ee8c1a0536f21519534f49bdbe8b0817d53078fd837fbf0c7f3b3275eb912f7955785506eccd2bfd7fc81ef8198cc4ff64308c2a73433",
        "js\/pdfjs\/web\/cmaps\/UniJIS-UCS2-HW-H.bcmap": "0336ba0a5b9b7b483260d779058a868434ceeb7cafec3c6a24dcdab91246a9af90d8e0c4426230515566ba4e68e32822dba7c505cbf59b9afae5d70741936ae7",
        "js\/pdfjs\/web\/cmaps\/UniJIS-UCS2-HW-V.bcmap": "0b85c6d653882212d2cef36c1cfd9a426686e49cd090333f78909947eccf0106f6edd251580e6f39ffdb99f815e090d13ccb965dbd659feac3108b30a7d78299",
        "js\/pdfjs\/web\/cmaps\/UniJIS-UCS2-V.bcmap": "409bef75c620d30a0d3e396c9afafa1af09e5c56110c9b92a4e0aa677ba5c0a173cd04d6edb14fd0e8c62d374b4c54f3d1ff931de04d949ac5ecbd5bc2124449",
        "js\/pdfjs\/web\/cmaps\/UniJIS-UTF16-H.bcmap": "fdc7e30cf49f12d6f553bf2019ed99bb718c82a8f49a15ed1e32e52378a63679572e9d928f4fd1f3c4f197ec48d01306d257f9bc58a15964b3b9139f89a939af",
        "js\/pdfjs\/web\/cmaps\/UniJIS-UTF16-V.bcmap": "084e43b521d38a2d153ad956193fffd4f3951003902ac3175112ec16352421785d34eda14e32f5843e45500d083631857acb5f4eeb07f5f13acf04d886172990",
        "js\/pdfjs\/web\/cmaps\/UniJIS-UTF32-H.bcmap": "62aa57a00fa232008221b09351a343bef5785064a9550f404e782c5c08e30e3d2b61aeac51e670e4a1e9fa8ef798e92d4e64144fa391f36ed75c1fcfea4db883",
        "js\/pdfjs\/web\/cmaps\/UniJIS-UTF32-V.bcmap": "e960cda859d6f3f0837f55cda77799d33abeb8e401b55501b4f00d6d33b7f9b9c890c0c9deae2c1bb1e08ad58c7fd471d8700a076fe99391e4c61c72d586deb6",
        "js\/pdfjs\/web\/cmaps\/UniJIS-UTF8-H.bcmap": "9c0506a4f694aba88c312f2ba0e6d00aa55a6939ee498cc68e732ae97b7f87b72abe09941b32b525f85b3a6baea7b935d492236c000782d358b8316678ea5c93",
        "js\/pdfjs\/web\/cmaps\/UniJIS-UTF8-V.bcmap": "df4db0fdead7ba98c07e319bf563efe81ec26d9d72c291b87fb6db2f4561a98988ba1edf51efa0ef077db12908b86b1685a9fecff94d7aa299fe6b17cfbee5c8",
        "js\/pdfjs\/web\/cmaps\/UniJIS2004-UTF16-H.bcmap": "8dee753d227db57dd8443b43b2bf013ccec2be105c3309cf8a4b7fe34b2e68ca3657c6a2246b5aad5839ec84a4f469b5a6e315bfd6d57ea219ed03d1aaa8d504",
        "js\/pdfjs\/web\/cmaps\/UniJIS2004-UTF16-V.bcmap": "c4f1eed1397c527cb3e9232b37489e26b9ab371e48dd3d8c29ac9620d16208838110f732eff1733616126e5c5fe6e3c9ebbf96379718eb7824ecb1aa4cb3b35f",
        "js\/pdfjs\/web\/cmaps\/UniJIS2004-UTF32-H.bcmap": "be848bcb8828eae83a7b455e1243ab820f9e8a6acd3e9a6cff18bd5892eeabe20ae7f5b112529a05ddf346b4375e00e71a210b5235baf7cad269901665ccd510",
        "js\/pdfjs\/web\/cmaps\/UniJIS2004-UTF32-V.bcmap": "0ed9a88c730583e80c555a72e36c72771516ee603cebe210f5e69af02bf8deda297aa0d75715b092297b497f3a53ec1148614b9ee4dae26a0198918de7ef8c13",
        "js\/pdfjs\/web\/cmaps\/UniJIS2004-UTF8-H.bcmap": "347b02cd4dd8720bc29dfa7d0977ef7f3fa62c8b65d724f5b381d969b45089302e2a7ee247e257f3337bb263110b093fcf0613099e90e8a83e3c09cfc2fc95ce",
        "js\/pdfjs\/web\/cmaps\/UniJIS2004-UTF8-V.bcmap": "af115f41fd99e68add9e570d24f408c1005cb5384d4e42dae10b0a71660329fb9202ff96311bf8748e3110a7363c69449e590a96f0e672eec799ccd94683eab6",
        "js\/pdfjs\/web\/cmaps\/UniJISPro-UCS2-HW-V.bcmap": "39d748fe3d8a90c1fc466e487114573a683d37c968d17017d6d5506c72a614647fa59d1f626eb5a5d1b6eae144587cb45f0773c4610905bacbbde1a95a53c021",
        "js\/pdfjs\/web\/cmaps\/UniJISPro-UCS2-V.bcmap": "60d27d421228ef43b67cfb7b3d1541eb437dd391b6ac2324d772cf6cf6a05f685cb73d1c57f0f475729552b12e1ce958e30bbb8f5470a597b45fdc42837d51f2",
        "js\/pdfjs\/web\/cmaps\/UniJISPro-UTF8-V.bcmap": "9d49596928a2e405f2646816b4908c103fb7ee7a1a31f2ee5cba6b2d35527252edf0ecfdf195b5981b916599d71e12f908fa7886f2e5cd09c9572aaeed61523b",
        "js\/pdfjs\/web\/cmaps\/UniJISX0213-UTF32-H.bcmap": "789f859223a5db582da2c9edf537e8065bf8c1de414f276f718300828727de34362d41bb45d63e00c62c0323171503f22af4fca0fb4a335028b3a56742bffbf5",
        "js\/pdfjs\/web\/cmaps\/UniJISX0213-UTF32-V.bcmap": "8578c58b3abf0594d717a71c67352c5e6128af4252afdf1d0eb88fc613b6b7f23fa60db75a288e302c6843d9ad28fd48f2f9fbdcce7665d5fcbc34fef4ec9669",
        "js\/pdfjs\/web\/cmaps\/UniJISX02132004-UTF32-H.bcmap": "83293f3ad044f3b4d6a7c0574d868a4bdb5738b99ccb5b3b064560675312ea87c31dd3f35e769949ee356cca1c1e3177cc19c532bf6e3c46899ce912e30bad68",
        "js\/pdfjs\/web\/cmaps\/UniJISX02132004-UTF32-V.bcmap": "051ff9981609f71e68a8d1b699cf8f21c1fafe5c3d5bd406bf5f4ccd7b590bbe9f61284070d7cf22d5b52a0997a91ca5d1dd220ab0a583a0728d69e22c149ead",
        "js\/pdfjs\/web\/cmaps\/UniKS-UCS2-H.bcmap": "e5a351ae1df7fd5a45311a4e8c72e776fd783a0fac9ae03a2466f1ac9ab688b6ca779556c22c7d48037c336b87c6580343347c636a7cbae04f903b9e90fb0e41",
        "js\/pdfjs\/web\/cmaps\/UniKS-UCS2-V.bcmap": "5bf69399f5c9b9c9ec6ce94f0fc0f763eaac736ee75deb450f0ec8892b5dfab409f0350bb134f4b2ac129b9c94ae06c5995a7378a9f4fe08beb794ec14791d27",
        "js\/pdfjs\/web\/cmaps\/UniKS-UTF16-H.bcmap": "5a8a072a68aaebd2bf995fee7a13f8802bd6c26b94be993f56348225c4d1bf603491f3ef466a806a88b345bdfc47950a387716b1cc0a52c05cab25c5c2979363",
        "js\/pdfjs\/web\/cmaps\/UniKS-UTF16-V.bcmap": "09cbac1f894c55263636966ba71efbd99bdbab208ff7587f574e69a260c6d27641cb93624f8ad9f15b8e4b9ffd931bf660e715109e893b4529e48900b2ba31e1",
        "js\/pdfjs\/web\/cmaps\/UniKS-UTF32-H.bcmap": "a93fa72c893b9920aaf6d076e593c1884945769df7c9714dfdbad43dd6f4369f2d25ac8caa140cd4fea7d318503720f02bfa632c0d250d018198c946e4568b33",
        "js\/pdfjs\/web\/cmaps\/UniKS-UTF32-V.bcmap": "3bfc98c654ed73603eb13e758454d19f3ca3ab5e4f007021e230823ae95558cacc740d5d69b16ac7dcc10d7b4838dd1d90a6812435d48a376f01c0301775f640",
        "js\/pdfjs\/web\/cmaps\/UniKS-UTF8-H.bcmap": "81ade1238e3b3f5c8648b35dd024d58cfaabdd08add00d32f33489a80fccff34db0b08e2f4e704b659c33ee94289b275f08386fa287d1d4edaeb15809155a2cf",
        "js\/pdfjs\/web\/cmaps\/UniKS-UTF8-V.bcmap": "344f996806b03c29dfc473a3aaa2f2e5c37b2293b1c81eb0edc377475faf5ecf9f4d0d59ec20da36144fb5b2fa0ecf551c3630fd534c11117ea52f50dd8341e8",
        "js\/pdfjs\/web\/cmaps\/V.bcmap": "c9aa014d64545a9acfeff13e945e0009d65715317047e760963795d74c55881538ad9eb817db887c72b29bab034d852341fcafbd7c139e82c2ff59b33933e4e7",
        "js\/pdfjs\/web\/cmaps\/WP-Symbol.bcmap": "d689c8dbf5a33d11333bd9264870cdfa9f889356ebc7f772915ebd00d4a02c0881b81625e75c08670d6862d72ecd2dac37077e30913f8feedfa2a868f858cbdc",
        "js\/pdfjs\/web\/compressed.tracemonkey-pldi-09.pdf": "37b195d0abc7ed58e4d492500ff16b70a217deadb7d0908431eb6d93f41f4af47fb949bddf2ae389491f8a736f3047ac0a24e5b755b4d0ce6c7584e69ef14cb0",
        "js\/pdfjs\/web\/debugger.css": "3437e5236caace4dd052bf0a59372b45c5c010bbcfd04dfdc28eaf1a434c682d439ecbc5aba09bd523433a88b1e15e2025e38b626e4e356c95a5046f49a41762",
        "js\/pdfjs\/web\/debugger.js": "5a71aabf66dcad1fe830ac259e4452e9360023108de939bbc0b99ca69045d86c179e6917faf81a5aebe40c32895acb5f5faba9b4e9a761f51a9940177e15ff74",
        "js\/pdfjs\/web\/images\/annotation-check.svg": "7442036525e2d5c0ca86c3e6e343bf79f39c9d39ea4815bcbea3056f157465821fa19ef559c7079ea60c7cf99ab4a01ad47af7f46e02f8ff2822893b947b14a9",
        "js\/pdfjs\/web\/images\/annotation-comment.svg": "3b0e0c6fa42084f28edabbaabca1052afd76c3c41576f23ebee598960da96556ab088e8730206d816c6d1434bcb03b0ba36d50abce074dad00cbce99fdff841e",
        "js\/pdfjs\/web\/images\/annotation-help.svg": "735e99c561fe8a509bb5375f77cff79c601f9fe82c3af9254a657bc2b6274a77ccde0014855ba1e925ea2beb207e0b0c6b138f3f78f41a7e9df71f5e58f2c8c4",
        "js\/pdfjs\/web\/images\/annotation-insert.svg": "f8caef572ed87fb5dd3c421665cdd1f5e4f414a65148d3d9990bbec21d9adad86810c58610c800b7649f719d88a53fc924f0dda88b1cb7883e74b709774061c6",
        "js\/pdfjs\/web\/images\/annotation-key.svg": "e9e8b365bd41ae612560f438c6aeb0d1aa2e55f223812b26bf6cabf44b39bf2e1a42b41980fe60187199cea0f2adf1f31c7a0860be10edbc595832542bb1d7e5",
        "js\/pdfjs\/web\/images\/annotation-newparagraph.svg": "ae5816a3ba95cbff2bdf876f4f2f4a0bd7e347bdbaacc09a2e65d46d0edc256c7f0b896536ee5470a2d17cd903d3bae52bd506c12d77504ac0aefb25265eebb9",
        "js\/pdfjs\/web\/images\/annotation-noicon.svg": "b74f7a79dc719acab1f351ac70f00455654dda140d2bc24eac6d48c804bf24ef5938c7d85073004e20b0b3c52f1c38f598f811e068e5b9092e11085d468af0ed",
        "js\/pdfjs\/web\/images\/annotation-note.svg": "566be95c1dda2d5a52ffe0a6899f5058c547f91fcdc60dbe26a79b39fe427a79802d6d52eacb711acfee368318f7b0d54dc9067d88962306d4b0d4ed65d651e4",
        "js\/pdfjs\/web\/images\/annotation-paperclip.svg": "918d8f624a39325f7fc3f59622194f3557a3864568ab4a154319bf60639958a67fe82faeeaa247de4893db7f610b749b51d4ce21a59d94e679e6f261cc32bfe5",
        "js\/pdfjs\/web\/images\/annotation-paragraph.svg": "f016ff103e8de8e6cf19aee5e7b627ccce075844e41395cfa20342a0b42a13dce82106e4b06bbb1d7e7c135b0dfb8fba0ab3b0703f40afb9625048076ea3558e",
        "js\/pdfjs\/web\/images\/annotation-pushpin.svg": "b83b4711d29f0c0d5a19555d0e4be03d49ca4ebb25b10307da665fa1d686430f2e1f9fbd2491805a9cb932e22cf6749f52cb924ab56cf1d8088f2aa2a0f9f0a0",
        "js\/pdfjs\/web\/images\/cursor-editorFreeText.svg": "58cf1cf1cfdbcfade868b68277a854c913950a15525e1b43fc9e9668eb498220d8cde2f8cd0fe8644ef0bb8180c297c6721687438a34c2c88a62f3c33e1b74f7",
        "js\/pdfjs\/web\/images\/cursor-editorInk.svg": "87453658b8ae43e326f59e0fcdd79d6e9b70a89f6ee9b263dfd1a1ae2e8aa73fa127b8219007d629d5d6cb1453ad8edb4537bdd1e0d673b77da915813bc0168e",
        "js\/pdfjs\/web\/images\/findbarButton-next.svg": "ef2a88724023d79f6828ae36350466fd706994bf6ffeb6c6132fbf1130a46578b8d1118ff55a750541f6e27202158f006d086950e84bbf1fc550d55266221871",
        "js\/pdfjs\/web\/images\/findbarButton-previous.svg": "bf3cc51b5ce726ea62a9ad2e99ba772ac28e51784bef29c25d18a6b3d370ddfadd671b0e47fce9bbae88b4972653c87fbd5412907cd611a8aa0e5ccc387ee925",
        "js\/pdfjs\/web\/images\/gv-toolbarButton-download.svg": "b86b9c9e2374b8a5473558e3cd6af2f63acdd6728594df91b35da1dedaa39dc164a3fbc3c4a26b3fcae41c71b4ec93613ee8515d7799bac32f388047279d59ea",
        "js\/pdfjs\/web\/images\/gv-toolbarButton-openinapp.svg": "c1cbadc66ca24ae4e724f2fdeb0c0fe475a9f4eee66d93aa14e6e9006fab90314404fc260d733b05c74039bcb78afff170d32d2e2674de253f396b07a9f4d5ce",
        "js\/pdfjs\/web\/images\/loading-dark.svg": "58289fec427524ec812090c4312545418eae7ac12d60a7a00f1f39c06259c1f7769d144ab20f6670f70c01ffbd2e06b11cd8b843b25b239a8daf8730df64416f",
        "js\/pdfjs\/web\/images\/loading-icon.gif": "451db4141333fe6561e6259352b6259f80a2b080380d48117b693cc1ea1d6f3cecb5f4a4493af11c734989e4096b01bad2b31e47d2e13718628ac254c4deb70e",
        "js\/pdfjs\/web\/images\/loading.svg": "dcd96849de3bfd61e32a897cfa9660ec210207dc3c3359b1080ddc6ff3d79d02c983c3844360d818c3474016025bb80b22f9416d052ce6f165c1c9a98a516669",
        "js\/pdfjs\/web\/images\/secondaryToolbarButton-documentProperties.svg": "6261d66b7d2545219c564e2d5c56b35480bf109d75382ccbea7e5d26a2c8e39b73497a400b8e7e26e13b0ceccf5c139740e66cade93d7ebbb24f0d99e0120a7e",
        "js\/pdfjs\/web\/images\/secondaryToolbarButton-firstPage.svg": "c2118e17a4cef297cc86efc1627ef5ee6d40f52bf5f1064e086daeb357f4eb4b0a9aac0bbfa9e6cffba8e096cc3a23efe2ee5a72bda21d723d56e1a1877237f7",
        "js\/pdfjs\/web\/images\/secondaryToolbarButton-handTool.svg": "4aee42402d9956da6d469d562af7ccf7751fb75b891e4ab756b2eb12aad841a6894204f62fca53bdaf6665d9d53201665b56ee44a74c29850cad241d6ee9b562",
        "js\/pdfjs\/web\/images\/secondaryToolbarButton-lastPage.svg": "f96e277dd0efb564ce6081afa252c7f536e8a9d6209d504ead4e2cf216b347a9762da7e28219d23d893248080b4ef21156285675328978e7e6a2d886e5076195",
        "js\/pdfjs\/web\/images\/secondaryToolbarButton-rotateCcw.svg": "77ba4d4668eb850f82fd9759d4b4c21cd06b45c14bd7a838c0a2ccdb8d402e03325bd443f65cc8ce46133a15a189b8ef7575ff085a2fe850d936cfb63c78cfa8",
        "js\/pdfjs\/web\/images\/secondaryToolbarButton-rotateCw.svg": "b4a372a233f512f9bb43ce9e07ca196d7e1d02d8c374d523de0f8daa92674538e5d1666cb493d14cb37a6935325bdfec613c8307cdf3d6be9b310f7c00772718",
        "js\/pdfjs\/web\/images\/secondaryToolbarButton-scrollHorizontal.svg": "327a93333e7b5b8e4953e230351de449a121b17072704025894ab175d848af2dc4c3b4a5bc3b8f5569ad3111687e26b82b61824368663310795946439b7494fe",
        "js\/pdfjs\/web\/images\/secondaryToolbarButton-scrollPage.svg": "f685aa1f79d5d87f2b1de24626baa2f57fbb50b74550c51aca7f3d88c8fcb4e24903b70ffba2c019e66bb9098a7bcbc0cede919b766a3d27b59dc1ccd7d8f2b6",
        "js\/pdfjs\/web\/images\/secondaryToolbarButton-scrollVertical.svg": "6fcbc35fd7d108b3d0179d3fb9a26c623d09f8736f7df04dad91f95375a74513bb1c3871408229ae0db5d1cd2e399b6ae15770b0bcd0a655d55e3c94acdc9d57",
        "js\/pdfjs\/web\/images\/secondaryToolbarButton-scrollWrapped.svg": "7d40102571b0b37a66236906d7499d478f7c0a90b3b026879c10b8ef0cefdd3841d8a6dc97f03e8a16f64d56c7b18be131a438c39958c3ef59960776893f5cde",
        "js\/pdfjs\/web\/images\/secondaryToolbarButton-selectTool.svg": "817c13cbff5803f156fe5e34054df47fe6ef6ea681866f44830b19b042c6082abc8fce94691fcac8cabcba1d8297c24833c024b4ed2c57e0c63889ea916e2188",
        "js\/pdfjs\/web\/images\/secondaryToolbarButton-spreadEven.svg": "dee64ef8bb09b2e19ec51fce2c9c1218ffca1b8a76a8e38ced422ff5eebc64931a6505be193a825f1cd08ed4a55ad34914ce0ba3fadb0f71933fdab4aaf7294a",
        "js\/pdfjs\/web\/images\/secondaryToolbarButton-spreadNone.svg": "8ff8c18b32e554e19a7aecf5d5f172d804bb154a47091f20227da47bfd643e9274a559cdceace5d2611d9d07f37214e31da8cd73fff675983d97f47eef14bca2",
        "js\/pdfjs\/web\/images\/secondaryToolbarButton-spreadOdd.svg": "ce2b3f257e4face7a471b597ae47e7c136075a11c0c37e504232b37ff3d26632b93496450fe5b341841b9fc47da82ab285e6d340502ae25ccccce42b18f66455",
        "js\/pdfjs\/web\/images\/toolbarButton-bookmark.svg": "f59abc104fd8dc78db2c3aa05037de38c9b86ffe3748d76bbf78b788c06194570620b53527d2b112ce71481780292aeac75062ab36475875549321177ff7c8d7",
        "js\/pdfjs\/web\/images\/toolbarButton-currentOutlineItem.svg": "b244619bb751f7e0c56ce5d659fc9b08d22faaceaba9829e0aafd9f2a93d7084bb9e01cea789ddd4631f8556c71d52bed099fc1e806b91f834883fbf2f5b62f5",
        "js\/pdfjs\/web\/images\/toolbarButton-download.svg": "600d81be89bef24834d240e78b32b5d375e1d67428e705cb85ddc3143efb5e8dd7907e6372de3747e0b7fa5db7a58d3ebe76946df187535cf3c6b0f976ac38b6",
        "js\/pdfjs\/web\/images\/toolbarButton-editorFreeText.svg": "407727b979909fadcc48424e41b3d932d2656a156e54e96a801a84d7d948b7319ec65b29c2d9a31886ba16d79d40b7533a42b72cb653a09d2aea2a3dd4ef1e30",
        "js\/pdfjs\/web\/images\/toolbarButton-editorInk.svg": "92c12cc1552c7d32ce82e11c5a63fa170daa25a3e06f3157f42ba0d346cbebeced2039239d656f7105b884d10f0db51dbbb58e3084e84297027a91bb1a148f60",
        "js\/pdfjs\/web\/images\/toolbarButton-menuArrow.svg": "4a08991fbcec15fbea760190d1c53bdafb3bb45206e9f048e1d78330d5e3d807e0dd6f6d24b302c129205aa0d33c80eccca66ff9815f12d7f1231c5bdf644407",
        "js\/pdfjs\/web\/images\/toolbarButton-openFile.svg": "32650a0c3818925c5aa8552c870968bbedf867170e2e20a6dd4425ea3c955fee1474b0cdb4f13371b7d3dba9449c5668f2e4b5b74d13db1cc028f39a81eced22",
        "js\/pdfjs\/web\/images\/toolbarButton-pageDown.svg": "f1fed657459b9645791e3d2ad66ffab86574fd9e9115631d05967ad632c9a1753275ac2cbcd04c5abc67d2c0743621e2009342a5423bc355a4ae722f423c9e72",
        "js\/pdfjs\/web\/images\/toolbarButton-pageUp.svg": "4f2db20de5727bb49156cfaa909afd4fe6ccd4a258e05f80c65c900c8eb3ef1e306bbdd30fd70f15d74376e736991ee6ae216d8460ff779e266196a1f56a390c",
        "js\/pdfjs\/web\/images\/toolbarButton-presentationMode.svg": "ebeb1a6063a6235566c638ce58b56f35fac07ece94dbbb34af9696f87f136334472aeda80f3d074ad410e210ddddb72d72b2a8c92f639e4c0d78854ae4974ea5",
        "js\/pdfjs\/web\/images\/toolbarButton-print.svg": "102a9de6f745067cfcff7b91a8819f53189f20ca17e25f159f53e74867e676baf13fe2fc7f4fe297c0c38f3dea9511cc8422477dce1e05450cc894cffbc81124",
        "js\/pdfjs\/web\/images\/toolbarButton-search.svg": "73fc44bcba29ced50597522adfc0fc04fe83d844a9b97718daf44385ef870ebfc15be64040e4f04d3072784c8d1779b964dc6e8204df838fd25c7c93f3f50482",
        "js\/pdfjs\/web\/images\/toolbarButton-secondaryToolbarToggle.svg": "51172f2fa7c60db690798c12de1c87fff0fb1f17fcdb1112a1230c940d73a41ddfda2518d197869fb90d42900e594a0692c3517fd9768e06c2cd77454689a0ff",
        "js\/pdfjs\/web\/images\/toolbarButton-sidebarToggle.svg": "b71059ed3e281b89c65ef4596574b852735f24a460de5148ff6e440e44e8e0b12d81233a0e4fad2c8c3011d87a9a65ef4198d1332a8cdc838b231a5201e05b3a",
        "js\/pdfjs\/web\/images\/toolbarButton-viewAttachments.svg": "0d06eb3021fbfd19501e0a9749f865b34054928e1898f858c488ab9c1f6be325cb5a7a073bb6a66666763d517c09b7e21c345590fafe7da1c739bc68fe6c6f94",
        "js\/pdfjs\/web\/images\/toolbarButton-viewLayers.svg": "2046f108293a6bbc8eb8d490c6ffe78aaed596114b58ce6abfc40016b0451c5a2d52c8dd3478fac1e23bc9bba27074440dd6dfbc4714fa1674410fa8a28c751e",
        "js\/pdfjs\/web\/images\/toolbarButton-viewOutline.svg": "5d2f3864f2372f7f51e72fa79c6093ddda6335711203590e7c81470f838a7d4f487e23e6da543e1b14f091207482272ab618923e962b6d2509f1a528b70976c3",
        "js\/pdfjs\/web\/images\/toolbarButton-viewThumbnail.svg": "f155f08801e4a314f283f0e2d770e8db933ddc4d5aee418903c2f61733a384c7e5103a4e6cb41cdbee2b5fb98800eebcaf9dbf1915ab5ed922f62bc7c0d79293",
        "js\/pdfjs\/web\/images\/toolbarButton-zoomIn.svg": "9bbcfa26e8fea0034ab8d824ce2ba4030efecb2cad59cbfe91ab596b273b3b2fe2883b077c15a3c301f25edddac8d61e61b73dab1ce46d8a2024688541e01a07",
        "js\/pdfjs\/web\/images\/toolbarButton-zoomOut.svg": "de7bad24ee9ec5eea3d0c1425f8a99630e6fc1d99fe95176d4507439d77b5ff8cf09a6512fbe8f4a66bc212c5964bdb7f85168a0d55d5eae3bd639610c4e6f78",
        "js\/pdfjs\/web\/images\/treeitem-collapsed.svg": "431a731b2093b18c4b58710f98ef23dd77c1b68f1f1dcede7a55add726bbf90a6caac3df1254d2b65bd15c4690f13ef283b2e8cc957714fe8a511df7b7dced0c",
        "js\/pdfjs\/web\/images\/treeitem-expanded.svg": "450ebc9ab5665b2d92899598ab7bc36e0f9d3663f7903e76d38a7ad1c95da1da77533e72c1affbbfe40beeb76cc4b56a52f2d11ee0fa9c79e4d3b4e89d03f121",
        "js\/pdfjs\/web\/locale\/ach\/viewer.properties": "1943847883fc36ea229c5972aa7fbcec30f60e6231beba4041ac95de6bf748345060f6e9240f28a9226e659cc458ce311e6c7a7287b004d3a47300890b265f49",
        "js\/pdfjs\/web\/locale\/af\/viewer.properties": "d0fc7427bcc7f9e8fac87cb46518b6f18ce6ad9070b4f71c3ca203805e7fc6200f4cd2d3ef0cadfba5a0e2feebcaafbfe0abf6de8d64b0a156f3d4c8e5302627",
        "js\/pdfjs\/web\/locale\/an\/viewer.properties": "653cd0b65a014a400dbd1542c15c56bd2e6c523fa1ee3f06cf230633f006977f24b61efb7410391998e0e441568f2a0b8d3cc43710937b725a3ff59f19151bc9",
        "js\/pdfjs\/web\/locale\/ar\/viewer.properties": "6cdf804f2297e4ead014a9cfe1793e68e6292ede245687abd41899f087d9ef1f4a220298aa65fcd35930e32a5ec98cf8bca1cd4292b77df26a28ce556611b731",
        "js\/pdfjs\/web\/locale\/ast\/viewer.properties": "a28d5eb4086a23464482f0b5dbe0a3fa61ae6973382f40e26ae06de99ecb889ab6cfe971851a02a14959208814f5224d4fc3c7ff10d8bbaaf64d7bccec444556",
        "js\/pdfjs\/web\/locale\/az\/viewer.properties": "8d4e75a87755a71d7906018f2d526d69315b22c1ccbc2a0d89c400c38dc21c33e43d7f63bf799c0579c7f2f7d484e4ff31086a358cdaddaf98ae31e545324d77",
        "js\/pdfjs\/web\/locale\/be\/viewer.properties": "b2a52c9e66c58cefd6cb74013aa99fe352123d7e9d1424bcd819b728efbde51e3f93464553b359483b16b86d83d072a6082a2de4d6495f8c692b5da925e68e65",
        "js\/pdfjs\/web\/locale\/bg\/viewer.properties": "fe3769f54076daaca9fbfa1c66dcd7ced47dc333f5bcf002a38edbcf4cf8652db1c568a2fa31aa5bce55134c9361bd44cffe5be3fec0a99666052137d02e9037",
        "js\/pdfjs\/web\/locale\/bn\/viewer.properties": "da05c123b318d8663f0c690f08c70570cfae0f1829b18795b394ab4750c3567b8cad8b9d53b6f4b2dec981aeb255be5ef15b6a319ff463e1bb03273274d1aa77",
        "js\/pdfjs\/web\/locale\/bo\/viewer.properties": "e56cb31fa6fa530dd1bd3c23a1f4bc8282d7dd43c417d7be245d1a9870f8733d2f5d5420ea26c4ee895f647f2687929b4fac6963f8a3a6b6a9f34a189eb4b42a",
        "js\/pdfjs\/web\/locale\/br\/viewer.properties": "2f34aa05f8f9bb3c4ef8d516ac6cf70c56f5c9f916913a02e1eced0fb9142a87355bd97b6a37474de8a5530e3d75550baca169eb51d5305f81e943a5cfcfbadf",
        "js\/pdfjs\/web\/locale\/brx\/viewer.properties": "254429b233e5be27cffb4d71ab60a31ccd8f09baee97be07341c1d864286a42bedb682257275658cb5a6f1534ff6706e6ee5e6c26cdf534d797dc832a10086c4",
        "js\/pdfjs\/web\/locale\/bs\/viewer.properties": "71c99061d7b3014b4ad77b143b90b61175bf19fcee07810b7b01c7c6f8c158dcb4bc5b8976721f0835a53edb9d11efd0beaafd0f5cb27f62032d6e2b4d6b7599",
        "js\/pdfjs\/web\/locale\/ca\/viewer.properties": "8bfcf612abca1567d11bb5e41cf407b563f6e86cdfa99a6c540cefa316f18e0b45e2bae766e6f48719fe774b95142d933c00e3643ee712fb4691aa55c10e2ca3",
        "js\/pdfjs\/web\/locale\/cak\/viewer.properties": "669d2375095aebea27dc465c65737e62a2fc204e5d1f44987ac440bd986ebbde049e69eb82934b2f3669807e3b2baf5d591b56a59b294a36ce86dc6efe11f552",
        "js\/pdfjs\/web\/locale\/ckb\/viewer.properties": "43fc14bd5c43317f771891cba2aa5ca3beb6cf853cfbe28cb888fcb360b9cba68f25af0f9d14667798f424ab8252d6ac28cc339f41d97e72eab6bc1a2d24d938",
        "js\/pdfjs\/web\/locale\/cs\/viewer.properties": "66547203d5078e1badc5e334afc4767b2c22d5f465265583c82ac9791adc19777941a7f3b46191c19a4b02f337249ec895180d86123eda7c3db20bcdd8fe2f7e",
        "js\/pdfjs\/web\/locale\/cy\/viewer.properties": "8983299d17bc52d52b99f2686fab3b253d13990a58b76f7249753b3b8f85a62879244390ad18b869a916c9d3fa0be273f9d44275c978ba4c91e1930f12506750",
        "js\/pdfjs\/web\/locale\/da\/viewer.properties": "b3152d1c6cbde82b7da11bc850a77f88eb925334c061280b5f7585ec00a201f705f6f29d13d7af784ebda78daffdb373a55d57bd57c7f688d955fd71612a6e08",
        "js\/pdfjs\/web\/locale\/de\/viewer.properties": "8e8fb1ac1127373fe064015b6eb43a09d9c802ed82eb298e8d6f3e20dec529136c8f655382b63307893e0080c2aa051252c815805e986d6432c9b18471af9d2e",
        "js\/pdfjs\/web\/locale\/dsb\/viewer.properties": "97e62d4ec2c13fb16510bc12159c3829702f9407d839bfd103403327e541269a3435b86e0bcd0a55dee15c7e003adb6bc5038a05423dd2cb8a42e7e32734428a",
        "js\/pdfjs\/web\/locale\/el\/viewer.properties": "cc38d6d21445b0baf857af19341f0534b13354ada3b6455f8b25a1e262d70f2ab861af3f6ad22adb5c540d295df586f50848a2019928504825d4bf58de094b6a",
        "js\/pdfjs\/web\/locale\/en-CA\/viewer.properties": "bc7f5b0d4a441ab6757d6f34088e6041f85c9ad7f2b956531929ece1ad0eaf8031ade7c3405a833c1a62bc75d398433bf83c96cd9627e49859525804026f92f3",
        "js\/pdfjs\/web\/locale\/en-GB\/viewer.properties": "b1dcbc59ea6d619e46275abcaf2159cd14c5835f839b9abd4a10fce116d291b62becaf0f2a4cd40fa610160bfcfdae215b8063410e1bf2853ae601e8a9f345d8",
        "js\/pdfjs\/web\/locale\/en-US\/viewer.properties": "223cef1fe00b15c60d9179bce3390c6a8ddffebf9a8f50aaf0adba9478f31e7467bf720998b3a3fa8e4423fec16108fc8ab572335226398e20462208bb4e3d03",
        "js\/pdfjs\/web\/locale\/eo\/viewer.properties": "d0e293f3a7b0a8e0962b5d0876fb5cdfd8b07dfd403739d1e700e4a2e7089600df1eb82929ae0fa3bfab65d5704ec0b77eaed31578b0c1ede06517498061bc6d",
        "js\/pdfjs\/web\/locale\/es-AR\/viewer.properties": "3164a2cd529145f2585018f84da0234313b4dc446e2f5f593afff75d4fa30738785788787f12b2b772fac4da608f114c54e67fd4ab910c4ec7e7bd2ae8adc536",
        "js\/pdfjs\/web\/locale\/es-CL\/viewer.properties": "fa34f27dfe8b7d367bfc47c238bb6a0fd58a33adba451f8312f8fa94799cf9be3f123e0985dbac69a23d7f55f617e3c1c5c75eb6710a508bb5c2717c63ebad01",
        "js\/pdfjs\/web\/locale\/es-ES\/viewer.properties": "f359e900221648f54d8f6603197b7f2ad87b05a84648764b8b0ae509381c2d2ebb9301758cc1bd00c725f8016220da2150e79d80da470618ddb4128a14986d03",
        "js\/pdfjs\/web\/locale\/es-MX\/viewer.properties": "8355c5603bb2c4ec0272002466e090e5977d477bbe1b2ba2faa3fc6f358201ef3b7e3d25983e1228d70dcea2e4e206903a20c54ab441caa703f6a2f46ac9ad7e",
        "js\/pdfjs\/web\/locale\/et\/viewer.properties": "3362a2323cd76284f63fe327b0ed832272b057eed8f0c1b6d16cbed30005f14d880d629938f2c2dd8517710a0a735ad5fbba6859ae7aae33ccd89c3110bc8f4f",
        "js\/pdfjs\/web\/locale\/eu\/viewer.properties": "811a621f92b55635b409be45490bfff958ad8ccc5cf9b041db88871fe58c58a7b678f19fc650ac3b8aeb893d6fd462c5c3e859d017375d7535b8d14c413ecc3f",
        "js\/pdfjs\/web\/locale\/fa\/viewer.properties": "020520fbbbfb96ad28759b218197e4265d2f519f1b82b6c919c0a5120e8e8d152aa644dc21ea956fe0839e7a42adf6dadc8f512388ce6a100d28fe5a936f7d21",
        "js\/pdfjs\/web\/locale\/ff\/viewer.properties": "01abf1affe5cd15abcfbe62614c824462f5beab9ddabfe3e758dd094aae8a1a171e5bc06b50d618a6cdc1d8570c92732c09c43496b54c91eb845b986b112af4e",
        "js\/pdfjs\/web\/locale\/fi\/viewer.properties": "edc1c81c7ebb30df95c5299af6236c6e18f659f71d742b9d69f18e235c7a95c53d255f86580d9b4a9068387b95dcdbe03af42adb55f19ff01b23530e87ec1d03",
        "js\/pdfjs\/web\/locale\/fr\/viewer.properties": "8123784a04a26921bf80888922d705967e945488e79ae2d539939f79efe2b7487c64716c67db0af93d80646188acc050ef9e88050623f9fc5efbaff0813da0dc",
        "js\/pdfjs\/web\/locale\/fur\/viewer.properties": "366fda4debf7926d58e90bfbac5478a74c2895fbf3b5a4c3666696544c49937173706960ec952b329178cd9a52ea537179031c873fd5785b43141e830b5ae719",
        "js\/pdfjs\/web\/locale\/fy-NL\/viewer.properties": "6a841b25f8d6dbe3e527cf7c442667e3007ce9642ee07905a6de59bcdcdd38af3376b33235c777f91a14f15acafa7bec9d7c61fb3ce95e220117eac7455f6175",
        "js\/pdfjs\/web\/locale\/ga-IE\/viewer.properties": "1f2d7e6aef65b0b1b7d597c91fc9497250fd5e64b5b6a05823964d12b40d3534a7f900822bd2685f5a915ba8a81b20a9574372e0968f0362cb6b62facc7444c9",
        "js\/pdfjs\/web\/locale\/gd\/viewer.properties": "d87b2aedbea87955b0e1986f60450ef0eca9a8c9dbee5d64795b926e96353f7ab3c0bccd135c447d277a127d5644519ce61df76201b0adf6822ce5d33f4d788a",
        "js\/pdfjs\/web\/locale\/gl\/viewer.properties": "444ebba15a97a4d3b69c7a3b6eddbfabe69979af8ef5a857cf8319b5868791bb549e690c823739b8f153a9562e192b3184c9791060f1be61aaf98a315e63ef45",
        "js\/pdfjs\/web\/locale\/gn\/viewer.properties": "899d3c026fd78cd71021e24376ae51e21210b1651107b8ac8a125f7a60655eb874ae25bd52b60ec9569e249adf880d8e1ea1697a316fe671309db40ff2060539",
        "js\/pdfjs\/web\/locale\/gu-IN\/viewer.properties": "f798bc001b9fdd7a862c78f9abe4d6b5bb628286a836ec0a28ea90692012439086d0ed67719cc5685c2b04f84c30fe346164819d1a4a06c3c87bb2b770c2ac6f",
        "js\/pdfjs\/web\/locale\/he\/viewer.properties": "c09e25a9939b878126f54f0f82704e8836e99fceb00618f7b7ee5f222e3fef09c3912d45429974045e3c5e8bb42947f3abf695cfd55a5983de1c1902c685b1ba",
        "js\/pdfjs\/web\/locale\/hi-IN\/viewer.properties": "2a6b7e84a231cf80c81dcc5b15f1533437b6c0d20fd576a491d9f162db048b280a0a876c56692790a208b4bfa4adacec17444be712299edfb7d3a34b3a4b232f",
        "js\/pdfjs\/web\/locale\/hr\/viewer.properties": "2a15689f4d6ff02977a997c3ad5cecc5f4916a686589a7b7cbdf2698687e49fb706d29abce68f46824df91c130799550fa360d8e220ece5968dab8843e44da45",
        "js\/pdfjs\/web\/locale\/hsb\/viewer.properties": "a1176de10644cb2bc4c853292fd3b87550fdd5c9442de97724152803bae68e7d75aa503cf09654fb472a8add448bda5c819385de2ede81384293b643c9ed6260",
        "js\/pdfjs\/web\/locale\/hu\/viewer.properties": "f8ad8ea4728842da01cf0451ff31961dbd3c6f3e7b88fde6f988847990cfb467f5d29e7f4d3addf01a89459e3ab60322d05737df8b01d832f567fed5341492de",
        "js\/pdfjs\/web\/locale\/hy-AM\/viewer.properties": "4a5ba6e3c1b8a446d0ada9016fc9bb038e5a7292c8eac8cd5d1a286826ce821ac5f2a9d0cac6e4d4b601dadece1fb4e9d21bceed393a6e034f32cf3b090550e8",
        "js\/pdfjs\/web\/locale\/hye\/viewer.properties": "19ce8188e23fc4940c24f9f4ec054c238b4ae317dd4a4ec62f32f206184615b6ba23926a5a9434dfc25a853d4a96cb5c0c2a34afa39df0a6b549da667a68da54",
        "js\/pdfjs\/web\/locale\/ia\/viewer.properties": "13bc13e5016af539623f2efe11a75151edde97c41909ae613490e9d9beeb364cbe458ea026f6f70bb6c7d2444f5e1ee9e425bd35d8ab5b10d764190265334fe3",
        "js\/pdfjs\/web\/locale\/id\/viewer.properties": "8ed6e7e6b381fa4b0ff8a951791ea4046d2b9755e801f0b35838c95d27c372d7f06fb053f75e8e76d81a4d3f510952aeb013cd6897b8ea6a6aa7838460c0d1b0",
        "js\/pdfjs\/web\/locale\/is\/viewer.properties": "f3f2f264a2e0767e843cdfec7398dc540c699011e7937dbc15663bc2e4722704337cde36b5298f8ee1d059b473b85b5125e231e0d6a1dcc16b1e38dcc9f8b456",
        "js\/pdfjs\/web\/locale\/it\/viewer.properties": "59b07f9ffd698b419ad590e3a32cbb14b70a2f4c9f4df8bf8d3c54ac0459be76476c8154f43aaba1ff97b1949333d122dc57ae5d96ff274ce6624ef78d1222db",
        "js\/pdfjs\/web\/locale\/ja\/viewer.properties": "129383f780ea4c9a70fe609c1cb0732862fe2e38761c9d5c041ba1dcf029a4f23b880acfec2115300bb0cabfabf1382399f23fcb112411cb835d690053ac2e12",
        "js\/pdfjs\/web\/locale\/ka\/viewer.properties": "efbda4f1c101f705c3c8fdd3e7ee3775c6a09f755a6612fdd337b5d466e0f5b678fc59aa5e79cc2a56a8cd562819496198ea06ec583bd9e654ac506620813171",
        "js\/pdfjs\/web\/locale\/kab\/viewer.properties": "dc9cfdb9e6ead86282f838d730e78ad968368f4dddedba7255d56229208cd5aab12268db89faa5e4f51e468aa5e8b778c337706d43ae98523e4d6d998db4fda2",
        "js\/pdfjs\/web\/locale\/kk\/viewer.properties": "a485a38f35bd16d04bd7e84918026314749aceb0e7f68850820e3835d7a3f35549ddce086d4cfd7536e906b93c9b069c45b49c2d4a5ebfa8ee1717798d4bfc6a",
        "js\/pdfjs\/web\/locale\/km\/viewer.properties": "3e58bbb148572eb90502f72e4e660197815f956a763a90a9d18dc7c6ccb61321e92f6e192cd18d1680b6e7f65d3d84e384d2980a6af03f3c455cffa5a7982948",
        "js\/pdfjs\/web\/locale\/kn\/viewer.properties": "e66c2d5b172dea19e6c218816d341ebea670f931bb563251c14968f2981fcef43af20c2c8ab594d4a33577ca6472320d6d169c194d099b42479ca287026e890b",
        "js\/pdfjs\/web\/locale\/ko\/viewer.properties": "4be2aff8afb62098609d91f9c33290ac8dc6552e872b4a17e775041f2605aa9bfae3600a18d48067f51b1c428924b004de88ca07947eb8fc29914f73ceaf96bf",
        "js\/pdfjs\/web\/locale\/lij\/viewer.properties": "767cea62f79fd37a4e99e729e37f9f8cf56a13360a404bbf36596d984c58a7fe504e5ddda0e31d8eac9585eb673e9f431e2a84994286d70d46833632784bc2a5",
        "js\/pdfjs\/web\/locale\/lo\/viewer.properties": "dfa18bdd659324c1049481e609a74f136ddb67de2b7309790eccd4d7a6e6459c224a7995b55fee01bf1c5ff337f392f38e78a1ed129425b05ece52d4d90d70ab",
        "js\/pdfjs\/web\/locale\/locale.properties": "0a552a00892dc513cb2a762d6682b1cc892ee6947db7abbc4412b2cefeabcba2b88aadac0c04876dc6118c337fc2ae767d955941e58bca32be9f7d0fa9468bba",
        "js\/pdfjs\/web\/locale\/lt\/viewer.properties": "07d147d68674b096727b4508a79ca145c5b5d4572aaaea9675e2282fd07ef09e9a762e1c083566a80a51355994e376c55607c4f4aeca9a1b0c2437a7dbd4c9df",
        "js\/pdfjs\/web\/locale\/ltg\/viewer.properties": "981c0cd105545502dc931db7346cb4b753ee1ed88963aa1b1b73f7f65d5d0f59d8f53169a582b2e486dc0440f9d91fba37a51cc83318f051c3093c061bc6782e",
        "js\/pdfjs\/web\/locale\/lv\/viewer.properties": "7b78c2050e14c7e3e0b4844abedddd4ae501b48c19dc3848b75794c70212380d2d8ac9ba651845e21a546611999751ed2e85f3413c5cb80213a84ad82166df6d",
        "js\/pdfjs\/web\/locale\/meh\/viewer.properties": "c50e60249b54e56a67833ed5a43cbd62f69d84813745de566167d8c5400c69511377d1c58435d507a72831481687026c4402d802a1833486cb35adcfbc8b8bd4",
        "js\/pdfjs\/web\/locale\/mk\/viewer.properties": "787ca33291e727ac913b1f7fe9b49e27e16cd2e8832c1c931d7c293f2ade755059f9f1d924e4a86d1be9b87e33e3f1c918e0888b66331716259265f2fd229318",
        "js\/pdfjs\/web\/locale\/mr\/viewer.properties": "8240d5323bb82fe6c81a55e9bbb768b0eee10e10091cfbbe78ba359199c87ed9fe96a6c606953065143b7c61e829251a5cfb933d0ce9be46f3b25f0d2a3b87a1",
        "js\/pdfjs\/web\/locale\/ms\/viewer.properties": "c2ca3b35718be076fc398388c7cba3486347ebf07e886941251de3d2636b02427f735aeba216a4e42c541c50771eeab796f25fea2b3e43503056de575886c25b",
        "js\/pdfjs\/web\/locale\/my\/viewer.properties": "a69528e7c0a231c93a6c83c81f84385d8e81e93547033e92bf04f60a36909726bb8bbb7551ee297ed78f8697c325a7f9b5ebf9e4c17a37d6386775fafcd870de",
        "js\/pdfjs\/web\/locale\/nb-NO\/viewer.properties": "ce276c3bed9b43a5c5df94940f25dc3992d5d3c480b74aa0b818509fa7dd8c201e2fdda7050a815b437e0a45d7054ab4cce35aae85c18f37bdf2b7fcc4be1339",
        "js\/pdfjs\/web\/locale\/ne-NP\/viewer.properties": "a7e91266f6e077b5b23b00f066d7ac8a8af55b064f77b9c5053add6e7db0b11f0fb211ee2c8ad8dff590debed9a8e5aff01d59b2ecf69ed37720a98989fec862",
        "js\/pdfjs\/web\/locale\/nl\/viewer.properties": "b36af63604fdf034ac2f066c912fd41d6c5c0b29cf57f2eee2019c58287c5875c21488a1224d49ded44f24c036c8817f963e01c34ff492fc0b36397f6671991f",
        "js\/pdfjs\/web\/locale\/nn-NO\/viewer.properties": "9498905f9f4c11896767f8953ef522f25e854c5b3f27f912e49665e8d99cf556fa5f9611a538a7a0d339af9c6b17acdaec10b6ca97eb36e1098e74610a84ae34",
        "js\/pdfjs\/web\/locale\/oc\/viewer.properties": "c2c57e860ab76162bdd4c8fe3d2d0574c14a974106f1d3da18553dcddefcb5a821d66d45885b3525d72b871c0b30d1347a548cdf170ee3038d6e8fb1b8204ac9",
        "js\/pdfjs\/web\/locale\/pa-IN\/viewer.properties": "6b702f9457cdce25949e9e74d1154b6d373e2585fa0beed177cb54e0102c68fc9edd675b6ae8a339b319f7c245ab8de5462889fe6ac55d40cb6ad7c381ca13b3",
        "js\/pdfjs\/web\/locale\/pl\/viewer.properties": "40b57ec77b95b906f699aebd56086a8beeecc76e4e8c477e7d6599a0e52f3958fc768c2783e85c463eab6ce0dda9c7e3f0f6eea80acffd6e4f8a7c4dc858e1a1",
        "js\/pdfjs\/web\/locale\/pt-BR\/viewer.properties": "640f6730324c0ba6ce59f2bf95995c363245f82f32b07feb0a672ee28da285872dcc85d59e101c746ba816d70405bdfad45aecd36e84c51906a7b0b0f7ecf7bf",
        "js\/pdfjs\/web\/locale\/pt-PT\/viewer.properties": "c57f1d39f95faa77b45499c2d8455f3e73c4102a71d045779b229dd99eadf49a1ef16bba3fe967bc2899dd572e897eb9021588af5a3020ed2a6c9c3e2a7166d0",
        "js\/pdfjs\/web\/locale\/rm\/viewer.properties": "2f63587bb16ffd57aba8077e56aff81ef3c432fb789568202ed9e8f5e9e99053fdc6ed7fd35c833678251ee9ef0105d4c4117f30834a1d2995d198d8c0dfb2df",
        "js\/pdfjs\/web\/locale\/ro\/viewer.properties": "9cb2f3859753998bf6c8d51adbb3542a3e816594a9aafd8558886c13a9b9c3ea3e34c71effcfa2f5e745d784ab3907af4be42c66a9da450d8e5edf60aff8bf2a",
        "js\/pdfjs\/web\/locale\/ru\/viewer.properties": "26976535df055a3b93c1570d817f8bb9625e7dd0aae9482b03247ff6c021a15315363b618ae0f67fced310f5f4cc4ba3dbb9cbffeb83a1ee6cf664864d37ed7e",
        "js\/pdfjs\/web\/locale\/sat\/viewer.properties": "c31c9b3be42cf5f060923bf5ab2f9d0d12872c1faf6002635028ca9bd5c5514ace77e0bf9ef1d715d55b68249439ade3139ed1cc3b7b3344692b43184bc1eda7",
        "js\/pdfjs\/web\/locale\/sc\/viewer.properties": "ca1810be3b16b75f1278a1375a89e29da92e3114c376c23032ddc9036f74bc5fa9a6ef29849a779dd1ff8a676879492e56f5fea42eeb8186a8bc6efa9e1405f4",
        "js\/pdfjs\/web\/locale\/scn\/viewer.properties": "a8778910f17dc6fb194bdcc779fa0078cfcf3708f72fdec72caed257b7cf070e5c4daccbc1e77f1371331f670727fdbb607d4e666092ba06cc403699933310ea",
        "js\/pdfjs\/web\/locale\/sco\/viewer.properties": "6a9f6edb613191af0a90c3cf70d2f59b9d5909a2253cf251b93e3229a63f267386b5b750a63b50aa24b2230fc8bcf5effdce7e7126f0f6ccddc7cd32967a719e",
        "js\/pdfjs\/web\/locale\/si\/viewer.properties": "1b1325ae0e4096d83bec0b34235355cd5d74760d23e60b85bf0a96c06620b8a430174e6be250e80e990b7020027d8744e2e6f9430989d8ae3c38a27983c8cb6d",
        "js\/pdfjs\/web\/locale\/sk\/viewer.properties": "7fe1f273384e89e819630fdec503ebdd111a0d52f83fd068566814d1716c423e254c66001fec0776b877d0e4e759c4fc541c7827f62a22585f836e30efb2fc56",
        "js\/pdfjs\/web\/locale\/skr\/viewer.properties": "fe79e718470b3c06c14888fe4cedfa5a32300aa9d2bc8ca649bc1e9f57cad7305de0596bbc2f2849320a3de7384d11e4fd6584f37c194f36d7ccebf9782c52a2",
        "js\/pdfjs\/web\/locale\/sl\/viewer.properties": "46a9ba1e18f31adf1a2bdf1375e9380bccb4ac0acb08a4343870dc5e743bcfc12eed20329b3843185dc481c3b1c6ac721ce05a5a81d8b9a17d8099d9d30faa73",
        "js\/pdfjs\/web\/locale\/son\/viewer.properties": "0b98338909011004425b116e35ba4d3991ba435cadb47303c6c281c124d41be3303d04e3d061403e28f04eac8b8cbb100a9a63f6fd8084f7ec05f2fb997faa51",
        "js\/pdfjs\/web\/locale\/sq\/viewer.properties": "2532bf5b5b3c25c4d40544217d983000ef01b5222a73f58e7229049a0a241c70987b08065fd36746bca733df40b5593ec2ba061a390b9fc62542ce6801c69738",
        "js\/pdfjs\/web\/locale\/sr\/viewer.properties": "57e955eace045d437d802e54d8c8eb9d78e8e1713401d975e4cb579ef409f8080e3b5b55c17d3b09ad600cf6164d62300e7b15927832fab011ea294097d1af94",
        "js\/pdfjs\/web\/locale\/sv-SE\/viewer.properties": "a155126302bbc15418ac156a6ef608731b85fbc129d8434b7b9d0becdfce9f8236a42878a32d2c81dee11cd7dd5f3ccdc358eaf8bb8c172b3fbe7eeb95629bba",
        "js\/pdfjs\/web\/locale\/szl\/viewer.properties": "f88cc915d993092511477f5563dfb3eb7888a3257b38d6abd734efa4ddbfadcf22397e2389e230f383d3f1817368beec8d3bb191df1471983be36c6514e1d6a9",
        "js\/pdfjs\/web\/locale\/ta\/viewer.properties": "3e834b0500e843abecd75fc858a25e88104d3f5bd5588cfd9be52c0557df39522721427c8ae878033554522be27feb1d3cbb25e7fb0d95fc7bb048b1ffcb00eb",
        "js\/pdfjs\/web\/locale\/te\/viewer.properties": "1bfd49bfca1be80f577e8a3a4a3ab54bc3a64efa18b3447e866a0c7d8cabd76608be5c89204cb9052b098cad641130ad3f932df521307b67e4063269d677d196",
        "js\/pdfjs\/web\/locale\/tg\/viewer.properties": "02f29689880768f493f4b0d6815f48059fe8e16e04287d283ca3009e76836b8da7dbb07ad99b34d2ccb1b2b6877f72427253dfb7ef126a44b32fc54097ab7b9b",
        "js\/pdfjs\/web\/locale\/th\/viewer.properties": "17c5793162416c264d9491b6027ddc29b570f3e63e95fd521536de34df689ed04cabf83bf56aaeb42e761d1a437184f34c13d26cd7bccfa936a5c2b16deb5025",
        "js\/pdfjs\/web\/locale\/tl\/viewer.properties": "e39b719a2f51e085b0c89ce833d2beee209788a47df592aa4323251a9bf061a2250a488244b2339023b76ca26b1bb64d97f212231ee4cec44042e7b1155bf81b",
        "js\/pdfjs\/web\/locale\/tr\/viewer.properties": "32f666a3d463af7a4fdabbead978c84eda9519f65a87eac0f03db49bf468ec93f5209a6e7f0f7eee4d3c4178ac72120c1542fb28c1e80f1b8c29acfc84d550be",
        "js\/pdfjs\/web\/locale\/trs\/viewer.properties": "91d3381904c4fe07ade39411bc111758f77d3ef118a52cdd8e95516058d6fc6d4bb0fe4008d705d21da2d5773c09e002d4d71741935c541233d919337373b565",
        "js\/pdfjs\/web\/locale\/uk\/viewer.properties": "914a2c47434f7c569489d1106d8358959bc0af99bfbc499aabd4a8f720c74a6d33dc568ead95d596ae4da1b24a4b962cc4a02f9d632366bd0847ce899fce929b",
        "js\/pdfjs\/web\/locale\/ur\/viewer.properties": "c31dca916adbe1fe371fbee3a94b48fc1bc1ad189dde76946e8007d891a73eb5c3ec11ef21e682ec72046327e028714f2c0bc93a905a83cb6f4b245abc91d44f",
        "js\/pdfjs\/web\/locale\/uz\/viewer.properties": "2ee1934d2104bfbf60bbd4034f004b0cffeda2e84df03dcb9a80e2aa4e349b2291fa9c5a14b9de480665e815a25bff469da65c29f614dd702f92c7f3b7b1ce00",
        "js\/pdfjs\/web\/locale\/vi\/viewer.properties": "cee76ee592a124806d13211fa836a68f27f648d48c56bdeae1501425d3dd80c13879f17eeaa1fb0fe97903efbaf1ac2776b930b1d6b78e1d444695e0966f7fd3",
        "js\/pdfjs\/web\/locale\/wo\/viewer.properties": "c2a762abaf2ec4841c96d03c0b380d16b5037bc911d4342fcc99d9f081d43f3add654d279851e41e827becd765cccecf5424741942ec0b29b4383bc8ab00b55a",
        "js\/pdfjs\/web\/locale\/xh\/viewer.properties": "c91fd054f7ebfa33e94014b72c2b74b4ae73e20561b33f65eaa510111cfe84743c5645e26742342568239f904c9bc4ed3911f3d92126459bc7d57066843abf37",
        "js\/pdfjs\/web\/locale\/zh-CN\/viewer.properties": "60d1ea8edc8fce7655bea94885cee2d85090d8dc28b917ae388d545c8d5b87319cbf9727b1d4cbc2dce4e380f71b9bfa7a25250a4cb31ce962c60ab9a95bb94e",
        "js\/pdfjs\/web\/locale\/zh-TW\/viewer.properties": "dca89355c3becdfea26bb7f09ad549129d03d1d939d04813466e47fedf940ed9c37ed4d0f46150c559cd98bd22d6e52066614e445bb3b1e4071b008135e9c3d4",
        "js\/pdfjs\/web\/standard_fonts\/FoxitDingbats.pfb": "9258650d1f0b99235eb03934ebb4738102d758d5c9085dbada6908110a2421fff68959b9d016b50722f87214d0abc7a5cc0bb7f0f910c4d9772c5713258e0b11",
        "js\/pdfjs\/web\/standard_fonts\/FoxitFixed.pfb": "a3947f286bb9663f3184fb3e8e88a7926c33f265d23a5671d6d345a89df5fe3770c04fdfe934e2ea165adb46e7b38495aacf5372845c98ca874af6cc29797a2f",
        "js\/pdfjs\/web\/standard_fonts\/FoxitFixedBold.pfb": "e939ef4ae7307c35de955c3419f7e2d747248032230edd467b5180099a41f9ce4c6eab4ee75a2ae16d22896061f22d3be7510ca561685a4ca59b87ea36bcc7ad",
        "js\/pdfjs\/web\/standard_fonts\/FoxitFixedBoldItalic.pfb": "13007f034fe70b49fcf87e16ff7dabcc992dfd6b98f7c342c9e7bb5087177c8366d2e196780d0342f0abc7da692a7f3ea0374b40ec889affea80ffdfba33cf14",
        "js\/pdfjs\/web\/standard_fonts\/FoxitFixedItalic.pfb": "fe6838115dd46e7f618fe7993746aee7552d73c4803ed654d4917606291ad09eed27fdb8261f36c8724c6a5b076f4674254ce2937a6e95e87a74808cb569ced4",
        "js\/pdfjs\/web\/standard_fonts\/FoxitSans.pfb": "e0d596b973f614f02b85fd21cdc581f9b75502d0db7398609b3a3c2d6acd72d9f74c2b5cf8d7c3c9a91f258b55a47a30bb397d0b6342f478b91561cb72a51382",
        "js\/pdfjs\/web\/standard_fonts\/FoxitSansBold.pfb": "b2abf5d0852281e8041ba7427b5dcc3dc194693b8d2560a078ba939b2dc339fe95cf2f4a7cd9355ada9c471ef0abc917612ec59f5e9e85b2b5b5ef9d28782a8c",
        "js\/pdfjs\/web\/standard_fonts\/FoxitSansBoldItalic.pfb": "f82248e340a1009aeb71e253183635b71b450e6ef58c1f40c95978f6700605de878ea8b5612ba33ff1f0a91843f946b4013f1cc2647625934f71972b0806b218",
        "js\/pdfjs\/web\/standard_fonts\/FoxitSansItalic.pfb": "a062924df52eac1d33ca4f02e8d146c16464b8201ae633677dfdc4ac62722426fd526b42797059a4f9d1d9eb4e3f30ad11033a61036b769fa2b4e2a210289c94",
        "js\/pdfjs\/web\/standard_fonts\/FoxitSerif.pfb": "8af960544502822719213a54e2ec1aaa87809ec3e5060766b217fea9597e7743315334e5224be5551ccbf3e059ad9e2b1c25585349234d99e5685c3ce43a1046",
        "js\/pdfjs\/web\/standard_fonts\/FoxitSerifBold.pfb": "8448fed3feaa1507653420cf6c0181f7ffb69ee0261e7957c0dd71571a11dcd2fac55060f63965cf601feecbf1c088036ac748030cd5df01203b1036245e241a",
        "js\/pdfjs\/web\/standard_fonts\/FoxitSerifBoldItalic.pfb": "f4c66de2d8beab861b24c200c5509b950b82339ca2f31adaca08073b66be2810c9ada3eda299ea7d32bc7b7d9983054929d0d8f51c573c517c2c8e868e148c0a",
        "js\/pdfjs\/web\/standard_fonts\/FoxitSerifItalic.pfb": "270c4e4e808ac8ab900f334b0ecdceba495335b3bb6113b12d337dd416aa0e84726b113c6d2ff86c54c79c0bf793e043d511cc4b36f77f345e80d5b0b2f917ed",
        "js\/pdfjs\/web\/standard_fonts\/FoxitSymbol.pfb": "9765e4bf192dd7669fb7e009f8edd381943941e0ee0fb7aedb5910f6120cb2045bbeaab160679a2bce4fecc2d446f02ce5460c78b908704ce83263eccf913fb8",
        "js\/pdfjs\/web\/standard_fonts\/LICENSE_FOXIT": "3f21463d1a6e109596ea7a884ba739cc89daacde70eb991a3c5bd8560528a5d720af5603ea1d8abd2927c4cf0de5164ea40cd3a07df2626d2e30b9cdb0c6b3d5",
        "js\/pdfjs\/web\/standard_fonts\/LICENSE_LIBERATION": "c096e6f07d4371e9f5bcaeebba7f17bc8fd964b17487be3b3706d14b34da15cfc70c30a34b3de34e09a4d5cfebe7569df013af120bc9affe300541d82a89d899",
        "js\/pdfjs\/web\/standard_fonts\/LiberationSans-Bold.ttf": "4790b0b1a70810f54ba0a25020014dcd7335704425354951b603b0049b0b13570b97db0c2b815fb3491926f15b89baf0765c4e26d6d6791687e0f460651e7047",
        "js\/pdfjs\/web\/standard_fonts\/LiberationSans-BoldItalic.ttf": "7a05a090d3178327034f48065f5a09aea5f659b359698cb5a1d6e3454365f46c7e70ce3a8e9ac72f89cc224e5b572c14af6a94c1c9497f0bd79c2ad95beb9f79",
        "js\/pdfjs\/web\/standard_fonts\/LiberationSans-Italic.ttf": "10741bab9b4b3b60eaa173f4f2c48e8a100b09228c4227bacf0b169e9782c2ad89acdd9395cdbbabd5695ce6c208af4dd205f651395e3e4cabdc60518a52cd18",
        "js\/pdfjs\/web\/standard_fonts\/LiberationSans-Regular.ttf": "8f7f98e67671301f929df09d70b6b01eb85071891b585d20f00b3b40399f982cc52e9469593a949a7ccffc01c04c5a55f7094f8503bca8522c487a869cca9912",
        "js\/pdfjs\/web\/viewer.css": "845fa568130ae3a1cfa97790fb3c310242aa8aff8c77033782d9856774cf7a928a8f73b6bede329cb4c83255358547403ba6fdc34915954f94357f89648e9b1a",
        "js\/pdfjs\/web\/viewer.html": "fc6d94b8ae420d0b044da5758b4b178836fd868a3f491ec7c55abd824082cb25808755c0351f80d33723601b7aacbfc0b56d40ae06a63aaaceafe17b77b9da62",
        "js\/pdfjs\/web\/viewer.js": "84572f0d53f48607953ba4ea6b3e877020a6deb2284b33068746b526b50fd6efcae68411197ef80fbe45a7dc82be0ca9d77f730a02f3e929bd9be7455356b407",
        "js\/pdfjs\/web\/viewer.js.map": "987ad4c02d5b1f248c12e2049adbfe07d32e46bd3dc7ed3b138b9552afdfbb20a98490196970d6bd132e41c4d25065d37dae43da5917f6249a2f673bc9db0316",
        "lib\/AppInfo\/Application.php": "90b80f48288cd24d1cecbd6b11c48cf45942757fe85ee2a58a95ed6753f03843c21cda4d0fa8df1f3af0c0d2c38a582b8a8963e6888cb9d879101144e0e285f7",
        "lib\/Controller\/DisplayController.php": "e1134bbe01f12dda2e916aa3862303d6bf3dc0a9ccddf45ace05c81cc07cf8893ec824240018a35672fd1bd51b040aa1eb9e056556695737e413a87fde693ca4",
        "lib\/Listeners\/CSPListener.php": "3c91c005de48626975c59b351b87def724f82313a9eb6ee030875768d55916f97eb40c9f406e90fbeedf58d70504f8f4d476b88c5d69770b27defe9fec5c0229",
        "lib\/Listeners\/LoadPublicViewerListener.php": "94a74e5c98fdd991346067b220b326b363b597da7e6bd6f08d0b590bd28e8e9198fece3c3e71a3145fa7687e7f14e71ca6ddf228bb01595c75ecc9562d51048f",
        "lib\/Listeners\/LoadViewerListener.php": "00d19d9afd8b18c55f2a070517ab7ec22a3a06ea382254017ac3a0dfdda3a03d2485ddca441f18a420ff6c8670a1881a9d0b9a12da46ca715c760046c6b72ce9",
        "package-lock.json": "03b93aec7f11ca827d8e3db26795c6734091683e67e0a7a2a59fba0701bff9014c167620b313477bb275ce811f95ed2a6b637f091b4816400c70d0ce8e992e87",
        "package.json": "870e2a94753e27c8fc0e3d6144e55013e38e40448280b141c6e60911dc143a47485fb59c10dcab40ecd105759b41cb81c6372bd3d998239f026547c28acbfebb",
        "pdfjs-get.js": "7dd6abdf763e90af470e35bd0267ebfa18daaf3f97f25f8c46efa3575a12adea71e2e6501c56cb64291a2d9c2d27f226369b2849f05de103fd8c8ec25bc0b430",
        "templates\/viewer.php": "aa3ee8205aabd7776fe96a6d1771f232ca4b2bd9878311a616409094aa87ffe86e0e190f21c739d9ef5bb2588a6225c74d7fb98bd7de0b83e0fe326046a49217",
        "webpack.config.js": "5bcb4bfd8291b7b268f6d1ecd2047a15f3e4582aedc9d77ec47c0caca599c65f24b55055ca3b46f102c3d8a909780205e42c45cb032c12620820a8f24a042895"
    },
    "signature": "WvC5zmH+9cZdLw42H3eI0OwRDdiMuF2Ho\/8+9R7yUJeloymtoRnRJwM9Z+q5AcMD4WsC9cUFtmC4maaCRGpMCWlHgUkHG0KLQzB1lo0bkTplOXtFqqLb8WYVFBUO54D0y5MfBeMsSjCfgjnzTeTQo1TI4w\/75diKC6TPnk2CwVnS9cBbMZKxOYijGKcRTZSSNqG7mTqFKhoW6guBul3oyUzrx3chl8Q6TJBgPK2z+jQADuNAmU8+jjZhDK3ZVXXtLpnKGnLqS6fDJAExo7HfYWfJo2dccvpdYeFzQwY8bwSQiv4yJv8G9sxpOGrcCz6kr1fCKSu4HzZYwan5Oss\/ZA==",
    "certificate": "-----BEGIN CERTIFICATE-----\r\nMIIEojCCA4qgAwIBAgICEAAwDQYJKoZIhvcNAQELBQAwezELMAkGA1UEBhMCREUx\r\nGzAZBgNVBAgMEkJhZGVuLVd1ZXJ0dGVtYmVyZzEXMBUGA1UECgwOTmV4dGNsb3Vk\r\nIEdtYkgxNjA0BgNVBAMMLU5leHRjbG91ZCBDb2RlIFNpZ25pbmcgSW50ZXJtZWRp\r\nYXRlIEF1dGhvcml0eTAeFw0xNjA2MTIyMTA1MDZaFw00MTA2MDYyMTA1MDZaMGYx\r\nCzAJBgNVBAYTAkRFMRswGQYDVQQIDBJCYWRlbi1XdWVydHRlbWJlcmcxEjAQBgNV\r\nBAcMCVN0dXR0Z2FydDEXMBUGA1UECgwOTmV4dGNsb3VkIEdtYkgxDTALBgNVBAMM\r\nBGNvcmUwggEiMA0GCSqGSIb3DQEBAQUAA4IBDwAwggEKAoIBAQDUxcrn2DC892IX\r\n8+dJjZVh9YeHF65n2ha886oeAizOuHBdWBfzqt+GoUYTOjqZF93HZMcwy0P+xyCf\r\nQqak5Ke9dybN06RXUuGP45k9UYBp03qzlUzCDalrkj+Jd30LqcSC1sjRTsfuhc+u\r\nvH1IBuBnf7SMUJUcoEffbmmpAPlEcLHxlUGlGnz0q1e8UFzjbEFj3JucMO4ys35F\r\nqZS4dhvCngQhRW3DaMlQLXEUL9k3kFV+BzlkPzVZEtSmk4HJujFCnZj1vMcjQBg\/\r\nBqq1HCmUB6tulnGcxUzt\/Z\/oSIgnuGyENeke077W3EyryINL7EIyD4Xp7sxLizTM\r\nFCFCjjH1AgMBAAGjggFDMIIBPzAJBgNVHRMEAjAAMBEGCWCGSAGG+EIBAQQEAwIG\r\nQDAzBglghkgBhvhCAQ0EJhYkT3BlblNTTCBHZW5lcmF0ZWQgU2VydmVyIENlcnRp\r\nZmljYXRlMB0GA1UdDgQWBBQwc1H9AL8pRlW2e5SLCfPPqtqc0DCBpQYDVR0jBIGd\r\nMIGagBRt6m6qqTcsPIktFz79Ru7DnnjtdKF+pHwwejELMAkGA1UEBhMCREUxGzAZ\r\nBgNVBAgMEkJhZGVuLVd1ZXJ0dGVtYmVyZzESMBAGA1UEBwwJU3R1dHRnYXJ0MRcw\r\nFQYDVQQKDA5OZXh0Y2xvdWQgR21iSDEhMB8GA1UEAwwYTmV4dGNsb3VkIFJvb3Qg\r\nQXV0aG9yaXR5ggIQADAOBgNVHQ8BAf8EBAMCBaAwEwYDVR0lBAwwCgYIKwYBBQUH\r\nAwEwDQYJKoZIhvcNAQELBQADggEBADZ6+HV\/+0NEH3nahTBFxO6nKyR\/VWigACH0\r\nnaV0ecTcoQwDjKDNNFr+4S1WlHdwITlnNabC7v9rZ\/6QvbkrOTuO9fOR6azp1EwW\r\n2pixWqj0Sb9\/dSIVRpSq+jpBE6JAiX44dSR7zoBxRB8DgVO2Afy0s80xEpr5JAzb\r\nNYuPS7M5UHdAv2dr16fDcDIvn+vk92KpNh1NTeZFjBbRVQ9DXrgkRGW34TK8uSLI\r\nYG6jnfJ6eJgTaO431ywWPXNg1mUMaT\/+QBOgB299QVCKQU+lcZWptQt+RdsJUm46\r\nNY\/nARy4Oi4uOe88SuWITj9KhrFmEvrUlgM8FvoXA1ldrR7KiEg=\r\n-----END CERTIFICATE-----"
}