{
    "hashes": {
        "ajax\/download.php": "1d192b4d8ad96501c07f34316fcea5a1fde6d664aaf35426f93e630505243e207a143388978f63869e2d4e1905603e3df5ba88fc7a5f47c8c715bb6cd08430f1",
        "appinfo\/info.xml": "9a7783f265019fc55878c20b720d0a3ab8bd9c355d3dbfbf695dfb42691eaa8150a14b673bfff9aa3a7cd42d1dbeeddb2dfb9458264370545df6246d479e5449",
        "appinfo\/routes.php": "c20cae1408ce2c918fb5a7ad02345c5d967b41024e8ba49abcafff82ccbcf972a97763070b33d391745689575e4baec79bcae8fe1ec39d8b7e0fc2c5015fda6f",
        "composer\/autoload.php": "958a72a456822370ea53af16d60229b022ab2fcf8f0faf163fe08c0dc0bfb3649d38b8011f5e5b84819780046e1c5a7b92800d272f47238c31c0142aaa59750e",
        "composer\/composer.json": "e2abdfc083c6d1cdc93a4847a455bc1d0e71016fac97d100fc3e08442609acb623a14272406a371a168f0614c6dfd3e5e7b509521a434450bda7f19c86542412",
        "composer\/composer.lock": "aba0413aa705be0d0570c496a43249c551836824e7a2b4673b51838fe0d9f425ddd07b6c4b95aa74ca549f58e90f2a7d78b51a2a3080749a5dc2e4a46d04fd1e",
        "composer\/composer\/ClassLoader.php": "a6884d84d11c4bcc2a53f86929ad8f519d5e1cda93724a3069df108b91a71345e59f2598cb0361ac0f88576fc03315a4158215b33e9609d8f07dbd3819754d61",
        "composer\/composer\/InstalledVersions.php": "733e68c171cb9e44868bb0f105850fbd0e4f225c67235bf30fb2ac5c3443c6edfb722d4b33aa91c82bb600e937cb6392eb1883694d41616e66969d7d42e23b4f",
        "composer\/composer\/LICENSE": "f3bb64009f41a425df5a9bbab53490f0eb9b74fa8d6aaa2f57efb928edc4ffff330260666edeaa04a91fed708c3663371cf01b284f3a08d6698aaef7a23f355a",
        "composer\/composer\/autoload_classmap.php": "ffa18b6157515c1d3f7c5f8443b903ef761b2c1d8ff62217e9814f3cddc66ec283e9b97b009cfad27e361c3b61b0a5ead271d4644d16bf3fcc5a4c2a318ba37d",
        "composer\/composer\/autoload_namespaces.php": "5b2571f3b573a778d362b8c7412787b4084c7f27d3f5bba1585243f3ccbb0b9054e68522a22a1ad59ec11097b03a0e343865c0188c65b25f0a97e24e120339d1",
        "composer\/composer\/autoload_psr4.php": "ef0190381adae06ca73c67a2be4c703a0b8e2b778562f3094c00df979a857b446fa2dee9c7e3bbe5faabc634e3059e4c26c06141d0fb1e6e522788d804f278e0",
        "composer\/composer\/autoload_real.php": "fb52be18727ea8deb6811cdef2cd275d0075f4554228b766bb958e2afb8d23a74ac17f2891ae5fef665036ace243c2c1ead199d1884e72537c41f36983ee26cd",
        "composer\/composer\/autoload_static.php": "1a0dfc41eb3624d53ec57d8fa075f032d9c1a4625af13ae2fde945604c5f3af3bfdf8d24938bbe8c092e76189ef2dd143dfcc2810ebe0c7eb42170340da04209",
        "composer\/composer\/installed.json": "0a3ed51f953eb945b970a8eb21957ca2beee4669c7d0d9be97b8259c391b60688f8abb78d4b1fae5e4e2ea5e3d8747f4d35f066a2605e9a76f5b45ec3f1da357",
        "composer\/composer\/installed.php": "e6858a3fc8f40144ee72d1ab87b5431a4f3246ac64d53bf639efeb6636392372bd10ba18a0b1cbaa483b8c05a1e35af769c457447ddb10af2cf00270767adb22",
        "css\/detailsView.css": "fff7fc7882bd0c3b93dd4d7cb1b51e01c73c083669c6709414d2b8a98a3c37696699b38951d5ad95d594c0b789c5e9efcc854a4bf8ec20b5cc8aa5c0b6fc5df6",
        "css\/detailsView.css.map": "3b04317b2a31c3c3759e39868f2a6b56b70d72dbabefc516b70525a84e1f10c337a17911c3a9f402f871da86d66c4d297dbd29ce87cc44554452e8202ddc3943",
        "css\/detailsView.scss": "21795e79995a2a2aba6b60c1d8eb7cf1046be94d0b9fef6219ee29dfdf1ee3bb4167c53d39efe496f1d6d9204166e8b75d2fd74f92d09fbb574e13c7a0745677",
        "css\/files.css": "9ca9d72e1784136aa457584547291ca0657c2be70872a8ea1b98a9f6e09a28b106d03c28b743fd6712d165d4bec1742c47d64be96a94bc56025c143e823502d3",
        "css\/files.css.map": "b4a5245cf53805ca54a781d3ea53b3bb2fd8dea2fc69d9d6064ac28b8ac63d2323ec76f6e978d3e215f9010a8fbf0fdb6d559a9936739634de3f9972744ba73d",
        "css\/files.scss": "1f5683eaef4a10ca6977cf89e29577dd5fe904d99dfdc3a5f960fa9753226715d6be9971a0e31c499a2990d74ccc23a8ab4e3e1ad70fb53a5a4ccea314a5250f",
        "css\/merged.css": "510d51852c4b02339d5a6b1a74b2dad8dff182cc3fde6e6abad54368e82d6e6306dbd1e877cac9050c6c5f2e907d1afb06357d57ea98de3a88d42fd25024bb31",
        "css\/merged.css.map": "a0a422a3cdd7c805e7a3e8a1c7c62f06aeeacf4f27d8eb659dccc3c5f9a5fcb92224616a2176e694f0c3a836091eca12af583894e8e7a35359b31b52de238ad1",
        "css\/merged.scss": "f5246215021e65e08b1f87b40461168ebf5dbe356cd143179e062fe5267542eb5e2e2e0492008279ffb46d9234d64d92aecaedbc3466f792c46078bb4c75b99f",
        "css\/mobile.css": "2e2b5c129413d68d3ec9ad39aa157853568b041d4f00bb3f1306975aca14ece2a8f0d5c924fd13774fd2640da0ebdc682732a28203ef2eef23930305f4c5d483",
        "css\/mobile.css.map": "d42be955733cc9502279b59483fce18ced9991650338ee077ef9f8a8fb7c27f15c2507759fd87889838bb93780f3b9f90002cd0f668cc474e823831ac4f64f6c",
        "css\/mobile.scss": "b8e11c337001ddbaec03ec9691be47e5ed169406b7480052984748ac17c77cbe0ed9a3c995c094cdb127e99c5a20a4d56ec761a64e303d786bd01dddbbf04b3c",
        "css\/upload.css": "d49f56c0546d3db13c9284ab85b953a57947e777ec9351db130dabfe401e2ddf26001cd2f488d7daf49226f2998392d2c5488dd3b47d43714c65004040e9ac6b",
        "css\/upload.css.map": "ac9ef09351d4c5b57fb3a43b6456de6af143ba8b23f98eeb9582f83b7b9ef1f013c64197cbb60b7e7379d9ab68ae28a160ee86e2974c3a0dbf442836cd6a21e1",
        "css\/upload.scss": "b11766d5eb063957d349496e838654e172bc387529e6923cfe814d39352b817adfcd8674cd7ecfc4da63396012f89f6e988aa6ec6e596c288016e5db1a9a9d51",
        "img\/add-color.png": "32477e0d97502ae81f874b466dfa3a6d7308dd8d15b7276a760445c9c0789c09ab1ac3d0cc5f5901b80e4676ee986658c7e2989b0183f65c71b9adbeb4050271",
        "img\/add-color.svg": "283c6ad8610e0f83034064f6c5bee39187822e4e1f71482b87ee7913b59a040b29fa0f79e87de52b339a28714a0b2f41df8b4e2925736f739c2cf88a3acf737a",
        "img\/app.svg": "664419affa8fafaaa0e5f252c342c66865e8b68bdda024bef0040b01f65a31492b6048a161acd537d6566bfee91e9544f03c7545c7d1beb2dd82e05fc0ab0125",
        "img\/change.png": "2a082891ff8b670036f134397dc74eb729919737fbc6bc46ec6e52b02c5abf00456ca545c8ae52a521f398c6ba7e49f2a68727b2b66ee352ccc2b6ec1193d142",
        "img\/change.svg": "83e05266e50c1514d95049804ce89e74b054bdf70be5c054d612b2fe79545fed40509f37e830f5312682dfeb4827948e24661c5cf3bb93ab8e646f5c57d73f6e",
        "img\/computer.svg": "12b930050ba5b6e2827646798ab5d09fbaeae8af5aa73ec55838f97c75ba253ef573aff549627a8212dcb59189d6ecf18baac12cd639915d3b4abc3533998656",
        "img\/delete-color.png": "61c2e75aa3b21b3b0be1614cce07a5a9ceafd6bd4450de994b5938e2175760e4a7bb9195c3cd2a98f31c8e6f85a485c8cb0d34e26930cd239d2be12577daf755",
        "img\/delete-color.svg": "7a7552cd69b291cfbdaf09394ed3a64a72ba5b9e47e9a0f41a9986e516316c868db41331c36851f64ca82481f590d82dcecf74a24d07bf04abc2c41a358cf2d9",
        "img\/delete.svg": "60ec09444ecc6b558e8a607e1b575e2df31fabe3fd45144bffea0ae89faaba73f7220635c58b61f2a0361dcf0437478835221985e254721730bccad7e1a9f09e",
        "img\/external.svg": "6c5a85165488a425b4a086947db1fa78f859a081df7061ded61cd0bde03e6f222491ceaea7f2a38e2f02dde13d8e5757a57ba325123fe6565ead34902bfd0759",
        "img\/folder.svg": "67530d7372e22b3cb08e86528506442271988a43c3023a19718fe4d797ec430e34229612ee6188b0e4a2aad74321abfcc6d2ee7b2a898f8542c2e942a32fdbd2",
        "img\/public.svg": "d7e11e12a5bc38613b0a01312c93f0e804fbb8bb8bb716061a308d2bcb5a419ce9eecd0624e58431d7f003ffabd829c7ac4fb2e116a5c4169f4dfd6bbee08ce5",
        "img\/recent.svg": "0e77964969fdc705b42d76518a3f2623d0b7ac1fea5d036e06ae70b50614eb03ce2562c9a819fee270937390fe06ce3a773953d15087eb47477284a76e103c5f",
        "img\/share.svg": "a138c5ddfe19d1a3207d8b0613fefe1e508366cf5db0894bb4c671046383b802327e5174b87f0acaf1eb8572f9b72d518640e38af3bc7dda64132578429b5d03",
        "img\/star.svg": "cacf81e5a329f8b9680471703d557a3d9c53004b938aaf19e4d7fca972a2832c4838e0808c071166602835fd288b041635c497c7135ff503d5f9d36f6f82c722",
        "img\/unshare.svg": "4715d6beb5c8c7ebb829cd76a6d16c6d019d9b399e52f832fdeb2bee67d7f37360bc31a3660dcf6f99db0995536246126aa4e3d65a71daab8d54f349920a3b30",
        "js\/app.js": "e538851df4a0d67d5aacf4fbabbe65bbed801ea647c65c596b13318b03f5157d0c0d182954ec9cd6b5be337b1f647119bd28bb7b3123ef0747dee90d6a26634e",
        "js\/breadcrumb.js": "9f8119a5c7c4ec8b6e8e8148aeafe051b96ce548509de3bed4a4d917cd7f9e85764967f68d4b5b0357c78d1b1453723b51b61fd577f6f49f5c144dff740b38a9",
        "js\/detailfileinfoview.js": "ff58bddc899a9fd5b079fade26c32e718ef4f270d3c5a0e8222977472e8d257c1bfbb0670e7ce0735838b3cafc2e17437f54492590d8ecf0918c23a5f9a6dda8",
        "js\/detailsview.js": "d1a62736f7bd2fcdf9e0701703b25f653ad58ec55d6c90d1385b49039e9479f0199a11c2e8e3bbc2bc59842f1766b5da2d6931b7292321e6398860f7978082a2",
        "js\/detailtabview.js": "e69dacb252e3f5c10941cc082a4f409d4054b7866bec6b0e4959dac8fd021f39b23d5b046b529ba0e0926c6a1755eb5a7de7bde4b7e2c2b1e92aa8f8b59583b7",
        "js\/favoritesfilelist.js": "5a4b95811de076f1b01a167dfc2029a6a429d1e4a0d5e03fcdc0698470e49ea8de4f9df1c47018035b1d7ae772a088a48fc220ec9bf372773f04f23e736d9481",
        "js\/favoritesplugin.js": "32e1efda00873dce052a910c44ef42fc7fa8d4c71b5b2364a5ec6161c2f9de1c92bdf4cade26367701cade21667da7cb5e74828313236145969f435c69019173",
        "js\/file-upload.js": "59ada91d751de2a52494527226476f026ab9012b179f26793d25984d7c28d40035dd6e8a768e8964cbdc396a49bf78ea27dea9011317a9e6d2ff278ab5ff03b8",
        "js\/fileactions.js": "13fb3767c57c71726ad482f2b28763e6ccf2696a0084c142f221821121dca9186ccfd8d5ce97e93c9b5415ef2192060f277c1bc7ec02f877c4d0fef85f679f3a",
        "js\/fileactionsmenu.js": "aa286fe1a7ec3f240625e37aa16a3b1df7617e9dc4f09711c74b7077a34ca3135c6dd321b48729b5f7fe402e5b22c977c5fdb0a6e3f3b98325fb37c108cb5f3c",
        "js\/fileinfomodel.js": "734f4e6fa647b4be6f81ac62b59d03ea17516c52590007c1c7437cc8e8ba732981ea4c8a8f853cfb9bdc45280ad5a3fbd265da9b8ca46b690bd03c1150175d6f",
        "js\/filelist.js": "6fa294f0f8683ab8891291dadf6f1529d0c919f9b9af029e7310c1ba49e431a637c2979513ca059c6d8dcb4349d1b1ccde32fcd2a34e510c8ffa05124fc3aed3",
        "js\/filemultiselectmenu.js": "fff3aa6f187973dafd78de2d7132cdc32be08e417cd075a11863f4c1b38b4c8c2bf16ba3058eaabd973c8cc01bc3b9e8b9c7fdfc9f0e20d14ef5c332dd10bae0",
        "js\/files.js": "da241a39b4768f4788f7ca75d30c261de5cdc0db918cc73856d474454e2504842f65e5820794198b21954c458d54231930399744b9befbed5f4fe6a961f96f62",
        "js\/filesummary.js": "b43541438978c396ff3b905f2f8e7806cec72e67eabf3c78f3853a2a08075dbb6aa32939558481cbfa2dc01ea3abbe5b1d1482f08fc5bca36334a518b986c149",
        "js\/gotoplugin.js": "d8772729d803320d9421d49894d84b93cd331030fe3a72f0124497a401cebf6f8b84cebbc04e73e2046d7ab8090f851fec62c1db88c26757382b41d4580dd4a1",
        "js\/jquery-visibility.js": "9ee5b0ea09d8323b0eed212a05c9bc5870e302b41e579f339beb778010222bd5ca1a8f1bd7bb64265f72fcbaee03500697534d27011cca0644a016ef619124aa",
        "js\/jquery.fileupload.js": "137e4522762602cdf8286868b60e65799ff1b500f47939fd53ed20b4c0286cfe2659f391096e42e149d86ecfcea05365448b85372e5a141fa07b98713341e541",
        "js\/keyboardshortcuts.js": "0d359b87da6caf1f6e8ea9d0e7cb3979aeba3d41ac48c6a52a647340b6ccdf2c4c11e9c308a56eadf089a99090c8878984166076a38d592d53bad244a4c41704",
        "js\/mainfileinfodetailview.js": "131679c5e2b67a27bc02bb59a4b7807679ce1bfb80a3ae35c56d4165e60af23cdb2261a267657b9924d674e41548e88535ac686ef1037a08a8dda19bff5b99ce",
        "js\/merged-index.json": "6ec4edc2a17810d9ceb5b0c746c399c252719378cf54f2b3ec14d4b70ea34d61c8b0defc896c5b913e955031f032e5158377de30da540ec47d301911945730c0",
        "js\/navigation.js": "aa03e8328a738b866535374cbfc6689795f3bdc3434b6d67cf27e92391188c03e83a3fb3fcc93282d1db0e6e5ff9457a3713d0a6979ab09cbfff8c3db085aa68",
        "js\/newfilemenu.js": "dc35b698f8d2b1e43547805e1db5763be38d41c7e065097a89c12c06c869c900f04d6c3db64b658fae3e8d047d135e77593977cad66bb984e053da1cb90a4ef4",
        "js\/operationprogressbar.js": "ff141bc93f2d1e87689fb764a385a1e487cb5d1c9139635a1fc52479085857d4cbeff533f899279544cd5a83d96ed16f74d85b567e4b1f20bafcccad16013cd0",
        "js\/recentfilelist.js": "42813198d4681f43f536c7b5e91551f837305cb5f325a07261e5f9379df6fec1504118c67797562dd6c8a70f0740504c676dc9343adb8f03f2677672ce2b8f73",
        "js\/recentplugin.js": "4f56cf392cb5bc178f6a9a2fffbb55ac064120f9bf323618d7042e5d11e76ce44246968b94f6dd9c04100b3d34624c656806d83462a541c5119d3daf26aab805",
        "js\/semaphore.js": "d52348efc9e14e9ff8b7d010e88a8819d56e49ba541aae55bd2d4ff05efe72055f74fb0ae3745156c4c445c669deb777ea14eb99f762b93fa2e33893fe51ed01",
        "js\/sidebarpreviewmanager.js": "16395cc123d695fa9d78f9fe4ef9d385307d72f8bc9b8233a0c31a43148801fba668c90aa4f6ba40afab5b8c905abd5a8cc47dfb8d91dd278e8dd9fde727e324",
        "js\/sidebarpreviewtext.js": "cf8853667342f8734b827507753b99a5c4ab07d804530d419fab3c5c65d1dbaf26eb2476546ec8ac28b08e5fc3ca7a6b97ef454c5498efce61d00464f22b913e",
        "js\/systemtagsplugin.js": "b8cbf29e24d65a8e55c1dfb4c222d0bf732280f160e9b39cc5f04d1ecd947360685b982931334d7bb9586f27fd4b8d29c2afe49dae4184264893463f3917a653",
        "js\/tagsplugin.js": "da881f191fb2fa0cfde0af37042ce90d53afce05c89d05876e645c80c6dc8420fb2ba8f2db1be3d59b9596805be7466c43a0d31bb7ddd830fcb475557639f152",
        "js\/templates.js": "25534fd92c93f111c3b68de6919e98ba457e8c111dd1b5666efa6a7d25997d705f058cf9508711c74acb5ec4864221e721ef0aea13afd1ab336c681d0bf5964e",
        "js\/templates\/detailsview.handlebars": "2bdc4129436fec8e09c912bbee10bd336256aeccecceba49aaec43afce3bb96b48ea87c4893ee3f97aa343991dd5821fe40575bb7edfdc99c8952d8fccdb4b9f",
        "js\/templates\/favorite_mark.handlebars": "f794dda28b8e4be653121a8a215a849cfe6526c7a99bb4473fe99420631e3ad1fe6c32036379c723d8518b04fc83b00758e78be4aad8647f365339140c1503b6",
        "js\/templates\/file_action_trigger.handlebars": "8cecbc022fe26a29b70df8d9ade451bc5a941cace105e88686902828862a5babb166d810e62e00c9be1e0b7014d6317ea080911dc141f88641f337c3e68ab92c",
        "js\/templates\/fileactionsmenu.handlebars": "ded3479518e4c7d10813dc59f3ca3a1acfd4cc17050ad5d8343eabffdbbda15d93b10d4af1b3456beddf3870c29ae63989eb0d0c32f9877d3c15096d880f2536",
        "js\/templates\/filemultiselectmenu.handlebars": "18a943b4b04024743772b1bd022857d932eb98a9c884346e0c85030e6006a4d2432e38648cd31508727ba9c86dbe8a206159c4cb98edac5a237dfeea1d7115d9",
        "js\/templates\/filesummary.handlebars": "b5e3a2a4a5dda6e5a941763dde7749970ee8ba1b053a9ae7335005695bdecd1c0582dad9adf248a5647136e14027221b76fd39c1cdc50a102e38ec44fbc37039",
        "js\/templates\/mainfileinfodetailsview.handlebars": "2316c4b96734a0e5e34251c39e1bfda7ecde83e6f64b858da58ce958f481b7b7391a36979517ec043e8e5d3dcd17317f06599fadcf354fe585118a494032bb5e",
        "js\/templates\/newfilemenu.handlebars": "3cc29aea796aef5cf394f7e61c84921a1ee78d74e12383524043d31484846a5070074e59f992b149df8b25cfecee88b79c5fe04553a3910badbbe650e319eceb",
        "js\/templates\/newfilemenu_filename_form.handlebars": "709b917e2ab7e91fb9ca7672755fd6c764d4eadee6a4fe6431bd77cec0e6cae9e48ec4c6d61066c62d8189fd47322228e3be2e888d14c6e97827b43ddd656ca1",
        "js\/templates\/operationprogressbar.handlebars": "11314b97b700606d5c3ecbc2e395b704dfa889d44e30eb9ff3ffba6fe3fe2f6131c36608398835b096ad41d8cc56325b19dd6718dfc3858742f03e339b96cbf2",
        "js\/templates\/operationprogressbarlabel.handlebars": "5e338af1192f685a51c2bc39e5a05a2b0b028515d924d63afc87ba7489ce16da5923314b5b7547c8d68c16320e33fad96f0b124aea8d3ffed331b6fce528e918",
        "js\/templates\/template_addbutton.handlebars": "aec8c2a0d11fae0c32ac3d4dadaa06092b4bc0a8a02959c3317567c0755573c23afa121f97c3dd340e090c36c78e23f0dc49429779eef837af0fa74c89223899",
        "js\/upload.js": "6686c9b1b447dccd2c3741fbf9016d74b9154d542511299790db9538b114014871c3860d9802af3ad35f89c9a1e4e46a47f81b2b9d9e0ae77220131e5ee5034c",
        "l10n\/ach.js": "f7833f3cc41bf6f1bb322f862286f60f519857769070555353fd6f7a7883615605453bd4c481f6b5b0e11ecd7f14044df76329305e34cce5aa17fed9daba0c94",
        "l10n\/ach.json": "2a46965641683a82e4d758a942990b1f43e6cc43c0643e1381d92e968daf554ba00fff3d11265405447d1d683f216ac1d2d75cc28b95dd495a39f0e1648efad9",
        "l10n\/ady.js": "a40954bb6233ea1f0171fb0b1c99fd8d011783f23bc6f9f4817c08a3a5df5d0f5113c2f3d7128534ec3bf4a0e723cedeedacbaecae1dfdecfd490ee6a24ba04f",
        "l10n\/ady.json": "17bb226326509d39f8eae5b3e6d2d1ee21a82a1bc8d66d1177f261729097980f8a899133475837cb603377b8907019190225ef3b05f4dd3151aa25079e50e7b0",
        "l10n\/af.js": "34f13466446e075afc7059cabbbfed62a956c534ac7ff753182ac28012b5cf48dadab41b9b88e2c946eac2f5cf2e5a1e105fe0b24d22f25d9260e84941348a12",
        "l10n\/af.json": "af9cfb40f8f85c9ff74cf53d5ed534cd57e5625bc29f701ef275fa79b59b9f4fda91af1cb37342af32e320cae4ebf686c24de169970bb31eb94c9c5b182469dc",
        "l10n\/ak.js": "f61a7393310c169bdd14d39cfdec9aa51723eeffa409210be8cc9b4e42e6b0374f857a072abb35a90cc2f2f6ebda7da70c61c0c5e63bb2baf9082c0292b8a049",
        "l10n\/ak.json": "81c75a71dd3c04781fe262b6a8337d435536a93c0e7521108b20025090d40fd43dcb2b111c81163c8b718202583ea14cda35a93604cc2b29f6a03daaee864263",
        "l10n\/am_ET.js": "a40954bb6233ea1f0171fb0b1c99fd8d011783f23bc6f9f4817c08a3a5df5d0f5113c2f3d7128534ec3bf4a0e723cedeedacbaecae1dfdecfd490ee6a24ba04f",
        "l10n\/am_ET.json": "17bb226326509d39f8eae5b3e6d2d1ee21a82a1bc8d66d1177f261729097980f8a899133475837cb603377b8907019190225ef3b05f4dd3151aa25079e50e7b0",
        "l10n\/ar.js": "ad7de2e26c3fb510fdfe1f6b3821863dfb98377bb7105f1c073c5aa35a3b3237ab294a583d90e4d0d1669a1efb7da385f30cf79e67d7c542aa327e7765ab53aa",
        "l10n\/ar.json": "b3b844d92f3d812b31f3d68e243da9b6cd95a13520f1b3f2a916615a1babb07263664037bf96356ed42edb35941a5ebe6ea10e08b67a0340697cdf0d932e7609",
        "l10n\/ast.js": "23db67a67b5b802165793e948c159c6e881e03aa8c04e540ddad536c58e2e741db56441763952ad679243d6086436a40bfbb27226668b360c1343a5434c94622",
        "l10n\/ast.json": "a05107737d1d1a55eec8ef1464b03f437e82dabf345a0c96e21e03efe85c215314df200436285431b7c5763fdd52610165ee6697d39b8bf0da9080460a8ff05d",
        "l10n\/az.js": "7d1490901a09cec491bad3f6420a243af836623f2360dcdd2c257cf1f485e5550b3857abb5304cf33cf410fa0b350e1265918da9f2acba23b358c2de463e7a4c",
        "l10n\/az.json": "d467c484c35987abfb5efbff939843d35547e1813bc13fa7028124304f8fe0b7c872d63101106c69b53fa070b440876e2d032fce45d91c3720802869b7f47ad4",
        "l10n\/be.js": "e725694114c6426489725d2841e0e973166ac96e8fc999d9a848a9fbea623a1b189c6801d95e1e52693e72db23209f0113f47483cc2ea9085656bad4cd9cef0d",
        "l10n\/be.json": "3a622a21cd3661ddc633f01bbc4a2cfbd3477c8ae7ead7a510de82935679cd3b9a88d55a6f9accbeb62d743fb01754d60ce7cd9e4be9251abb520b6385d041d4",
        "l10n\/bg.js": "f402319d20a494457ec8bbd9b417cc85d618dabd95380eee0240aec601b746c74d21c83c674a4869fb5bae18b95a0980a60617055bfe79de6bbe7b17e02af5ef",
        "l10n\/bg.json": "df17f3e982df56c7c47bce02ae2efb22e8137eedfc05667d640e27659288672fda1ca5de48cdf665fd57ef28fc1edf59cb2733c6a90ce25a9e881cdf42102e56",
        "l10n\/bn_BD.js": "2457f663469706c8f6d6e1f666d6a13f9bcb8ccf99b412006a42ed984411ecb327dee7b5e1818f29f41b135e6a990b7980bb24aaa0de6291aef61dc624377be0",
        "l10n\/bn_BD.json": "22de5e5bedda491822a5870780276374149cb164909506e38acbc48a71ad6fd6aac4240afea3ababbb97625a5c8ccf249b2b774fa54aa2bc0fb64756ee5679a9",
        "l10n\/br.js": "c7454609e1491c76101f3e95756fd3a8e2c875ca5a62284cc061508fcd35fe975b8e2d78b53ee5e10c6da6d0cca9634eec74db33b3f2ee3d848bdd7edf6de8e3",
        "l10n\/br.json": "f7ca6925ef01d2d9c53defcfe83b8aae36f557003f6235fb3aa0c4ca3370cfd5c86db8f6f3decdf252914004ab09543b82bd62054a3647556158b22cffe928e1",
        "l10n\/bs.js": "db283829eef9dfc786fb3f5a349779ca1b873f8a97dcd6b0944c1215175380c408c7668730bc4ad6e9522c05e6820d52b624a94db4c05d5338c908078f0cb003",
        "l10n\/bs.json": "7c453bd97108c8edf0a4fd34ec0ce6544866f4ec7c30c46d0b7d63f2b91601420cda7e8c5cabff620bb0b6c174c871ce24817b529088238a29a18ce652be354e",
        "l10n\/ca.js": "e508eb2f6184aee726746cd2d1dd0e11622975beca8a6cd17c24c59060d304bd76ed76b55788decb382802692b15621d86e4864a4f37dd873fcf38e1ea00fc51",
        "l10n\/ca.json": "0b008824dd24df25ccbfe7705eaee3e02b272e0d397e413aaee89d712d10e31bfb2a56700b0f924685d681dfba4139a7f5f66dbd3fcfe73f01194654886d10e2",
        "l10n\/cs.js": "72caa4cddd82553931395230dcee821ecf3e1dfcaae6140d88cd8ed5312130cc918ec205b2ae6e54b1decdecf5fb9bcfcf1f644c736719110f756838b6742ade",
        "l10n\/cs.json": "7730c917d2a8683e84b57f4b4ff75ce0e69408eab1a36b084b222b7b0390193558c8e9635e8dab52fc57bbd3affa40d59d2966e8fdc87bc1c4eb8c720b80eb53",
        "l10n\/cy_GB.js": "7c2b2a6ce6d1fa909a23985dcedf7b34a56e478a6ad9db56f34fec32d13c1b8429bbd2b72b599a2da51a6306fe20fbfdfdd4a82b1b0a7b565fa851b344fbd817",
        "l10n\/cy_GB.json": "8e0dd7bd54f00b54200ee12f0d42712c8658c8e097abd404da8c80e77bec53217aed9d37da687aeee000c63756b56e2128718862727416d70a41245f2790a062",
        "l10n\/da.js": "273aecb556de02b4813f514d4abfea149183d5acd8fdbd9d4cb648e2a512a10584e882ed3f4a20ee654a6f255415bf72592082efbb71aa604a56f54cfa1f52cc",
        "l10n\/da.json": "93c66d98b2ea8154d43e7c99994be10bec57cc09f0a1bf86a82d3e649f444baf82617df6db384c96721a30d836e7fe7539c903bd228f8e979d4a6104ed41cd7b",
        "l10n\/de.js": "d255288f1682d8e9c5a9d0b36d30644e080e412fcd2e479b19bfc2c52b5e367123c195c96f38c8d81b45d1697f7a6c2f3c87753710186d6f8d9dc4a5cb359dfe",
        "l10n\/de.json": "90ce44c1b073fddf4cfb58237924e3240d8d021db45fcf3471c4a0d83d09f0ae7e37954ca1c8db2c88f6d31ee9a4a98f1b542d760d7122da126553cfd8f57d88",
        "l10n\/de_DE.js": "ab4e1429a74d4b8b818fa46539f43a0f86636259286e7e9fed0eb8e53540d74a836b8aa4ea78f833be4fd9d572e08f97308c253e4a358f85342ee07f21b86d4f",
        "l10n\/de_DE.json": "0c2c1c00731615ce56fd858a4be807494250b41f38aada329428166072eead9a125f0b45f53c4cadcd7bdf87cf34faf03610b05bcba7312d9589e38185417154",
        "l10n\/el.js": "1b433761a8aacfeff5b0e376aa9fecd4ccca13d05c05b25eb138a32dacab7cae99612cc524cedc18cdd9b1e557d99a7e78121ae135d80deb9f0a14772d78750f",
        "l10n\/el.json": "acc202118311d94e90e93495e07ac5da7fafaa817cf244585ae66bbd3dea55914843686317d81d1adf7a27008dffb6f79155d1c3a4c81139fa865a28d3ddbf36",
        "l10n\/en_GB.js": "4f586c8c68a50ddf92afe9d46ed52f492338bf9e1a1958d9d94ee7ac1e64f5b40d15726ec5b77b631319ee51d42a03bdaf412ff0fa3bc26d44c6e2276de26dad",
        "l10n\/en_GB.json": "afa481493ceb7009a805ebcf463f4d93c1da6eae3b5c53f9de3a50eb18411be4fb58cfaf9c0759c094bb2effb277b495544a0490ff8e28848896613afc29076f",
        "l10n\/eo.js": "42dd074b00e8b2d3bbd3e81a176125cff8ee7276cb194c8d82646f865685dd4ee94a593d8a56f6768a9d7676858a82496b3b8c91aa851c66510938e82809102f",
        "l10n\/eo.json": "92e26a0d453a027ac4c2577bac691cb96ea82758b866b04243068eb80cbbf4e97f491dcb21ec6412245fc095056db8ec1adcc5f6e1b33399fcf74660c85790c7",
        "l10n\/es.js": "269ff937d1e0195c56b742fc744eece22ba54858fdf4bc6be10ee420277bbf3d5be6bfdf73a1d03438efadfbc236a1ac43d88626d10187c38f06027906eb855e",
        "l10n\/es.json": "dae723b7b5bcdda03270cba9d8f2bb40c9093b54e49e0c71a1c8103a1423f703e36b2054a59346d818a58e9cf558d0a8ce4191107de240dc446de0fe65fb5e7d",
        "l10n\/es_419.js": "c6347541fc06b13efd6df90d66e283f5aaefa9b1d6dfe9e1d3d1b300c139fb71fb21b5465fdf7d7dbec0168ab1440b372cd0b681032ac47ffc5f30c0677b4b40",
        "l10n\/es_419.json": "1e9cbfd23b5943cd74c022fed2cb301fe41de7f908bacf9dc7a1cf02f9782315ea597140b4efc66f6f33a9f6ece48fab8b9a82c8fb211bb0c265c94fe678bd59",
        "l10n\/es_AR.js": "88bc022a7523b027a088b3dbf3d366f15ddd1574a9c1ad153e97c3217efe7837368ea741241568662f69383373ec0378a318e3655df7c0189b24f812ee1b60d8",
        "l10n\/es_AR.json": "2d1f609b2b8ac0ab267796e0c580e52b15b7ceecec7bf5b320ea91ee53accc92ad85ea68a60b9e206e1552cca3493759ab2ab6dc54adb490f6295f56ddc30eb1",
        "l10n\/es_CL.js": "e8184ec0915b530dfa6e23dc726d614a856e72315a4b8cf1bf90561c0a038945d29aa3ea7f7f3b6fd2fae1355c88d8f2a386a762e2761558863bf94e49d22614",
        "l10n\/es_CL.json": "13fa1dc57f948c6a24240452ff9cd00ea190ed4b49657f76e93dab79163369c28a2a0c9c63ea56a9e44944104776c56cec79dec8c89e9317192e1cc7e96854a1",
        "l10n\/es_CO.js": "2ae29fc223a1fda3d05897880172b6df982e1c6a63253eab08049736b4a500f826d8000d690db91ebb7200649b83a9b8db9611f53cad03eb1d92718159b2f8c8",
        "l10n\/es_CO.json": "f9ea3227bcd8249c5c454ca10cfd2b398a7ad067ad606bcbfbd9fd123dda0aa62052648e2f02b5f9a690e2b5426a21bda97a3fd079e7033ca51a1f2b2edb8828",
        "l10n\/es_CR.js": "69d39fee045348b050c2ed46cbcd97cb7e987855ed436df7f9aa81f789394ba1041804f7399790d1fc6e7c32bcf0c96c428fc58c57cb0441fe297423da868384",
        "l10n\/es_CR.json": "f2722ce3224c0b4b31695d570851acbb734c32390cc553af183898a1bb63fe8b4f5d35bbffc00f5032e10c4e23601772ddd8d8dae36f3655ec0611b58534612f",
        "l10n\/es_DO.js": "b3a6af8779ac243c9c9b988f3a54c96d44c42f26e533fda693e25645130e33b6620e193fb83c50251e6866e6b014bfce0b94b51b8e2d0f1bea3a98fa9ebe6a24",
        "l10n\/es_DO.json": "ed32ca22547d65b85fad743e1854aad305bc72b962a780f2b62250da3e15fc405189e37eed57234e5de94532aa60376dc1ae65bd421fd90b41d5225d2873e729",
        "l10n\/es_EC.js": "90cbc415c850bf7763e6c3316dd69e587f96111956be02591b9c86d8a27f0b1ef38720d9323aead566c5906f3c3ee615ea4bcdb983850a218765b6884a65137d",
        "l10n\/es_EC.json": "7cef7ca075d0c4c8048273bb943d7b970de9a1f98cbee8a187210953110af7b75c5cfedb7b96244eb5606bcffb117598c49ebff7faa5c000814a92b6a759fa20",
        "l10n\/es_GT.js": "69d39fee045348b050c2ed46cbcd97cb7e987855ed436df7f9aa81f789394ba1041804f7399790d1fc6e7c32bcf0c96c428fc58c57cb0441fe297423da868384",
        "l10n\/es_GT.json": "f2722ce3224c0b4b31695d570851acbb734c32390cc553af183898a1bb63fe8b4f5d35bbffc00f5032e10c4e23601772ddd8d8dae36f3655ec0611b58534612f",
        "l10n\/es_HN.js": "c6347541fc06b13efd6df90d66e283f5aaefa9b1d6dfe9e1d3d1b300c139fb71fb21b5465fdf7d7dbec0168ab1440b372cd0b681032ac47ffc5f30c0677b4b40",
        "l10n\/es_HN.json": "1e9cbfd23b5943cd74c022fed2cb301fe41de7f908bacf9dc7a1cf02f9782315ea597140b4efc66f6f33a9f6ece48fab8b9a82c8fb211bb0c265c94fe678bd59",
        "l10n\/es_MX.js": "d8da231f5039fd7d950b75fb2459a3685605defa404f51b32cceccc9cf8f5b90b34eb46a84ec9a75cf66261ee0059f4a6f00c4428545461c14ba86af991a9dd1",
        "l10n\/es_MX.json": "d7474dce7653b978886a9e07a34d2b1c194d38ed470e9985833ac0dd52471b7e3178a6173cabf69e7e5dcfe59fee885a9eeecaabe2806b0cfd0563351e27a6c3",
        "l10n\/es_NI.js": "c6347541fc06b13efd6df90d66e283f5aaefa9b1d6dfe9e1d3d1b300c139fb71fb21b5465fdf7d7dbec0168ab1440b372cd0b681032ac47ffc5f30c0677b4b40",
        "l10n\/es_NI.json": "1e9cbfd23b5943cd74c022fed2cb301fe41de7f908bacf9dc7a1cf02f9782315ea597140b4efc66f6f33a9f6ece48fab8b9a82c8fb211bb0c265c94fe678bd59",
        "l10n\/es_PA.js": "c6347541fc06b13efd6df90d66e283f5aaefa9b1d6dfe9e1d3d1b300c139fb71fb21b5465fdf7d7dbec0168ab1440b372cd0b681032ac47ffc5f30c0677b4b40",
        "l10n\/es_PA.json": "1e9cbfd23b5943cd74c022fed2cb301fe41de7f908bacf9dc7a1cf02f9782315ea597140b4efc66f6f33a9f6ece48fab8b9a82c8fb211bb0c265c94fe678bd59",
        "l10n\/es_PE.js": "6bfd591432ab4dc6aec7980cf7fc2a34d1a364744aaee13e43517e6a8549ec6485b54c444fe00d201038628ef3992d23bc6eb079b9ba6f484ecea8fb9e803869",
        "l10n\/es_PE.json": "bf59971b83b5f10dc23431d0b9955223a77d20454f7959cd5fa04503301865ca6209bd76bddac81e820e07a8cdb3da10d7944ae23734e3276a04b727f60b4f5f",
        "l10n\/es_PR.js": "c6347541fc06b13efd6df90d66e283f5aaefa9b1d6dfe9e1d3d1b300c139fb71fb21b5465fdf7d7dbec0168ab1440b372cd0b681032ac47ffc5f30c0677b4b40",
        "l10n\/es_PR.json": "1e9cbfd23b5943cd74c022fed2cb301fe41de7f908bacf9dc7a1cf02f9782315ea597140b4efc66f6f33a9f6ece48fab8b9a82c8fb211bb0c265c94fe678bd59",
        "l10n\/es_PY.js": "7a835ff3d7934830527741f030ed1e5f73e985d7a0b13a9ecf98c4767280db7bfe5e9e1169823e2c9188d7784d726f70e45c2e8c62b152d431758e4bafdf6120",
        "l10n\/es_PY.json": "3c4d3d853c79b696a84dfa370653f3902b08e9397ba12fd3cc4a73a8c88c55e92c41ccd06ad1adac30ce1c37fcfdbe117da225a061206eaf05cb21860e02fd7f",
        "l10n\/es_SV.js": "b3a6af8779ac243c9c9b988f3a54c96d44c42f26e533fda693e25645130e33b6620e193fb83c50251e6866e6b014bfce0b94b51b8e2d0f1bea3a98fa9ebe6a24",
        "l10n\/es_SV.json": "ed32ca22547d65b85fad743e1854aad305bc72b962a780f2b62250da3e15fc405189e37eed57234e5de94532aa60376dc1ae65bd421fd90b41d5225d2873e729",
        "l10n\/es_UY.js": "c6347541fc06b13efd6df90d66e283f5aaefa9b1d6dfe9e1d3d1b300c139fb71fb21b5465fdf7d7dbec0168ab1440b372cd0b681032ac47ffc5f30c0677b4b40",
        "l10n\/es_UY.json": "1e9cbfd23b5943cd74c022fed2cb301fe41de7f908bacf9dc7a1cf02f9782315ea597140b4efc66f6f33a9f6ece48fab8b9a82c8fb211bb0c265c94fe678bd59",
        "l10n\/et_EE.js": "3039aabe55863656a7e6345e1caf31088adec67d5177fc260c7ec602e319461bafe00fc6ac158fd0d5fdba78798b4e3c0984db1c82ded567cf4a678e068c9f30",
        "l10n\/et_EE.json": "f248f1078890b762a6c174d18a7317edeeafb81a2021b9cf7d4cbaac6e9e3d67ff61a3fd3b18fd215324aed49e4375562b6964861a6969ed95cce95a1fd85c7d",
        "l10n\/eu.js": "be06c18915de630df3b4c05f35ad1b78cdad580c626c632e458bc21a91e47a00b21229c6aa018bda304a5527b89671e146a4da0b817033df1a01969fadec72d9",
        "l10n\/eu.json": "983f2b8cbd29abbc4f37356e380256bd9c533c104264f02e55878d1bcdfa657e6f732190693f5532e25a9019ab79deccc3d2c06d1810f87c6ac61910097413d1",
        "l10n\/fa.js": "245c7983a75cbf5538644523bba9d06756385f174265d0f7f61ede9699f6d4877320fef89b2a53331425863e0a5c5647111de9b8923417ec263e79e7c988da6d",
        "l10n\/fa.json": "ebc3c235f8dab54b764f3e3c3227d93a18f30ed81f1de99ccf896568c967d44a6a2620eee0499ef5011c83af8222cb59ce15cf8fbb89526695b0deeb44803966",
        "l10n\/fi.js": "aca5eaf718b3130d69a9376724a24e0807e3ac1669f3bf8d43d9322d87364225c7ca8140a023c2527da0f3a7cff0fb7eeb3442f39803fd6276b0cf4248b7222f",
        "l10n\/fi.json": "3ecccee6cbc3c0ea0f097389422ae9714529a37f90eccadecac4c70c7a36585d427b0d528f0206e094cf536e86bf9a186dc882719a8666cbe7a9b511fdc6e092",
        "l10n\/fr.js": "78b67aae350dcbf4fb42f3da06d21c4c9d2825ee936cf0339e0abe678f1d4239d6fceb30914ee260ebd30036138fe4bfcd3be4a2f49a120973fef39809523efb",
        "l10n\/fr.json": "f9fcce81c911642f00b5a537a6e420c24cdbee0f980477edcdeb486eb7b5005ce8137fb8622b5f04ef320fff6b596c3a230343cf2919deaadba0dc9891595614",
        "l10n\/fy_NL.js": "a40954bb6233ea1f0171fb0b1c99fd8d011783f23bc6f9f4817c08a3a5df5d0f5113c2f3d7128534ec3bf4a0e723cedeedacbaecae1dfdecfd490ee6a24ba04f",
        "l10n\/fy_NL.json": "17bb226326509d39f8eae5b3e6d2d1ee21a82a1bc8d66d1177f261729097980f8a899133475837cb603377b8907019190225ef3b05f4dd3151aa25079e50e7b0",
        "l10n\/gl.js": "1c1ac01fe13c8026d9528fbd6e4b4e4fcb1e5c04bbc45007f5945f560d2c70d79f21f9b8edc384a75a17fc245ca25cc4185eae662da32e07c57012aabd442082",
        "l10n\/gl.json": "4f41bb5d3aa915af0e79a331b06c870e1d3985b0f258743a75b67a333b93d13c8d7e99a87f0a7f17351a43047610f10ae071eeed7743799c5a43617a296e7c06",
        "l10n\/gu.js": "a40954bb6233ea1f0171fb0b1c99fd8d011783f23bc6f9f4817c08a3a5df5d0f5113c2f3d7128534ec3bf4a0e723cedeedacbaecae1dfdecfd490ee6a24ba04f",
        "l10n\/gu.json": "17bb226326509d39f8eae5b3e6d2d1ee21a82a1bc8d66d1177f261729097980f8a899133475837cb603377b8907019190225ef3b05f4dd3151aa25079e50e7b0",
        "l10n\/he.js": "4195f2200bfb27a86e8a3dc4d4d74af64e0aa9125565eab3f879c16c1ee09ce1f08bdea6517e8adcea9eccf37071c3deecd3851305d421648d4f24eca03c3193",
        "l10n\/he.json": "c4a07b7ff9c5790bc04228f400a0ce134288578000414c627750cb88f15b2bd867920880be7f9c938a03e2f2cf09484bd9c3cc8ebf5e955d99aa028fa0fc33b9",
        "l10n\/hr.js": "54d2f2eda6c03b3ee3a0fe38d268f4411adbf131cb6a621ae418f52d3ce8a68c9718c9926b538ac3e424f0c796a68ae2af8afa241b503edb3f38252f0a879890",
        "l10n\/hr.json": "f261180ba68a747359fb2da4f356337c7b323731714028662e555bdcab806b143b5da8fc3f31abcf7c0fa66613978d115367724d7280c76e280def67ab450224",
        "l10n\/hu.js": "f49d358f39bd9904543dd41bd45134de111fdb9effd9f3e9fe3084e28db373806313d37aa71c304773272a6dfa69af0496a27de5576e9aea95565a0db1ff3055",
        "l10n\/hu.json": "94f6be70c12e812b3e847b7e689ddd63f49e27b75e864446fcac406d2ecf11f4c9389fcc438ea588f424b1c5fd2e77e00dd7647effa08380887a0ff8b2c53f9a",
        "l10n\/hy.js": "73bb09378ae20096ef04c5b9b10d9bf5f4f95b07cf2e0bb47154f96d4d0b7f7d9383a29d6ba649d6dade507a0849ff3af6a0d481758561a9949320160e406006",
        "l10n\/hy.json": "7ba674d1ede45ebf9df391bfd66e9614f93199c72282d82027eda4ab3341167beb6fe000f60e1c2ea457f12b60ef1630552b3c497d755389a804a37f629fcaa4",
        "l10n\/ia.js": "b8dfc9c0e1f2b19792b2743a4e7a6c01c13043bcb62640a6d21fa3ef1e467991f52414bfe285f249de6d155d9548e2b7bc8ebf8c667a1526fb891abc99f1bec2",
        "l10n\/ia.json": "a23cb1202a376995dc9ff79d6d3eb37f855fd232422bcd0d487c490afba41868d25a5b930d35fffa30cf992e5848b1b7c629b123e4df27e3bc1f36875f590ecc",
        "l10n\/id.js": "670d56413b92004d5443e24ccc8d529c0e8004bb33d896b0af2bbdd4455db8b5caae88f4cf9241e292b2a3fe5c40e366acd447bec7424c1d7a8d9076dde7788e",
        "l10n\/id.json": "d00a6790a694b5cf37246eed911de52a7e7136c4f8ea9bc874732cc2f1a1f73803db4d662f42f86dd988509d1aaaa88b3373c298eaf909825d7e64c0915d57f1",
        "l10n\/io.js": "a40954bb6233ea1f0171fb0b1c99fd8d011783f23bc6f9f4817c08a3a5df5d0f5113c2f3d7128534ec3bf4a0e723cedeedacbaecae1dfdecfd490ee6a24ba04f",
        "l10n\/io.json": "17bb226326509d39f8eae5b3e6d2d1ee21a82a1bc8d66d1177f261729097980f8a899133475837cb603377b8907019190225ef3b05f4dd3151aa25079e50e7b0",
        "l10n\/is.js": "b84776e0c2d3a5716fbc7ec231e2499c18a296715093819888f9d1a07df6b0803908c4f222a3cdc7434b25a2a10d0fc57bc70e7c66a1773872fd6c9839fc4d48",
        "l10n\/is.json": "540a3b56be5ec1b6caa98be1a21e9ec083875446b547224a1bbb21a36ee7d4b55e30364391368539013182ca4c722e1e7adea35b75f3c82bf199442851b41acf",
        "l10n\/it.js": "2563228a2bed884cfd6aa19a93f089f30c678db572ed0cfc6249756d8af2b104967d8e2c2bc3886506611242418a03260a0660cd513f649d403166e7f437cfa2",
        "l10n\/it.json": "18534a78103917d2ee357bfc3a0667d21283560630b979b83d56339a91ea4453de1b1d1a1ed8a2cf1132890b81305f572f2aec7070d03ed2d20eddcc80437981",
        "l10n\/ja.js": "788a7e96683e6b54482ca05a54a8002c51805184236d9a3a76997808b872c79b4237153aa3781c4a82b4edd96599e02f17bad68b6a24ea603dca263a39c38a0d",
        "l10n\/ja.json": "a6b528c32a93c893c318f9406aae19a1ca2a28e876f6e3bcbccbf5ab442d1cef6990f944d033688b3d9ee39da0eaef43e49f4bc142e4ea7a90760f85db2e592e",
        "l10n\/ka_GE.js": "e57fa84b1db4e7ccf558c1ab54e3ad3d8ccb5aa6c18e337309bf84154f3807de810b9c1fff3d8e6baab7f9a883cc85117ef1b314a4cd8a941cead1e4d98d5458",
        "l10n\/ka_GE.json": "1fd91aa2cfa1e01d8de5c0c20978a4930179f4d455a0f13ddb3bdb32609e6c6f4f50554e85b102f1b00f65aa93556dde8fc01158c7429761378de820a7a8df9c",
        "l10n\/km.js": "a493ca542cbfe1694576aea51ffc10068385551b0c162de7c561c6751693881360ba59365b090408b4e571eda41af8e190cc9bcec16033284fa81112c80591a9",
        "l10n\/km.json": "3cdd557459be0b145989cf0e1acd924d804809cb87b63a93bb81b7ea499e5df80c0ecb08f0a1e11360015e776fee82cf41d5faa8f8148d381ec11ce1b2c6cce9",
        "l10n\/kn.js": "62f150807e79b954c9caa72386d3b50658bd6556aa69e552e1aae64424e469e74f6cfb233c37cfcdf284bb49cebb5f7655387049b30ed47c299aa8041a8bcf9d",
        "l10n\/kn.json": "e0aff8ca5e19b804e48d8938d16e89b546457afff62195b3eb0cd01b16539dffe57bbfc9e85547fd34713735419ee3264b5f0843054824b3f37dcac8d087891a",
        "l10n\/ko.js": "c27cb34ad0478624abadc684ea44f8bc6533a871c58ff8d4a90cab5271b8e8116b86958f2bd57c36c565f60eff50d69371177d8d5343d76eacf229eaf1102674",
        "l10n\/ko.json": "2c50f0a7ffa464c92967b8e3b1dc37d137b614391b16af1f542c6c287cd18affe41d93d93988a046c74c390324eb12a19e63fc30263b6ffcd61a071faa198d0d",
        "l10n\/lb.js": "cbefc1860a550ca7b2e3eef41b12620647221fb22978f38a7a84c805e169aa77967f06e153f7564f871114c8795b34a6347a3d327d6060691e52030d268a7079",
        "l10n\/lb.json": "c7d57c1ae44642bbccc2be9a9e72d004df3cba8a2babe0ddf60dbc2e45b9d771f4a968408bb90d51e1bc9264ac89ec82599f4206aba190fe3b897dbe6caf3bc7",
        "l10n\/lo.js": "6d0b03c5ff36ce50ba66b0e462ec7516d440755fb2c506ce58cf8358c5b9d58d541834d3cad23b2f71127da1698d26ff6bd082a01393190aaa530ecffb2b7546",
        "l10n\/lo.json": "68b43785875044b12865c73d5fda1bb5133580a1985aa8752f5643a09ba2fd5765d4721fb8d8d63a0ae5f90db0e0870230e79ee71229c6a5ee48e64c35024184",
        "l10n\/lt_LT.js": "343b5be49e3b2c5993c4c3838c6168974fe599c5de4c7d6a94a4e42e5addae130443a693ca165e12964c7848b09c2c974bb573f529c332bd1749611fa8c9593b",
        "l10n\/lt_LT.json": "d628b0bfd2d14143e68de77c3bbd9909ce6e392ae8bb60f6e8df853a9074f0c58c55e0c9a702e8deaede8fb45da654196d63300d50699d3e2b0debabe1a4538f",
        "l10n\/lv.js": "2fba18b38cf6536b52a1bd8015dceb72da2a06609dd4219bdf3ca351fbab8042d8fe100e5c4d41e66b8f866d2c6fb351f3cfb01534b9f77a4101079c39972825",
        "l10n\/lv.json": "1f36ebb41d7c18b343c1c8f9cf8bf47761d5be7aff9481dc16e6a0888d2878e5b7920cf883cf8d250f08ccb19286fc93a3399a6154a0c53d2e3c863a2a032bc2",
        "l10n\/mg.js": "f7833f3cc41bf6f1bb322f862286f60f519857769070555353fd6f7a7883615605453bd4c481f6b5b0e11ecd7f14044df76329305e34cce5aa17fed9daba0c94",
        "l10n\/mg.json": "2a46965641683a82e4d758a942990b1f43e6cc43c0643e1381d92e968daf554ba00fff3d11265405447d1d683f216ac1d2d75cc28b95dd495a39f0e1648efad9",
        "l10n\/mk.js": "974dfe668a9d7e9d56fef43c6610651aaab93dc08724131a299d06262d121051b1f2411d52125c6222ff6f0b83aad42c1131325a32854d15226632f9d9e13b42",
        "l10n\/mk.json": "bd8e3f866c8d56f09b368043c8999f21e3f58395fd2c6aae6fd3f85bc1ed3953897a4ea7ec63ee19ec1ec49d168ffd095fa0af87fbfb2faa423c94f65f2a1016",
        "l10n\/ml.js": "a40954bb6233ea1f0171fb0b1c99fd8d011783f23bc6f9f4817c08a3a5df5d0f5113c2f3d7128534ec3bf4a0e723cedeedacbaecae1dfdecfd490ee6a24ba04f",
        "l10n\/ml.json": "17bb226326509d39f8eae5b3e6d2d1ee21a82a1bc8d66d1177f261729097980f8a899133475837cb603377b8907019190225ef3b05f4dd3151aa25079e50e7b0",
        "l10n\/mn.js": "97252f603e0850dcd589f28ce16385883585b1be1fc8e6c6afae602604cb69213de6dbafa3a49c003e18448da30fd89fc42a94adbbdd6f8a0521f1ce4f1f3754",
        "l10n\/mn.json": "87234aa7f9684a615f1bc7eb2be8a2ef1489084fe47ac4fee7d64539d6d42a1d2e54cd71d3c3ce875d79c06a4d192dcad547ac7709a183ea9375631670babab6",
        "l10n\/mr.js": "a40954bb6233ea1f0171fb0b1c99fd8d011783f23bc6f9f4817c08a3a5df5d0f5113c2f3d7128534ec3bf4a0e723cedeedacbaecae1dfdecfd490ee6a24ba04f",
        "l10n\/mr.json": "17bb226326509d39f8eae5b3e6d2d1ee21a82a1bc8d66d1177f261729097980f8a899133475837cb603377b8907019190225ef3b05f4dd3151aa25079e50e7b0",
        "l10n\/ms_MY.js": "0a121de6b24d4ef5d45fb9820c50c635aa46599333926ae53e8029d9f9903bdc5d45b4ba6a301ed970192460cfad4ba7902601ba3bf2362088850e96cff8cec5",
        "l10n\/ms_MY.json": "1da6bf7f2fb0cc6080a00fdf5fa816cc3fd9d256da77f5f2e44019705c4d79a8602f7cef795c30273057bb2479f5cf96ef16bfe9d67d768380431f7af4cb5ec5",
        "l10n\/mt_MT.js": "11fcf3489e44ab63c40fa44e155f96980d0f6c985447e196d6c3b9e16e6e803ecfe2de3621f31444a913b23c5e8f420eb82b616f8dcbe7ec59db2e895df59762",
        "l10n\/mt_MT.json": "6e3b4161f622b1b4eda4e08911e0a4269c07041fb950eb60d4b970b1badf5e1a2eb849af63d36cc543769ca4d6e15f57b59ffc30ba50ee55ad3c72d66e760eed",
        "l10n\/nb.js": "98a56214f7e0511fb9900a7b1e7648d16e79bb070871cb21088816e6c5959ba1ab477b95c8c8fa4e9f712be72ee9df568cefa0985d57f1e8c9e268889e716212",
        "l10n\/nb.json": "80fb28323e37e1f5d3c85f523169da39e27e407d3398f830836ef526922e4d417cc3613c10d7e403a03d6116e1dc63e30760ae5d97e2267b95411fb63d415706",
        "l10n\/nl.js": "7fc99c5322fa1d7e62db97601f4dd5ee80a3c4e159eab4d7285584d9976379f42899a12af5a94a036395852b3c1070a86eb720167025ebd1bc5b900ae9fe0c28",
        "l10n\/nl.json": "2ce604a61f7245a8a4ddcf1578c5d101776791051103de5d34b4deef3546cc766e274ab023d71c16724e89cd3b8793e259e797e0762d6d77e1ad1b123ac1580f",
        "l10n\/nn_NO.js": "b037214217dc0f84d607ba7c074411211dd3bf7ff9a8ec45d0412cb3c59c40f487414841607979d9fc56d112bd4f8cf571493ffc86484a4e39730adaf09e7005",
        "l10n\/nn_NO.json": "49ece3b55875d5afda07688fce03848ad1210f2749fcce4af537e2e5c1bc23a7ffa547ddfc91c0dd1801c70dd9aac4ba55e03b9c22343887acbdb926f1df1117",
        "l10n\/nqo.js": "d9ba6fb2a6bdc5a0436caaebb9266b124ea4fbac3de4e2e220b8ffbbbbc41aa9b0c92412627c185f2fdbee3150fd24a02545b5b8d20f25f04aa96a0cc1441e84",
        "l10n\/nqo.json": "6b0e3fcb5c2989890c2190d27d7d751c2c2d99f29019c017722a0f4155963e9a896e840d21cf3aa93d34a094150207a5def61b734d3e5f300f39055c20707bee",
        "l10n\/oc.js": "1572a5472d8072318ece85b7df500095e000e9960e4d4cfddbe455656e458e88d69c422c2d23b098f147ef22d3a122e319edd6cf8a2aa67c1b07b33ef0a94e1d",
        "l10n\/oc.json": "5f79dc6844a686bfa871de121fddfc5cef48294709a31640d230b192d65680270d94175518a2fa51a22a3d256eb0803e0ead0fc1a0eeb3be4adb99932797d446",
        "l10n\/pl.js": "d218bd9e2b0a2c8844b27a8c05b1f2b6bae1b44044f68c14fb7c0d27a4c650aa34723ebc13ea7a2a1acae57c885580fe0fc41d1165d0d482d2a423813380df32",
        "l10n\/pl.json": "1ec56cdb15a3d801594b16de658c1310e7c1a8b23ed36379ebcfa561dea3e3b64312f52e1634438c67114878fe92aadbe367b2be863bae6998fc548ef908197d",
        "l10n\/ps.js": "4a3479139a72692393a691e8b442e46c7a9bee59ee444188651602e54d203508259cf1aec045f1d8b85e4d2821daef7bd842acd66c630af4b826ddf7160b3b81",
        "l10n\/ps.json": "f30243cc880bd42744e29cd78c9cc81d134e94b421ee0a8254c40bb979a34551766b320d19d4735f75a3e29866cc7d6fdc7e4355ddc203d161a4f007efbdd5ee",
        "l10n\/pt_BR.js": "85b9e7a81b2fd8ae2e928473af00e069f03fde2171b541a233fa27113874f2c950c2bbebd7d4988fd6383556cc56efc4afeea85bbf821d4fbfe3416aa16684f1",
        "l10n\/pt_BR.json": "3315c5fb033ef5a97d97050246efa99fe4a48bcbd2a36c6dc4a95d24a25aadce0aba1149ae1ecba927e0ba0b50a87fc9ed3917a149b14b95c8246efe87250d0c",
        "l10n\/pt_PT.js": "8655946c5c5d654471a5031fedd3a27b4c15899e9e57c0b22b00f719370b1b43277510a2a397c0495cea42bc6f05b91dc8156929c77d21669b3e9edb1d35aa08",
        "l10n\/pt_PT.json": "abef0c45ae6443e4a6ec8c3c6515f24397a21b3f4b63a74c948553b3806efac5165aa70b9e9c4622a28d6135fc366e237ff3e6f4facb3220b4a6ae1b86751b57",
        "l10n\/ro.js": "72143ac052cb1f56248c72ebad238c86e285d03f90b6a46e42a2cda83673d8833f53e5baf88625aa7af942a2f544066bd31685af409b7b3662344043d4707764",
        "l10n\/ro.json": "01d536543f97672770994ea580541bd83fb88eecbbcf0925037f13af02193af146b9cc4fb54163754902f3503f2bce49488b2a24aad313fe793bd588146b5333",
        "l10n\/ru.js": "e4f6a22990d3c61ff5b104f89e66a60102b9a0cafeecbc52d50fdd7efeac8c5076bb527e453cd55f51c46285be95c8b1bd157e66257a848205b66c195b330c83",
        "l10n\/ru.json": "f60ffce5c6b8e7dcd8e7d47c3570dd5abfb300dc5b2a4feea87dc4f603bf17aeb4da62632e80c472519ae988e38c059a397defdc2bd7fca7aca82b1fb32ae8a7",
        "l10n\/sc.js": "eaf82a4fb0150557745ae25f67a83c77571a9d9ac7c97d9b1868339dc134d25be90db5d6eb9da18b80e58c61c04bd04fe08b848bc865cd6d96916669b38d736a",
        "l10n\/sc.json": "55c19ee7a2a001aec89bdd1c515bde240ee21ed7515b332b4c6610552b822217b54203b6cf79d0dfabb90b78bfb5da8e6fac9eeb002113ed298348b9be59baa3",
        "l10n\/sk.js": "4ffba6e5e2988c9296ef731c4b2bc6d86bf7ed33740df1d8aeb9e678555ce6057701aeb2f969dce217728c5304856b603b680b52af2c9b0473b083741a94fe3c",
        "l10n\/sk.json": "a3ba87d77ab2076c0d6cfd173d979ae22302c338d46a396f4358ae97e1b3d5e67679b59ddf9e131f3b0738ed3014ff5bafc8476b0030701e7b45ba8bd8fde837",
        "l10n\/sl.js": "28ad2eae80588cb4a78f34cf61890c77eae2866878291216fd8d26dee07bd5745db754aebc6ff192ad5f0bbbac26aec85ba32ee81041b63d141325780cf74639",
        "l10n\/sl.json": "95d233dcf5f205ad78fd182fdf4fdc962824a0d6205c6130056d67a12c3ca23cf28b6f6eb2e46f573ec70b44d06f7edb2bceaa412cc78240b8aa0351e2b7170c",
        "l10n\/sq.js": "616d2a6cfadf375b61b8ffb06ab555fafbf3457c7bf193312433636a22de9564fa8cad9216227a28b03d254e398b00477d23d7aa4ff439b038658c4858b07b95",
        "l10n\/sq.json": "96b072a8f142cb56d5b69f21f7a7868640a5250c8cb875a38734a5503d350091af80ab46255f63c8e4553bee9827fdb123d124fb186d1a7e25cd0b832e0b9d26",
        "l10n\/sr.js": "738f2e60de1e92955ca2ae09f91fbb63e527c0be0e7e7f35387a1218051833e55d1acf0a4b5de38b999eefe027a3da0b610982dd10afbfa63c2d573a9f4e7184",
        "l10n\/sr.json": "cf55b976e7fd40b075320880ad71d74e1bafb89b81f686ff35005a0d1f2bbed433600daffac7e67d6e3faaf37b41dc6b0fb3f7d29b1af9be94419c8b358700ac",
        "l10n\/sr@latin.js": "b0f5d295d5f57bababcf30f785b5f3b08552149a18144dd2d80bab26b349c8e797fc3569d895c8557d4490fd1574f5c48471649a893cd7383e13ba38b45ee8a7",
        "l10n\/sr@latin.json": "9354625483d142368c13a8daff4f054cb8b9212e925c1313576aa5074b22e78fbfb377f2d9e80fe7864125e5b32ae3a165d5e2a9ea56e0974445d08c9331eee5",
        "l10n\/su.js": "d9ba6fb2a6bdc5a0436caaebb9266b124ea4fbac3de4e2e220b8ffbbbbc41aa9b0c92412627c185f2fdbee3150fd24a02545b5b8d20f25f04aa96a0cc1441e84",
        "l10n\/su.json": "6b0e3fcb5c2989890c2190d27d7d751c2c2d99f29019c017722a0f4155963e9a896e840d21cf3aa93d34a094150207a5def61b734d3e5f300f39055c20707bee",
        "l10n\/sv.js": "011a3e8b377cacc30c4172dc088b05813f5b8aef7fba4018addb08806440999f349237a9356c632899283c31d217a5cf705e4331fe00557d0d30c2199b8c9737",
        "l10n\/sv.json": "ef3b6de1137a6dbf3dfd6c266aea6dd3208eff39dae9f17eaa7ac60a711c92c31e372db489c862c83edf35d950ce03bf0b2e77b37c90232fb85b618a0f4cbf16",
        "l10n\/sw_KE.js": "a40954bb6233ea1f0171fb0b1c99fd8d011783f23bc6f9f4817c08a3a5df5d0f5113c2f3d7128534ec3bf4a0e723cedeedacbaecae1dfdecfd490ee6a24ba04f",
        "l10n\/sw_KE.json": "17bb226326509d39f8eae5b3e6d2d1ee21a82a1bc8d66d1177f261729097980f8a899133475837cb603377b8907019190225ef3b05f4dd3151aa25079e50e7b0",
        "l10n\/tg_TJ.js": "a40954bb6233ea1f0171fb0b1c99fd8d011783f23bc6f9f4817c08a3a5df5d0f5113c2f3d7128534ec3bf4a0e723cedeedacbaecae1dfdecfd490ee6a24ba04f",
        "l10n\/tg_TJ.json": "17bb226326509d39f8eae5b3e6d2d1ee21a82a1bc8d66d1177f261729097980f8a899133475837cb603377b8907019190225ef3b05f4dd3151aa25079e50e7b0",
        "l10n\/th.js": "0528ff623e9aba0ac160e4650bbb3f44a5e071d1a0cd6c913b9caa6f22758c1a253a95eb18a9e57eaa94ac4142125b1fa8149dc83082d7ba36dac870b1431b92",
        "l10n\/th.json": "f823a662b48ea15fa47188e9e49fb8cd688e40109fd193c799139cde02a2b419745d08b67ba8d9acde12c47a404f81df17db7e4b373c185188f23beca9235a0a",
        "l10n\/tl_PH.js": "f7833f3cc41bf6f1bb322f862286f60f519857769070555353fd6f7a7883615605453bd4c481f6b5b0e11ecd7f14044df76329305e34cce5aa17fed9daba0c94",
        "l10n\/tl_PH.json": "2a46965641683a82e4d758a942990b1f43e6cc43c0643e1381d92e968daf554ba00fff3d11265405447d1d683f216ac1d2d75cc28b95dd495a39f0e1648efad9",
        "l10n\/tr.js": "cc626b8cbb727ca0384b4072348b074bb64f17b78ea750e38b3e9311c57e3c322b09c4bdc9d521d57f929ccfa067f4244679bbd3c261ea98f1098f241f6acb7d",
        "l10n\/tr.json": "8d17645e144d844128ee20fdba7757e64f6d544ed37edff5a419e0c16de212fb7705da566126525bf5663f5ae1d7472662b0b251cffdf2b243884fe2d65b19b1",
        "l10n\/tzm.js": "833b356f081e4d4827c634bc9d8899a777fe85a2d914bb20112a9abee9d9484def19d140ffae8ae803e4dfb616a8bd0b5ce7d5d18de506f404904c93637b1d8c",
        "l10n\/tzm.json": "88293d49f3febd10e3696e5e2c849144800dd043aec301ba78f3a7bf991239af38ad4802a7e36e4145990f2db80136317975040bce0bed4026803fe75aa8ff81",
        "l10n\/ug.js": "bd630f671c77b46704eccfff4a59c3ff6d857000b8d6ffac0555e18b0ed352952328f6c2a7d568f74c4df6c7b18efcb43fb24149d3222c4ccfce56ee82ff83c4",
        "l10n\/ug.json": "0cb60fe5f18527a5f534949587f990aaf720205891ec449800cbe568b9bc6f1064e125da4e1dce07c679c0db0fad40347eabbab4020ed4f8416b3557fd7a488e",
        "l10n\/uk.js": "7e3649e1134c27b0eb6780c37b011086f415a640e28906c2cb88b894d71ccf3ba3284ffdf0b3f734256c090cc662bb0988a2bbffee5ceccf2f96039b7e9c79b9",
        "l10n\/uk.json": "e9ac9f50cb21ffdf642cc5187b6ff5b55e4051f21190e6d4c6196824079ba8d747151b8b2aefe7367105642676f23c590b3c1a9ea51d4d6ce20ef4628103e8f6",
        "l10n\/ur_PK.js": "6551647175bcb05709c2bdf8b9588832ec4434000cabec4e29865c8016f85188ef961a9fdcb949e630ec3b846c4ccf0fd1458adc32d3db6a0d26f97a80b14d3b",
        "l10n\/ur_PK.json": "861f2d407ecc0b80ff3624049547d74d278fc5e22df752981ed62be0cba8e4172c9b5f6cb5febf51a0029d6da1b4dfa0c53c5990d18594f39495b0cee13cd39f",
        "l10n\/vi.js": "e7c953a1dbcd0a041ba545dde3d8dc0f512782a8a4623fec47dc02ac44b4a69734256dcb674c16e679fa5579977156265e0d73cd21c17a28fa29c5c5bff09a51",
        "l10n\/vi.json": "48b597ec1453e9964a8c5d30a3108c4c7052d7ec091135454d809afbf02dd93c99d45e60de57b1f65c9ffcc262411c5e843b6c987034ab25d9f1cff6416d05fe",
        "l10n\/xgettextfiles": "822f50b4b5a608aee17c95e5db400db4288ad08a555f32d55903001bf0ebf910f83571718071dfe4476f5d35fddb360254fea1c3d4bd2d98e59bde7220242793",
        "l10n\/zh_CN.js": "a291c37451675f14664b5163ee119e6d1c440057068bca738eafea935121127bc8771d57e42b1a3998cb627b43f0cf8f352132f60f3ffb06bb74a50d691ad542",
        "l10n\/zh_CN.json": "48c6e9dc865e0cb64abc45f717802bb8dda87c277c1068deba590fbdfcbf4848468b77ddb670085ed90246245037ba16a0757471db2b9e951aec4d35ef324021",
        "l10n\/zh_HK.js": "1bd2ec1815fe0a8b2cbdd5dc2b1de93229d794330ef4e814db60b41860b7d9942bb786d8ade6ca9d9cef81ee1b0967c865084ac15f8fee1c7269b56604c1cbcb",
        "l10n\/zh_HK.json": "25410e25a8cf44a2f826c05014ec5ef744d34424b9ef014c6a757b67d3175176f87ad54cc9c7f755593ce82c0d92355f5b4da9e15150504ecfbe318adfd2a129",
        "l10n\/zh_TW.js": "4efd52293f858984b32c635255cd6e1020e42ee26d2f1620db4a275584c5caca78a7e23b25c7f288cd5ebb6ad8d2a7e6c57e849669e153faa8eecb7aa9bcd034",
        "l10n\/zh_TW.json": "b5b1bb3bbd129c3b0e7a827fb422c3a20a54f4a9141bce9a42fcb0d7c3480b5d3c32b9e485ee08d9823c131c5a7b27847e68d36b702527930ab2b8c94c2e5baa",
        "lib\/Activity\/FavoriteProvider.php": "e14effc123d712e1b1c0569730efdc093150ef181e6d2ab21c608505a4883389101612903dc8486119aeb46d58ba2ea44177f23105488b5c86ed17b9cc0166bf",
        "lib\/Activity\/Filter\/Favorites.php": "71a14b569f9bb5b35e5ae1370cb21bcbd6c4ba085e01863f2934a2abaf11ff18ff14ec560a2fadc95e840919de9a16fe6c1a7560f2dab80d0eaad89b7049f6bd",
        "lib\/Activity\/Filter\/FileChanges.php": "46ea987c7d44732ed07775a70ec231ff3a9ad24c6143b70042d8de5e884e07b1ba0494d45cfe5949bbf4d695d1e88216fabad8a06dae27483508197df35dd0b0",
        "lib\/Activity\/Helper.php": "b289e53a693abec2c10ff841145fa97b99bec581cfb498a25b5bbd91ec09a55b28048ace387c25239eb630179580966cf84d997656660f619abb69b19d27f067",
        "lib\/Activity\/Provider.php": "1421b8077f2fe4a2fc2112cd49416d92a807f2d2cec9efab19c5a0f26c6f2ff27c7b49b1dc69a3ed4c99f5a5d70ec210aa4b6bcbbc0c57863b16217f00c3d667",
        "lib\/Activity\/Settings\/FavoriteAction.php": "0196cf9dbecb9d0030e7a3bbe746a3bbf8b9963091800a8e9f7351da6bbc08f17b434a66f44f96b839f38835c703a146eb792d6f3fd45041edf120302881dc35",
        "lib\/Activity\/Settings\/FileActivitySettings.php": "6fbe53f8696bcf76fd3ac77a2944bb94282756030565f14370b1b868555434b8317ac189d81eb67952a9e939bb0ce923f8b8a137471f68bd98abcbd0420b9246",
        "lib\/Activity\/Settings\/FileChanged.php": "923a95ca34efeeedd48d1046b51788f2cd885d7212126dfde1e4bc7d92896f8c9913230840148c9e7f715283efbcebe15a28692f921dc927ecf20270acede675",
        "lib\/Activity\/Settings\/FileFavoriteChanged.php": "69566495859561e653b596fdcf59b8e759f47e597e7ede4a0e08c4ce9b4ec79f737b37c8f0b8121ca5f529f17cba590a43a8a48880db23fbc243a53b2ca8faf5",
        "lib\/App.php": "feda50af528af0f0696468bc163360751565b4d89dd484d1941a9d27c800a97a6a44ef00b0ebdaa93c354cc64456f4c7916da1e378ed1119f45e3909bf7fed27",
        "lib\/AppInfo\/Application.php": "7ffc1944f509a272674fc687845c6e1511f0264ab78a6943b5cc63fa55ac1cf12a78bc8c93d6fef824afcd39397ae3e888e77dd0c6c7edf7005db542ccb64d9a",
        "lib\/BackgroundJob\/CleanupDirectEditingTokens.php": "75d264148842e35b8b9956fbc679233bba49064d52135442b57fc6c1a722fc653cb7faf538b448757f95ff773d9c9e135561622d825dbe2d9cc07255f748bd55",
        "lib\/BackgroundJob\/CleanupFileLocks.php": "f4cccadfea81f2281bbcef46145243607070c20fd4f45f2c453f1ef999283cecd657e607ab652d2a7c8a42900aac068116a41fcc5b42062b251d14fd2afd2fbd",
        "lib\/BackgroundJob\/DeleteExpiredOpenLocalEditor.php": "1765a0dcc60a7d9d02f917d964337d3c1387a60e82e456c44b3e5f281e00421610f5947c8227f3cb66c6e20c21439e941cb0adbd5925b809b1fd21ae17be94a3",
        "lib\/BackgroundJob\/DeleteOrphanedItems.php": "ccc7503a97218a72731e08955749e71a68d9c543a09c91f7b38e457efd8d3e789949096a142e1e43e6671f89a23088aa2b1663b4e8ac97ffaa89798026084bda",
        "lib\/BackgroundJob\/ScanFiles.php": "b17cf9eb7973a339fab0319d3c87206cba73babf60e2a08637125dc3eabd27484bd730ad7cd052c7de2a657794ae2fed181ff68af25b0d27e1a0fa313b4c49fb",
        "lib\/BackgroundJob\/TransferOwnership.php": "d3ef97c9e15f0dfdd7d7e3366b3cb4ae552cbfc1fed4d4a3eaff2ed76cbf5a10be8b550613a07f7b22c3816f09c0561f464dd98dbf0d1ed7ed4a745eb105f649",
        "lib\/Capabilities.php": "11e112cd371a86a9576738860145d6a12687b9cc3e86c88d25e5b6f1132f166b14483503a3c14c634eab5bee9febdb7c14ce0f955051ca58ed53918516f7f13a",
        "lib\/Collaboration\/Resources\/Listener.php": "a9b4c3c5f9f9f4225635e6247ec0c13f06688647b5a919c817076f1df1f412423cb1338b26f5152b935754978e6dd91b79151814c2003c9ee1378be6785a0084",
        "lib\/Collaboration\/Resources\/ResourceProvider.php": "6111040e288790aea5e757d84719cf5a830a62ab8c693a9565be97225f0d65fcccd0b183c3c99d7622312a72a921a2d9d98871cf95802a6026f7e887bfee414c",
        "lib\/Command\/Delete.php": "591bf63dad44fa73c4ecbf03ce4e55a9680a7dfd81cfc9ee9e913efd9d327791380855bf1daffa0d88a311d7946749b25c6adcc40ea813d448343264e7f38176",
        "lib\/Command\/DeleteOrphanedFiles.php": "692fa90a28e9ab5cebe3fc1101bcefb3f33bacbb9be5b1c24ab917f72f142c5fa8f394be81a2700e472074215966f5e1efc9fb3ef664cf484c491b51f3a763e9",
        "lib\/Command\/Get.php": "6aabf1546904776b7c704b6c2437bc38bfd2d91752c18c7fc0f24d5fb4712333ff79c5b1f56bef86cc7d6d4115c7c19629993fc45b1e846a7d4c32d08c30c4cd",
        "lib\/Command\/Object\/Delete.php": "8aa2cf69c7b5a013ced2bc88d1e5b49aeaaa51413bc7a0b8d942071c9676d7d540f8debe2bd0c9508a21f5fa5229db4dd2e127c228cee6002487fcc6040f6366",
        "lib\/Command\/Object\/Get.php": "b929c69e9af0ff287b33b645895e565da33447de688b6a0dc52dc4b6190a441a6a896f7c390742b6918e9e06b161cb8a1acd31b348bfbe2c460a4085928472b4",
        "lib\/Command\/Object\/ObjectUtil.php": "c7d245b20200fc53997ea642d78fa2cee39b6ed82a44cc71d44c8aa3ee1110d79a93fd0c82c300db43c25459d0254103fdf12726bc1b7d123efb34ac334ade89",
        "lib\/Command\/Object\/Put.php": "a8798931b42c88dd10c80ea33dfcb06f62c360b6f41282ccf8f302febc47320f998e631a940c2257171a25fba8958cd68558c2a9a30c0b89b8ee9fd2f072c3e0",
        "lib\/Command\/Put.php": "698db5d8ab07beee6eff5075ad2c811398d1dc01cd22523a88924c4a9c973b43db96c075c7352e73d578224de34fdb54d945bddb164e83badbf1d13e11eaeecf",
        "lib\/Command\/RepairTree.php": "7e9476f88fe9c297e623f82c13aa82e35629adecc3bacea7dc31380ee2887d492dd4e2c65125fcb39ef60a43d4dbf7c23cc1f705a9de2b8234d20f8f38543816",
        "lib\/Command\/Scan.php": "c478d787e2c7cfb21d12e660f5d2e4d32337697d4f8c25503e8ac6561939882ee75114ff0eed84d4656305a82ab8b1b655ea455dca20786af86d7ac5a7417e34",
        "lib\/Command\/ScanAppData.php": "3fc7c9681e7ce134c0e5d082261344bc52a94f87f297003fe13ad713ee6a40c6ffc2b85c30d02c056c63aa823b3a5d268c8c7070c05a302e2af709abfb7a1ebf",
        "lib\/Command\/TransferOwnership.php": "d6de34257363fcfa97d19e248669e243bb89756ad0a9db35597ba16ef733b540279ec060fbd012665a78d4f8ef33fa44a332790d5954af3431e52149c6684e0d",
        "lib\/Controller\/ApiController.php": "f15d9f18f33aedcfbaec42693b09d2d254634bfc281aa8be9344f328e3406ad48a1df31af17c1ce95b362ccb65244de4278b2de295017859ea3f1f7aa2531ab5",
        "lib\/Controller\/DirectEditingController.php": "eb8858ce3d98709ee452ffd90757b61917682251d53ac1baf0497346bd036623f38dfc3483352c43013d745eeafc039d9b8e2e29d86ff3a0e21df10c67e5cccc",
        "lib\/Controller\/DirectEditingViewController.php": "1a56ba7ddc8a24a8671bd90aaa3dfd50c57cddf79ec32876efcd3e4260bd14b218b2334f6f29e12f55a93c5959c7e4f048d46f976ac695f485ba712b50b9ca6a",
        "lib\/Controller\/OpenLocalEditorController.php": "d4eb60bc21540f36819a0b9ecf650b38b9985d68b5628a3bfe608acc706376ebd7466dccc3cf1e0022137958b097c166af8e1e3fbad1e884693fa116452d4db0",
        "lib\/Controller\/TemplateController.php": "5c6c18cc40f76a8c5c514c3f4c7d71be2117a902b8ce1eddf071433ae62ecd126276dbd2af0cdb5dc7aa4504e766338f2568c805e1a9972428950933671c7b95",
        "lib\/Controller\/TransferOwnershipController.php": "ab7d43053dbb531ed96019d28aae055ec8b44b2091883870ccf527773e4b49cc72b775721f6a3dd71078df88051f6b8e1d866ae419868218d3c54f20347f9754",
        "lib\/Controller\/ViewController.php": "71733825ed5fccfdcb43b412d75cddbca0c4667b551ec12a420586eac6e228535f3e054f49c02503c2ed9f10a7eb8106560759c8cea0fd2a3544c57496b2a344",
        "lib\/Db\/OpenLocalEditor.php": "c599d0c714a554baddb57b5cbced64bf58933689ba3c4b56e8ce4dde14d5a949e10117225154b083d6dfb5e5dccd5d4a2a26aca277462654dbb1beb190d15152",
        "lib\/Db\/OpenLocalEditorMapper.php": "30f97da00aeeae1ac61809003385a05cfd3d8e232b0eb703f744f9e86da98666d04abbd0be2bfdeb417be44229af8fa5e70ec1511855074e8d3eef86359f81fc",
        "lib\/Db\/TransferOwnership.php": "b8c4099ee353461e3e16f4f1ca75250280390ebe10cad9a995e2254992a532d09cf2e2a1a9e12e69cf59b3c1542663f41174b6b30a50671fc8d54a7fa2908e8f",
        "lib\/Db\/TransferOwnershipMapper.php": "4bfbabad8cd01749b05974a1446a220e6a9d0d283b27443031980ff5adcf4c8da80ab44e064aff0b9ea47b09acd2068bfa82e8ad7105339828734e81f04779ea",
        "lib\/DirectEditingCapabilities.php": "3d9fb69815f02b66a4e8afc51dcd98d12b604f6c930d21c7c627845478e3f9355ddaf7cd284f29385ddf40e6611f7c894ead814f038ce57650e341261aaebe00",
        "lib\/Event\/LoadAdditionalScriptsEvent.php": "fb8899931587da1e292097b1b5b68791a2e0a0da0c33c6013e782b7547cbf262418664d495fdaa03de0199f41dd0c33d046d3c6ee3e6360c55617f2c08cbe0d9",
        "lib\/Event\/LoadSidebar.php": "f546cb8c37f6145c6ae01a5056dd67000cca2a3fccebaac17a33d3460f3a3e838e9abf5fb2a66d3731401836f9be77a830680d1becbdafe5b704a2d95e1fa388",
        "lib\/Exception\/TransferOwnershipException.php": "0611a8a9841f9cce429387968d134accc27c070b4bdfc4295ea544a77a71ebe31e7026e96bb0dc87010ec9d6aaaa9186c079f606fff8444025b578571d28976e",
        "lib\/Helper.php": "aef05a1c9d2c94fb58b3c4a1a3c535ed35851071f9a96f80d12a2e0dca00689f43233b0dd5e5e6ca8c38b9e701b6359344cdb7b3c491ee804cbac943972e5ce2",
        "lib\/Listener\/LegacyLoadAdditionalScriptsAdapter.php": "40e8d9815c68593c874a1937a12759559411bef0c4085d7cf045ae51533f4ee19b4f2abf389c0acdb9a066d153011cadeb9cc3d5e904e4edd537205a878a86af",
        "lib\/Listener\/LoadSidebarListener.php": "cc9aeb7273a5bc06b5fe82d48275d7d9f6b3f0b0aee49e758eba2bb9a18ae2436d2c6e9b54da8be197ad5013a53856d6699c09bcb38be6df5980e0c3d9c853ae",
        "lib\/Listener\/RenderReferenceEventListener.php": "36db340374e39fddd9c907a602def5331c8df9aef8f699863c9e69dcc4f9def32e961600e853de8e5920607c0da3379fe96f16db6d0d2ec3cc5b1a3a40c9a231",
        "lib\/Migration\/Version11301Date20191205150729.php": "69fb375582284ce705eef03009b447577819cdb6a3541435a4bf3d48062daeaf194271ea56eb622a596842d853673a988908fbc6b31f5b77c1bb946b9276afb0",
        "lib\/Migration\/Version12101Date20221011153334.php": "41e84dcb5fc14b8968696ad2d4eaf25b5c23c28ec1254f63aabe03c68f646edb10fbc77921579e96ebcc6b8141bea65eaf23b8008947b6d07710c11013583008",
        "lib\/Notification\/Notifier.php": "3e8bcc7ad9d3b7a119fc9a2c44cb35a35275bf511498cfb912596fd4bd631d1d0606db87b2b06c4dcb24cf6de08f39b7304cf8d55df1e0dc2fc3d1a569b5adb4",
        "lib\/Search\/FilesSearchProvider.php": "b203d745471e19bd6938b9f225ec7fe4e53f2236e42130a8f6ec6c9a9c9b566adf2ca36f12dfb09717f34503c72e30aa7b1ce913e318116076ebdb03d2c3067e",
        "lib\/Service\/DirectEditingService.php": "af2523df038344a07827d6fc35830ac67a4bea81d63962b5e5db58a5922059da0e2abd1a728053f890d7f244ba42110e4ad8445f3f67cea4ee4edae6b30380a0",
        "lib\/Service\/OwnershipTransferService.php": "cc2177bb3655b6479f4a14e7c492f7d17db88be8bf9d42ddc53a2692f350a38e7021f6350bd7991e0d3acc08be2f3d3de3337cab4d69071dd901f733bf6031be",
        "lib\/Service\/TagService.php": "baacf3abd082c6a103936f395502d4c906ce60d17633199c15b24fe5c9b0b1e9db63f1c06e9390b7f8845751f2cfe98605fcc62c5521dcc6d2e01c66769fda6b",
        "lib\/Service\/UserConfig.php": "5880f9cb55ba8f57d018bb368eaf5a5d7363b382d5cac17ad2c5798b2da567fb5235339df2eb296026d24e8cd98b1cf4a71399fc7f3e93857c4fd9b47e7f69b4",
        "lib\/Service\/ViewConfig.php": "ecf173ca3e2391240a012428067f6ad09b008a7025e6f93fd9693224464011b6c9280a744ae3159f5ccc10f5f4716f72b26d571119bbf103486dcd02be2698ce",
        "lib\/Settings\/PersonalSettings.php": "c862ccdc6de7bcc4a44b9c3541c9f817ab3c0e9011409bfa2a0a21cd18e0853648219918c145e007c1359b5a8a2a5401d5843c8a1d5bf31ab7126f082f2379b2",
        "list.php": "385dc9e69caaf44c51fd4bfdee53d25c3132fdd72429aae39af753f1cc7409b440b11b548aa2813ecbaaab19ddc5f608679c45c8f3703d6e97556d7b003caa1a",
        "recentlist.php": "abe5e41f9a6a0848881a4184adde72fc4f95f316f412d647684eb62e5d19c990555540036a5dc2f36fc8abbaab208cb619779e731e0e6334c3b178511af16f04",
        "simplelist.php": "398687c7df56ea4318c97c2fb8072ca0c546a009ef38e6e60e0941c9b8c8b0c3a5cd4794d6c763cfafd10922a4943b12569ec59a5287a602501a7e05b078e699",
        "templates\/appnavigation.php": "e8cb869e6f8309f05934c8a144efacded0d0116ec8223f4bc1121932271f218ae033a59bdec430c5dc6333b032e71b9d499518499c904f597f6aeb8c858649a3",
        "templates\/fileexists.html": "e39f438d54b86c0b9b5bdf5a167ab41564348cd12d47303371d68671d588d0202d6648423d46d351597fe763afd3833879fab49212135b45c79892e1eecedde1",
        "templates\/index.php": "52e798b3f25e5e1757adf8e4d749c0d8729d2c29d091bdaef12eedeb37478bb8c8ebf3022e6157ab14f4e258f780d9dc7ab3472e11efabaa6c51b2faa225bbe1",
        "templates\/list.php": "2d0dbaabe4d3bc948c0e5fa83d2357e5e0f2731e948ccca8a50fd60d12500b8e7eaa25cfe141b8b1f8a8f50be5f51d4e987f1b21da693d67c894258808d1dc01",
        "templates\/recentlist.php": "8d822e8016ce194973595e271b45ccf4290627d66edfbd424608f5006b49181e065a306b35d5f4ede9b359a9be1de50436d11f46e349043143164aba0a1c11b9",
        "templates\/settings-personal.php": "216881ec310fa509fe8caa132b207232b2f6e42a1a43838079f0dfd7168b016da347400c349f9db586cbd7f24c424fb5205d7dbb02f4665eca3d94e16e7ff0a9",
        "templates\/simplelist.php": "23c861d9718a5dc991d8c605fa2f2c5a3441fe5033072527cda4ca84f9a3c7a33232dd801d99f5e46c86608582e9edf2b7fd7394cc3c3bba6bb4b25acf8f0402"
    },
    "signature": "bbTcPD2JMzmUpyRxSEesKT2NpWMuMasqvmkEBF07TJyAAwfLepbQI0qRJHd8XPlo8H7HbRv0obikIYwBpZz8aiKkmjURWIPPQaiHQe7D0B3NskxDdQluHrIKBhlwjMizlfgyktcQ0\/7UCFCbG226EKqc6aVjz9ae5uUiNJGFBa0Ew4KPdZHWcQSK5NUKqrjMl1HmwjhbUx+S7vMNVctsDrOEw8ZYbSdMwB+htNb60\/NHmCIPpBBu8TQ\/5mQCuDEleoJlSx93xoXXfFXq4kHHkoWFxhA0k5zI6MqeW43GnPtokgE4bGiOMSNabHO4JHaJbnsyROzsKMHcXeaXYgOwrg==",
    "certificate": "-----BEGIN CERTIFICATE-----\r\nMIIEojCCA4qgAwIBAgICEAAwDQYJKoZIhvcNAQELBQAwezELMAkGA1UEBhMCREUx\r\nGzAZBgNVBAgMEkJhZGVuLVd1ZXJ0dGVtYmVyZzEXMBUGA1UECgwOTmV4dGNsb3Vk\r\nIEdtYkgxNjA0BgNVBAMMLU5leHRjbG91ZCBDb2RlIFNpZ25pbmcgSW50ZXJtZWRp\r\nYXRlIEF1dGhvcml0eTAeFw0xNjA2MTIyMTA1MDZaFw00MTA2MDYyMTA1MDZaMGYx\r\nCzAJBgNVBAYTAkRFMRswGQYDVQQIDBJCYWRlbi1XdWVydHRlbWJlcmcxEjAQBgNV\r\nBAcMCVN0dXR0Z2FydDEXMBUGA1UECgwOTmV4dGNsb3VkIEdtYkgxDTALBgNVBAMM\r\nBGNvcmUwggEiMA0GCSqGSIb3DQEBAQUAA4IBDwAwggEKAoIBAQDUxcrn2DC892IX\r\n8+dJjZVh9YeHF65n2ha886oeAizOuHBdWBfzqt+GoUYTOjqZF93HZMcwy0P+xyCf\r\nQqak5Ke9dybN06RXUuGP45k9UYBp03qzlUzCDalrkj+Jd30LqcSC1sjRTsfuhc+u\r\nvH1IBuBnf7SMUJUcoEffbmmpAPlEcLHxlUGlGnz0q1e8UFzjbEFj3JucMO4ys35F\r\nqZS4dhvCngQhRW3DaMlQLXEUL9k3kFV+BzlkPzVZEtSmk4HJujFCnZj1vMcjQBg\/\r\nBqq1HCmUB6tulnGcxUzt\/Z\/oSIgnuGyENeke077W3EyryINL7EIyD4Xp7sxLizTM\r\nFCFCjjH1AgMBAAGjggFDMIIBPzAJBgNVHRMEAjAAMBEGCWCGSAGG+EIBAQQEAwIG\r\nQDAzBglghkgBhvhCAQ0EJhYkT3BlblNTTCBHZW5lcmF0ZWQgU2VydmVyIENlcnRp\r\nZmljYXRlMB0GA1UdDgQWBBQwc1H9AL8pRlW2e5SLCfPPqtqc0DCBpQYDVR0jBIGd\r\nMIGagBRt6m6qqTcsPIktFz79Ru7DnnjtdKF+pHwwejELMAkGA1UEBhMCREUxGzAZ\r\nBgNVBAgMEkJhZGVuLVd1ZXJ0dGVtYmVyZzESMBAGA1UEBwwJU3R1dHRnYXJ0MRcw\r\nFQYDVQQKDA5OZXh0Y2xvdWQgR21iSDEhMB8GA1UEAwwYTmV4dGNsb3VkIFJvb3Qg\r\nQXV0aG9yaXR5ggIQADAOBgNVHQ8BAf8EBAMCBaAwEwYDVR0lBAwwCgYIKwYBBQUH\r\nAwEwDQYJKoZIhvcNAQELBQADggEBADZ6+HV\/+0NEH3nahTBFxO6nKyR\/VWigACH0\r\nnaV0ecTcoQwDjKDNNFr+4S1WlHdwITlnNabC7v9rZ\/6QvbkrOTuO9fOR6azp1EwW\r\n2pixWqj0Sb9\/dSIVRpSq+jpBE6JAiX44dSR7zoBxRB8DgVO2Afy0s80xEpr5JAzb\r\nNYuPS7M5UHdAv2dr16fDcDIvn+vk92KpNh1NTeZFjBbRVQ9DXrgkRGW34TK8uSLI\r\nYG6jnfJ6eJgTaO431ywWPXNg1mUMaT\/+QBOgB299QVCKQU+lcZWptQt+RdsJUm46\r\nNY\/nARy4Oi4uOe88SuWITj9KhrFmEvrUlgM8FvoXA1ldrR7KiEg=\r\n-----END CERTIFICATE-----"
}